%!PS-Adobe-3.0 EPSF-3.0 
%%BoundingBox: 0 0 369 411
%%Pages: 0
%%Creator: LibreOffice 4.3
%%Title: none
%%CreationDate: none
%%LanguageLevel: 2
%%EndComments
%%BeginProlog
%%BeginResource: procset SDRes-Prolog 1.0 0
/b4_inc_state save def
/dict_count countdictstack def
/op_count count 1 sub def
userdict begin
0 setgray 0 setlinecap 1 setlinewidth 0 setlinejoin 10 setmiterlimit[] 0 setdash newpath
/languagelevel where {pop languagelevel 1 ne {false setstrokeadjust false setoverprint} if} if
/bdef {bind def} bind def
/c {setrgbcolor} bdef
/l {neg lineto} bdef
/rl {neg rlineto} bdef
/lc {setlinecap} bdef
/lj {setlinejoin} bdef
/lw {setlinewidth} bdef
/ml {setmiterlimit} bdef
/ld {setdash} bdef
/m {neg moveto} bdef
/ct {6 2 roll neg 6 2 roll neg 6 2 roll neg curveto} bdef
/r {rotate} bdef
/t {neg translate} bdef
/s {scale} bdef
/sw {show} bdef
/gs {gsave} bdef
/gr {grestore} bdef
/f {findfont dup length dict begin
{1 index /FID ne {def} {pop pop} ifelse} forall /Encoding ISOLatin1Encoding def
currentdict end /NFont exch definefont pop /NFont findfont} bdef
/p {closepath} bdef
/sf {scalefont setfont} bdef
/ef {eofill}bdef
/pc {closepath stroke}bdef
/ps {stroke}bdef
/pum {matrix currentmatrix}bdef
/pom {setmatrix}bdef
/bs {/aString exch def /nXOfs exch def /nWidth exch def currentpoint nXOfs 0 rmoveto pum nWidth aString stringwidth pop div 1 scale aString show pom moveto} bdef
%%EndResource
%%EndProlog
%%BeginSetup
%%EndSetup
%%Page: 1 1
%%BeginPageSetup
%%EndPageSetup
pum
0.02838 0.02834 s 
0 -14500 t
/tm matrix currentmatrix def
gs
0 0 m 12999 0 l 12999 14499 l 0 14499 l 0 0 l eoclip newpath
gs
0 0 m 12999 0 l 12999 14499 l 0 14499 l 0 0 l eoclip newpath
1.000 1.000 1.000 c 0 0 m  12999 0 l  12999 14499 l  0 14499 l  0 0 l  p ef
0.933 0.933 0.933 c 6500 4599 m  3542 4599 l  3542 3718 l  9458 3718 l 
9458 4599 l  6500 4599 l  p ef
35 lw 1 lj 0.402 0.402 0.402 c 6500 4599 m  3542 4599 l  3542 3718 l  9458 3718 l 
9458 4599 l  6500 4599 l  pc
pum
5439 4303 t
0.203 0.203 0.203 c 0 0 m  116 -303 l  160 -303 l  282 0 l  236 0 l  201 -92 l 
75 -92 l  42 0 l  0 0 l  p
87 -125 m  189 -125 l  158 -208 l  148 -234 141 -255 137 -271 ct 133 -252 127 -232 120 -213 ct 
87 -125 l  p ef
346 84 m  346 -220 l  380 -220 l  380 -192 l  388 -203 397 -211 407 -217 ct 
417 -222 429 -225 444 -225 ct 463 -225 479 -220 494 -210 ct 508 -201 519 -187 526 -170 ct 
533 -152 537 -133 537 -112 ct 537 -89 533 -69 525 -51 ct 517 -33 505 -19 490 -9 ct 
474 0 458 5 441 5 ct 428 5 417 2 407 -3 ct 397 -8 389 -15 383 -23 ct 383 84 l  346 84 l 
p
379 -109 m  379 -81 385 -60 396 -46 ct 408 -33 422 -26 438 -26 ct 455 -26 469 -33 481 -47 ct 
493 -61 499 -83 499 -112 ct 499 -140 493 -161 482 -175 ct 470 -189 456 -196 440 -196 ct 
424 -196 410 -189 397 -174 ct 385 -159 379 -137 379 -109 ct p ef
618 0 m  618 -303 l  655 -303 l  655 0 l  618 0 l  p ef
748 -261 m  748 -303 l  785 -303 l  785 -261 l  748 -261 l  p
748 0 m  748 -220 l  785 -220 l  785 0 l  748 0 l  p ef
1019 -81 m  1056 -76 l  1052 -51 1042 -31 1025 -17 ct 1009 -2 988 5 964 5 ct 
934 5 910 -5 892 -25 ct 873 -44 864 -72 864 -109 ct 864 -133 868 -154 876 -172 ct 
884 -189 896 -203 912 -212 ct 928 -221 945 -225 964 -225 ct 988 -225 1008 -219 1023 -207 ct 
1038 -195 1048 -177 1052 -155 ct 1016 -150 l  1013 -165 1006 -176 998 -183 ct 
989 -190 978 -194 966 -194 ct 947 -194 931 -187 920 -174 ct 908 -160 902 -139 902 -110 ct 
902 -81 908 -59 919 -46 ct 930 -33 945 -26 964 -26 ct 978 -26 990 -30 1000 -39 ct 
1010 -48 1016 -62 1019 -81 ct p ef
1266 -27 m  1253 -15 1239 -7 1227 -2 ct 1214 3 1200 5 1185 5 ct 1161 5 1142 -1 1129 -13 ct 
1116 -25 1109 -40 1109 -58 ct 1109 -69 1111 -79 1116 -88 ct 1121 -97 1128 -104 1136 -109 ct 
1144 -115 1153 -119 1163 -122 ct 1170 -123 1182 -125 1197 -127 ct 1227 -131 1249 -135 1264 -140 ct 
1264 -145 1264 -148 1264 -150 ct 1264 -165 1260 -175 1253 -181 ct 1244 -190 1229 -194 1210 -194 ct 
1192 -194 1179 -191 1171 -185 ct 1162 -179 1156 -168 1152 -152 ct 1115 -157 l 
1118 -173 1124 -185 1132 -195 ct 1139 -205 1150 -212 1165 -217 ct 1179 -222 1196 -225 1215 -225 ct 
1234 -225 1249 -223 1261 -218 ct 1273 -214 1282 -208 1287 -202 ct 1293 -195 1297 -186 1299 -176 ct 
1300 -170 1301 -158 1301 -142 ct 1301 -92 l  1301 -57 1302 -35 1303 -26 ct 1305 -17 1308 -8 1312 0 ct 
1274 0 l  1270 -8 1267 -17 1266 -27 ct p
1264 -111 m  1250 -105 1230 -101 1202 -97 ct 1187 -95 1176 -92 1169 -89 ct 1163 -86 1158 -82 1154 -77 ct 
1151 -72 1149 -66 1149 -59 ct 1149 -49 1153 -41 1160 -34 ct 1168 -27 1179 -24 1194 -24 ct 
1208 -24 1221 -27 1233 -33 ct 1244 -40 1252 -48 1258 -59 ct 1262 -68 1264 -81 1264 -97 ct 
1264 -111 l  p ef
1538 -81 m  1575 -76 l  1571 -51 1561 -31 1544 -17 ct 1528 -2 1507 5 1483 5 ct 
1453 5 1429 -5 1411 -25 ct 1392 -44 1383 -72 1383 -109 ct 1383 -133 1387 -154 1395 -172 ct 
1403 -189 1415 -203 1431 -212 ct 1447 -221 1464 -225 1483 -225 ct 1507 -225 1527 -219 1542 -207 ct 
1557 -195 1567 -177 1571 -155 ct 1535 -150 l  1532 -165 1525 -176 1517 -183 ct 
1508 -190 1497 -194 1485 -194 ct 1466 -194 1450 -187 1439 -174 ct 1427 -160 1421 -139 1421 -110 ct 
1421 -81 1427 -59 1438 -46 ct 1449 -33 1464 -26 1483 -26 ct 1497 -26 1509 -30 1519 -39 ct 
1529 -48 1535 -62 1538 -81 ct p
1451 37 m  1462 0 l  1490 0 l  1483 22 l  1495 23 1504 27 1510 33 ct 1516 38 1519 45 1519 52 ct 
1519 62 1514 71 1504 79 ct 1494 87 1479 91 1460 91 ct 1448 91 1439 91 1430 91 ct 
1432 65 l  1441 66 1447 66 1452 66 ct 1465 66 1474 64 1479 61 ct 1483 58 1485 55 1485 51 ct 
1485 48 1484 46 1482 44 ct 1481 42 1478 41 1473 39 ct 1469 38 1461 37 1451 37 ct 
p ef
1784 -27 m  1771 -15 1757 -7 1745 -2 ct 1732 3 1718 5 1703 5 ct 1679 5 1660 -1 1647 -13 ct 
1634 -25 1627 -40 1627 -58 ct 1627 -69 1629 -79 1634 -88 ct 1639 -97 1646 -104 1654 -109 ct 
1662 -115 1671 -119 1681 -122 ct 1688 -123 1700 -125 1715 -127 ct 1745 -131 1767 -135 1782 -140 ct 
1782 -145 1782 -148 1782 -150 ct 1782 -165 1778 -175 1771 -181 ct 1762 -190 1747 -194 1728 -194 ct 
1710 -194 1697 -191 1689 -185 ct 1680 -179 1674 -168 1670 -152 ct 1633 -157 l 
1636 -173 1642 -185 1650 -195 ct 1657 -205 1668 -212 1683 -217 ct 1697 -222 1714 -225 1733 -225 ct 
1752 -225 1767 -223 1779 -218 ct 1791 -214 1800 -208 1805 -202 ct 1811 -195 1815 -186 1817 -176 ct 
1818 -170 1819 -158 1819 -142 ct 1819 -92 l  1819 -57 1820 -35 1821 -26 ct 1823 -17 1826 -8 1830 0 ct 
1792 0 l  1788 -8 1785 -17 1784 -27 ct p
1782 -111 m  1768 -105 1748 -101 1720 -97 ct 1705 -95 1694 -92 1687 -89 ct 1681 -86 1676 -82 1672 -77 ct 
1669 -72 1667 -66 1667 -59 ct 1667 -49 1671 -41 1678 -34 ct 1686 -27 1697 -24 1712 -24 ct 
1726 -24 1739 -27 1751 -33 ct 1762 -40 1770 -48 1776 -59 ct 1780 -68 1782 -81 1782 -97 ct 
1782 -111 l  p
1660 -246 m  1660 -260 1664 -272 1672 -280 ct 1679 -289 1689 -293 1702 -293 ct 
1710 -293 1722 -289 1736 -282 ct 1745 -278 1751 -276 1756 -276 ct 1760 -276 1764 -277 1766 -280 ct 
1768 -282 1770 -287 1771 -294 ct 1798 -294 l  1798 -278 1794 -267 1786 -259 ct 
1779 -251 1769 -247 1757 -247 ct 1749 -247 1737 -251 1723 -259 ct 1714 -264 1707 -266 1703 -266 ct 
1698 -266 1694 -264 1691 -261 ct 1688 -258 1687 -253 1687 -246 ct 1660 -246 l 
p ef
1898 -110 m  1898 -151 1909 -181 1932 -201 ct 1950 -217 1973 -225 2000 -225 ct 
2030 -225 2055 -215 2074 -195 ct 2093 -175 2102 -148 2102 -113 ct 2102 -85 2098 -63 2089 -46 ct 
2081 -30 2069 -17 2053 -8 ct 2037 1 2019 5 2000 5 ct 1970 5 1945 -5 1926 -25 ct 
1907 -44 1898 -73 1898 -110 ct p
1936 -110 m  1936 -82 1942 -61 1954 -47 ct 1966 -33 1982 -26 2000 -26 ct 2018 -26 2034 -33 2046 -47 ct 
2058 -61 2064 -83 2064 -111 ct 2064 -138 2058 -159 2046 -173 ct 2033 -187 2018 -194 2000 -194 ct 
1982 -194 1966 -187 1954 -173 ct 1942 -159 1936 -138 1936 -110 ct p ef
pom
0.933 0.933 0.933 c 6500 5589 m  3542 5589 l  3542 4708 l  9458 4708 l 
9458 5589 l  6500 5589 l  p ef
0.402 0.402 0.402 c 6500 5589 m  3542 5589 l  3542 4708 l  9458 4708 l 
9458 5589 l  6500 5589 l  pc
pum
4995 5293 t
0.203 0.203 0.203 c 0 0 m  116 -303 l  160 -303 l  282 0 l  236 0 l  201 -92 l 
75 -92 l  42 0 l  0 0 l  p
87 -125 m  189 -125 l  158 -208 l  148 -234 141 -255 137 -271 ct 133 -252 127 -232 120 -213 ct 
87 -125 l  p ef
346 84 m  346 -220 l  380 -220 l  380 -192 l  388 -203 397 -211 407 -217 ct 
417 -222 429 -225 444 -225 ct 463 -225 479 -220 494 -210 ct 508 -201 519 -187 526 -170 ct 
533 -152 537 -133 537 -112 ct 537 -89 533 -69 525 -51 ct 517 -33 505 -19 490 -9 ct 
474 0 458 5 441 5 ct 428 5 417 2 407 -3 ct 397 -8 389 -15 383 -23 ct 383 84 l  346 84 l 
p
379 -109 m  379 -81 385 -60 396 -46 ct 408 -33 422 -26 438 -26 ct 455 -26 469 -33 481 -47 ct 
493 -61 499 -83 499 -112 ct 499 -140 493 -161 482 -175 ct 470 -189 456 -196 440 -196 ct 
424 -196 410 -189 397 -174 ct 385 -159 379 -137 379 -109 ct p ef
618 0 m  618 -220 l  650 -220 l  650 -187 l  659 -203 667 -213 674 -218 ct 
681 -223 689 -225 698 -225 ct 711 -225 724 -221 737 -213 ct 724 -179 l  715 -184 706 -187 697 -187 ct 
689 -187 682 -185 675 -180 ct 669 -175 664 -168 661 -159 ct 657 -146 655 -131 655 -116 ct 
655 0 l  618 0 l  p ef
944 -71 m  981 -66 l  975 -44 964 -26 947 -14 ct 931 -1 910 5 884 5 ct 852 5 827 -5 808 -25 ct 
789 -45 780 -72 780 -108 ct 780 -145 789 -174 808 -194 ct 827 -215 852 -225 882 -225 ct 
912 -225 936 -215 954 -195 ct 973 -175 982 -146 982 -110 ct 982 -108 982 -104 982 -100 ct 
818 -100 l  819 -76 826 -58 839 -45 ct 851 -32 867 -26 885 -26 ct 899 -26 911 -30 920 -37 ct 
930 -44 938 -55 944 -71 ct p
819 -131 m  944 -131 l  942 -149 938 -163 930 -173 ct 918 -187 902 -194 883 -194 ct 
865 -194 851 -188 839 -177 ct 827 -165 820 -150 819 -131 ct p ef
1051 -66 m  1088 -71 l  1090 -56 1096 -45 1105 -38 ct 1115 -30 1128 -26 1145 -26 ct 
1162 -26 1174 -29 1183 -36 ct 1191 -43 1195 -51 1195 -61 ct 1195 -69 1191 -76 1184 -81 ct 
1179 -84 1166 -88 1146 -93 ct 1118 -100 1099 -106 1088 -111 ct 1078 -116 1070 -123 1064 -132 ct 
1059 -141 1056 -151 1056 -162 ct 1056 -171 1058 -180 1063 -189 ct 1067 -197 1073 -204 1081 -210 ct 
1087 -214 1095 -218 1105 -221 ct 1115 -224 1126 -225 1137 -225 ct 1155 -225 1170 -223 1183 -218 ct 
1196 -213 1206 -206 1212 -197 ct 1218 -189 1223 -177 1225 -163 ct 1189 -158 l 
1187 -169 1182 -178 1174 -184 ct 1166 -191 1155 -194 1140 -194 ct 1123 -194 1111 -191 1103 -186 ct 
1096 -180 1092 -173 1092 -166 ct 1092 -161 1094 -157 1097 -153 ct 1100 -149 1105 -146 1111 -143 ct 
1115 -142 1126 -139 1145 -134 ct 1171 -127 1190 -121 1200 -116 ct 1210 -112 1218 -105 1224 -97 ct 
1230 -88 1233 -77 1233 -65 ct 1233 -52 1229 -41 1222 -30 ct 1215 -19 1205 -10 1191 -4 ct 
1177 2 1162 5 1145 5 ct 1116 5 1095 -1 1080 -13 ct 1065 -25 1055 -43 1051 -66 ct 
p ef
1463 -71 m  1500 -66 l  1494 -44 1483 -26 1466 -14 ct 1450 -1 1429 5 1403 5 ct 
1371 5 1346 -5 1327 -25 ct 1308 -45 1299 -72 1299 -108 ct 1299 -145 1308 -174 1327 -194 ct 
1346 -215 1371 -225 1401 -225 ct 1431 -225 1455 -215 1473 -195 ct 1492 -175 1501 -146 1501 -110 ct 
1501 -108 1501 -104 1501 -100 ct 1337 -100 l  1338 -76 1345 -58 1358 -45 ct 
1370 -32 1386 -26 1404 -26 ct 1418 -26 1430 -30 1439 -37 ct 1449 -44 1457 -55 1463 -71 ct 
p
1338 -131 m  1463 -131 l  1461 -149 1457 -163 1449 -173 ct 1437 -187 1421 -194 1402 -194 ct 
1384 -194 1370 -188 1358 -177 ct 1346 -165 1339 -150 1338 -131 ct p ef
1585 0 m  1585 -220 l  1618 -220 l  1618 -189 l  1634 -213 1657 -225 1687 -225 ct 
1701 -225 1713 -223 1724 -218 ct 1735 -213 1743 -207 1748 -199 ct 1754 -191 1758 -182 1760 -172 ct 
1761 -165 1762 -153 1762 -135 ct 1762 0 l  1724 0 l  1724 -134 l  1724 -149 1723 -161 1720 -168 ct 
1717 -176 1712 -182 1705 -186 ct 1697 -191 1689 -193 1679 -193 ct 1664 -193 1650 -188 1639 -178 ct 
1628 -168 1622 -149 1622 -120 ct 1622 0 l  1585 0 l  p ef
1937 -33 m  1942 0 l  1932 2 1922 3 1914 3 ct 1900 3 1890 1 1882 -3 ct 1875 -8 1870 -13 1867 -20 ct 
1864 -27 1862 -42 1862 -64 ct 1862 -191 l  1835 -191 l  1835 -220 l  1862 -220 l 
1862 -274 l  1899 -297 l  1899 -220 l  1937 -220 l  1937 -191 l  1899 -191 l 
1899 -63 l  1899 -53 1900 -46 1901 -43 ct 1902 -40 1904 -37 1908 -36 ct 1911 -34 1915 -33 1920 -33 ct 
1925 -33 1930 -33 1937 -33 ct p ef
2154 -27 m  2141 -15 2127 -7 2115 -2 ct 2102 3 2088 5 2073 5 ct 2049 5 2030 -1 2017 -13 ct 
2004 -25 1997 -40 1997 -58 ct 1997 -69 1999 -79 2004 -88 ct 2009 -97 2016 -104 2024 -109 ct 
2032 -115 2041 -119 2051 -122 ct 2058 -123 2070 -125 2085 -127 ct 2115 -131 2137 -135 2152 -140 ct 
2152 -145 2152 -148 2152 -150 ct 2152 -165 2148 -175 2141 -181 ct 2132 -190 2117 -194 2098 -194 ct 
2080 -194 2067 -191 2059 -185 ct 2050 -179 2044 -168 2040 -152 ct 2003 -157 l 
2006 -173 2012 -185 2020 -195 ct 2027 -205 2038 -212 2053 -217 ct 2067 -222 2084 -225 2103 -225 ct 
2122 -225 2137 -223 2149 -218 ct 2161 -214 2170 -208 2175 -202 ct 2181 -195 2185 -186 2187 -176 ct 
2188 -170 2189 -158 2189 -142 ct 2189 -92 l  2189 -57 2190 -35 2191 -26 ct 2193 -17 2196 -8 2200 0 ct 
2162 0 l  2158 -8 2155 -17 2154 -27 ct p
2152 -111 m  2138 -105 2118 -101 2090 -97 ct 2075 -95 2064 -92 2057 -89 ct 2051 -86 2046 -82 2042 -77 ct 
2039 -72 2037 -66 2037 -59 ct 2037 -49 2041 -41 2048 -34 ct 2056 -27 2067 -24 2082 -24 ct 
2096 -24 2109 -27 2121 -33 ct 2132 -40 2140 -48 2146 -59 ct 2150 -68 2152 -81 2152 -97 ct 
2152 -111 l  p ef
2426 -81 m  2463 -76 l  2459 -51 2449 -31 2432 -17 ct 2416 -2 2395 5 2371 5 ct 
2341 5 2317 -5 2299 -25 ct 2280 -44 2271 -72 2271 -109 ct 2271 -133 2275 -154 2283 -172 ct 
2291 -189 2303 -203 2319 -212 ct 2335 -221 2352 -225 2371 -225 ct 2395 -225 2415 -219 2430 -207 ct 
2445 -195 2455 -177 2459 -155 ct 2423 -150 l  2420 -165 2413 -176 2405 -183 ct 
2396 -190 2385 -194 2373 -194 ct 2354 -194 2338 -187 2327 -174 ct 2315 -160 2309 -139 2309 -110 ct 
2309 -81 2315 -59 2326 -46 ct 2337 -33 2352 -26 2371 -26 ct 2385 -26 2397 -30 2407 -39 ct 
2417 -48 2423 -62 2426 -81 ct p
2339 37 m  2350 0 l  2378 0 l  2371 22 l  2383 23 2392 27 2398 33 ct 2404 38 2407 45 2407 52 ct 
2407 62 2402 71 2392 79 ct 2382 87 2367 91 2348 91 ct 2336 91 2327 91 2318 91 ct 
2320 65 l  2329 66 2335 66 2340 66 ct 2353 66 2362 64 2367 61 ct 2371 58 2373 55 2373 51 ct 
2373 48 2372 46 2370 44 ct 2369 42 2366 41 2361 39 ct 2357 38 2349 37 2339 37 ct 
p ef
2673 -27 m  2660 -15 2646 -7 2634 -2 ct 2621 3 2607 5 2592 5 ct 2568 5 2549 -1 2536 -13 ct 
2523 -25 2516 -40 2516 -58 ct 2516 -69 2518 -79 2523 -88 ct 2528 -97 2535 -104 2543 -109 ct 
2551 -115 2560 -119 2570 -122 ct 2577 -123 2589 -125 2604 -127 ct 2634 -131 2656 -135 2671 -140 ct 
2671 -145 2671 -148 2671 -150 ct 2671 -165 2667 -175 2660 -181 ct 2651 -190 2636 -194 2617 -194 ct 
2599 -194 2586 -191 2578 -185 ct 2569 -179 2563 -168 2559 -152 ct 2522 -157 l 
2525 -173 2531 -185 2539 -195 ct 2546 -205 2557 -212 2572 -217 ct 2586 -222 2603 -225 2622 -225 ct 
2641 -225 2656 -223 2668 -218 ct 2680 -214 2689 -208 2694 -202 ct 2700 -195 2704 -186 2706 -176 ct 
2707 -170 2708 -158 2708 -142 ct 2708 -92 l  2708 -57 2709 -35 2710 -26 ct 2712 -17 2715 -8 2719 0 ct 
2681 0 l  2677 -8 2674 -17 2673 -27 ct p
2671 -111 m  2657 -105 2637 -101 2609 -97 ct 2594 -95 2583 -92 2576 -89 ct 2570 -86 2565 -82 2561 -77 ct 
2558 -72 2556 -66 2556 -59 ct 2556 -49 2560 -41 2567 -34 ct 2575 -27 2586 -24 2601 -24 ct 
2615 -24 2628 -27 2640 -33 ct 2651 -40 2659 -48 2665 -59 ct 2669 -68 2671 -81 2671 -97 ct 
2671 -111 l  p
2549 -246 m  2549 -260 2553 -272 2561 -280 ct 2568 -289 2578 -293 2591 -293 ct 
2599 -293 2611 -289 2625 -282 ct 2634 -278 2640 -276 2645 -276 ct 2649 -276 2653 -277 2655 -280 ct 
2657 -282 2659 -287 2660 -294 ct 2687 -294 l  2687 -278 2683 -267 2675 -259 ct 
2668 -251 2658 -247 2646 -247 ct 2638 -247 2626 -251 2612 -259 ct 2603 -264 2596 -266 2592 -266 ct 
2587 -266 2583 -264 2580 -261 ct 2577 -258 2576 -253 2576 -246 ct 2549 -246 l 
p ef
2787 -110 m  2787 -151 2798 -181 2821 -201 ct 2839 -217 2862 -225 2889 -225 ct 
2919 -225 2944 -215 2963 -195 ct 2982 -175 2991 -148 2991 -113 ct 2991 -85 2987 -63 2978 -46 ct 
2970 -30 2958 -17 2942 -8 ct 2926 1 2908 5 2889 5 ct 2859 5 2834 -5 2815 -25 ct 
2796 -44 2787 -73 2787 -110 ct p
2825 -110 m  2825 -82 2831 -61 2843 -47 ct 2855 -33 2871 -26 2889 -26 ct 2907 -26 2923 -33 2935 -47 ct 
2947 -61 2953 -83 2953 -111 ct 2953 -138 2947 -159 2935 -173 ct 2922 -187 2907 -194 2889 -194 ct 
2871 -194 2855 -187 2843 -173 ct 2831 -159 2825 -138 2825 -110 ct p ef
pom
0.933 0.933 0.933 c 6500 6594 m  3542 6594 l  3542 5713 l  9458 5713 l 
9458 6594 l  6500 6594 l  p ef
0.402 0.402 0.402 c 6500 6594 m  3542 6594 l  3542 5713 l  9458 5713 l 
9458 6594 l  6500 6594 l  pc
pum
5704 6298 t
0.203 0.203 0.203 c 19 -98 m  57 -101 l  59 -86 63 -73 69 -64 ct 76 -54 86 -46 100 -40 ct 
113 -34 129 -31 146 -31 ct 161 -31 174 -33 186 -38 ct 197 -42 206 -49 212 -57 ct 
217 -65 220 -73 220 -82 ct 220 -92 217 -100 212 -107 ct 207 -114 198 -120 185 -125 ct 
177 -128 159 -133 132 -140 ct 104 -146 84 -153 73 -158 ct 59 -166 48 -175 41 -187 ct 
34 -198 30 -210 30 -224 ct 30 -240 34 -254 43 -267 ct 52 -281 64 -291 81 -298 ct 
98 -305 116 -308 136 -308 ct 159 -308 179 -304 196 -297 ct 213 -290 226 -279 235 -265 ct 
244 -251 249 -236 250 -218 ct 212 -215 l  210 -234 203 -248 191 -258 ct 179 -267 162 -272 138 -272 ct 
114 -272 97 -268 86 -259 ct 75 -250 69 -239 69 -227 ct 69 -216 73 -207 81 -200 ct 
88 -193 109 -186 141 -178 ct 174 -171 196 -165 208 -159 ct 225 -151 238 -141 247 -128 ct 
255 -116 259 -102 259 -85 ct 259 -69 254 -54 245 -40 ct 236 -26 223 -15 206 -7 ct 
188 1 169 5 148 5 ct 120 5 97 1 79 -7 ct 61 -15 46 -27 36 -43 ct 25 -59 20 -78 19 -98 ct 
p ef
498 -71 m  535 -66 l  529 -44 518 -26 501 -14 ct 485 -1 464 5 438 5 ct 406 5 381 -5 362 -25 ct 
343 -45 334 -72 334 -108 ct 334 -145 343 -174 362 -194 ct 381 -215 406 -225 436 -225 ct 
466 -225 490 -215 508 -195 ct 527 -175 536 -146 536 -110 ct 536 -108 536 -104 536 -100 ct 
372 -100 l  373 -76 380 -58 393 -45 ct 405 -32 421 -26 439 -26 ct 453 -26 465 -30 474 -37 ct 
484 -44 492 -55 498 -71 ct p
373 -131 m  498 -131 l  496 -149 492 -163 484 -173 ct 472 -187 456 -194 437 -194 ct 
419 -194 405 -188 393 -177 ct 381 -165 374 -150 373 -131 ct p ef
605 -66 m  642 -71 l  644 -56 650 -45 659 -38 ct 669 -30 682 -26 699 -26 ct 
716 -26 728 -29 737 -36 ct 745 -43 749 -51 749 -61 ct 749 -69 745 -76 738 -81 ct 
733 -84 720 -88 700 -93 ct 672 -100 653 -106 642 -111 ct 632 -116 624 -123 618 -132 ct 
613 -141 610 -151 610 -162 ct 610 -171 612 -180 617 -189 ct 621 -197 627 -204 635 -210 ct 
641 -214 649 -218 659 -221 ct 669 -224 680 -225 691 -225 ct 709 -225 724 -223 737 -218 ct 
750 -213 760 -206 766 -197 ct 772 -189 777 -177 779 -163 ct 743 -158 l  741 -169 736 -178 728 -184 ct 
720 -191 709 -194 694 -194 ct 677 -194 665 -191 657 -186 ct 650 -180 646 -173 646 -166 ct 
646 -161 648 -157 651 -153 ct 654 -149 659 -146 665 -143 ct 669 -142 680 -139 699 -134 ct 
725 -127 744 -121 754 -116 ct 764 -112 772 -105 778 -97 ct 784 -88 787 -77 787 -65 ct 
787 -52 783 -41 776 -30 ct 769 -19 759 -10 745 -4 ct 731 2 716 5 699 5 ct 670 5 649 -1 634 -13 ct 
619 -25 609 -43 605 -66 ct p ef
851 -66 m  888 -71 l  890 -56 896 -45 905 -38 ct 915 -30 928 -26 945 -26 ct 
962 -26 974 -29 983 -36 ct 991 -43 995 -51 995 -61 ct 995 -69 991 -76 984 -81 ct 
979 -84 966 -88 946 -93 ct 918 -100 899 -106 888 -111 ct 878 -116 870 -123 864 -132 ct 
859 -141 856 -151 856 -162 ct 856 -171 858 -180 863 -189 ct 867 -197 873 -204 881 -210 ct 
887 -214 895 -218 905 -221 ct 915 -224 926 -225 937 -225 ct 955 -225 970 -223 983 -218 ct 
996 -213 1006 -206 1012 -197 ct 1018 -189 1023 -177 1025 -163 ct 989 -158 l 
987 -169 982 -178 974 -184 ct 966 -191 955 -194 940 -194 ct 923 -194 911 -191 903 -186 ct 
896 -180 892 -173 892 -166 ct 892 -161 894 -157 897 -153 ct 900 -149 905 -146 911 -143 ct 
915 -142 926 -139 945 -134 ct 971 -127 990 -121 1000 -116 ct 1010 -112 1018 -105 1024 -97 ct 
1030 -88 1033 -77 1033 -65 ct 1033 -52 1029 -41 1022 -30 ct 1015 -19 1005 -10 991 -4 ct 
977 2 962 5 945 5 ct 916 5 895 -1 880 -13 ct 865 -25 855 -43 851 -66 ct p ef
1256 -27 m  1243 -15 1229 -7 1217 -2 ct 1204 3 1190 5 1175 5 ct 1151 5 1132 -1 1119 -13 ct 
1106 -25 1099 -40 1099 -58 ct 1099 -69 1101 -79 1106 -88 ct 1111 -97 1118 -104 1126 -109 ct 
1134 -115 1143 -119 1153 -122 ct 1160 -123 1172 -125 1187 -127 ct 1217 -131 1239 -135 1254 -140 ct 
1254 -145 1254 -148 1254 -150 ct 1254 -165 1250 -175 1243 -181 ct 1234 -190 1219 -194 1200 -194 ct 
1182 -194 1169 -191 1161 -185 ct 1152 -179 1146 -168 1142 -152 ct 1105 -157 l 
1108 -173 1114 -185 1122 -195 ct 1129 -205 1140 -212 1155 -217 ct 1169 -222 1186 -225 1205 -225 ct 
1224 -225 1239 -223 1251 -218 ct 1263 -214 1272 -208 1277 -202 ct 1283 -195 1287 -186 1289 -176 ct 
1290 -170 1291 -158 1291 -142 ct 1291 -92 l  1291 -57 1292 -35 1293 -26 ct 1295 -17 1298 -8 1302 0 ct 
1264 0 l  1260 -8 1257 -17 1256 -27 ct p
1254 -111 m  1240 -105 1220 -101 1192 -97 ct 1177 -95 1166 -92 1159 -89 ct 1153 -86 1148 -82 1144 -77 ct 
1141 -72 1139 -66 1139 -59 ct 1139 -49 1143 -41 1150 -34 ct 1158 -27 1169 -24 1184 -24 ct 
1198 -24 1211 -27 1223 -33 ct 1234 -40 1242 -48 1248 -59 ct 1252 -68 1254 -81 1254 -97 ct 
1254 -111 l  p
1132 -246 m  1132 -260 1136 -272 1144 -280 ct 1151 -289 1161 -293 1174 -293 ct 
1182 -293 1194 -289 1208 -282 ct 1217 -278 1223 -276 1228 -276 ct 1232 -276 1236 -277 1238 -280 ct 
1240 -282 1242 -287 1243 -294 ct 1270 -294 l  1270 -278 1266 -267 1258 -259 ct 
1251 -251 1241 -247 1229 -247 ct 1221 -247 1209 -251 1195 -259 ct 1186 -264 1179 -266 1175 -266 ct 
1170 -266 1166 -264 1163 -261 ct 1160 -258 1159 -253 1159 -246 ct 1132 -246 l 
p ef
1370 -110 m  1370 -151 1381 -181 1404 -201 ct 1422 -217 1445 -225 1472 -225 ct 
1502 -225 1527 -215 1546 -195 ct 1565 -175 1574 -148 1574 -113 ct 1574 -85 1570 -63 1561 -46 ct 
1553 -30 1541 -17 1525 -8 ct 1509 1 1491 5 1472 5 ct 1442 5 1417 -5 1398 -25 ct 
1379 -44 1370 -73 1370 -110 ct p
1408 -110 m  1408 -82 1414 -61 1426 -47 ct 1438 -33 1454 -26 1472 -26 ct 1490 -26 1506 -33 1518 -47 ct 
1530 -61 1536 -83 1536 -111 ct 1536 -138 1530 -159 1518 -173 ct 1505 -187 1490 -194 1472 -194 ct 
1454 -194 1438 -187 1426 -173 ct 1414 -159 1408 -138 1408 -110 ct p ef
pom
0.933 0.933 0.933 c 6500 7594 m  3542 7594 l  3542 6713 l  9458 6713 l 
9458 7594 l  6500 7594 l  p ef
0.503 0.503 0.503 c 6500 7594 m  3542 7594 l  3542 6713 l  9458 6713 l 
9458 7594 l  6500 7594 l  pc
pum
5323 7298 t
0.203 0.203 0.203 c 110 0 m  110 -267 l  10 -267 l  10 -303 l  250 -303 l 
250 -267 l  150 -267 l  150 0 l  110 0 l  p ef
308 0 m  308 -220 l  340 -220 l  340 -187 l  349 -203 357 -213 364 -218 ct 
371 -223 379 -225 388 -225 ct 401 -225 414 -221 427 -213 ct 414 -179 l  405 -184 396 -187 387 -187 ct 
379 -187 372 -185 365 -180 ct 359 -175 354 -168 351 -159 ct 347 -146 345 -131 345 -116 ct 
345 0 l  308 0 l  p ef
627 -27 m  614 -15 600 -7 588 -2 ct 575 3 561 5 546 5 ct 522 5 503 -1 490 -13 ct 
477 -25 470 -40 470 -58 ct 470 -69 472 -79 477 -88 ct 482 -97 489 -104 497 -109 ct 
505 -115 514 -119 524 -122 ct 531 -123 543 -125 558 -127 ct 588 -131 610 -135 625 -140 ct 
625 -145 625 -148 625 -150 ct 625 -165 621 -175 614 -181 ct 605 -190 590 -194 571 -194 ct 
553 -194 540 -191 532 -185 ct 523 -179 517 -168 513 -152 ct 476 -157 l  479 -173 485 -185 493 -195 ct 
500 -205 511 -212 526 -217 ct 540 -222 557 -225 576 -225 ct 595 -225 610 -223 622 -218 ct 
634 -214 643 -208 648 -202 ct 654 -195 658 -186 660 -176 ct 661 -170 662 -158 662 -142 ct 
662 -92 l  662 -57 663 -35 664 -26 ct 666 -17 669 -8 673 0 ct 635 0 l  631 -8 628 -17 627 -27 ct 
p
625 -111 m  611 -105 591 -101 563 -97 ct 548 -95 537 -92 530 -89 ct 524 -86 519 -82 515 -77 ct 
512 -72 510 -66 510 -59 ct 510 -49 514 -41 521 -34 ct 529 -27 540 -24 555 -24 ct 
569 -24 582 -27 594 -33 ct 605 -40 613 -48 619 -59 ct 623 -68 625 -81 625 -97 ct 
625 -111 l  p ef
756 0 m  756 -220 l  789 -220 l  789 -189 l  805 -213 828 -225 858 -225 ct 
872 -225 884 -223 895 -218 ct 906 -213 914 -207 919 -199 ct 925 -191 929 -182 931 -172 ct 
932 -165 933 -153 933 -135 ct 933 0 l  895 0 l  895 -134 l  895 -149 894 -161 891 -168 ct 
888 -176 883 -182 876 -186 ct 868 -191 860 -193 850 -193 ct 835 -193 821 -188 810 -178 ct 
799 -168 793 -149 793 -120 ct 793 0 l  756 0 l  p ef
1013 -66 m  1050 -71 l  1052 -56 1058 -45 1067 -38 ct 1077 -30 1090 -26 1107 -26 ct 
1124 -26 1136 -29 1145 -36 ct 1153 -43 1157 -51 1157 -61 ct 1157 -69 1153 -76 1146 -81 ct 
1141 -84 1128 -88 1108 -93 ct 1080 -100 1061 -106 1050 -111 ct 1040 -116 1032 -123 1026 -132 ct 
1021 -141 1018 -151 1018 -162 ct 1018 -171 1020 -180 1025 -189 ct 1029 -197 1035 -204 1043 -210 ct 
1049 -214 1057 -218 1067 -221 ct 1077 -224 1088 -225 1099 -225 ct 1117 -225 1132 -223 1145 -218 ct 
1158 -213 1168 -206 1174 -197 ct 1180 -189 1185 -177 1187 -163 ct 1151 -158 l 
1149 -169 1144 -178 1136 -184 ct 1128 -191 1117 -194 1102 -194 ct 1085 -194 1073 -191 1065 -186 ct 
1058 -180 1054 -173 1054 -166 ct 1054 -161 1056 -157 1059 -153 ct 1062 -149 1067 -146 1073 -143 ct 
1077 -142 1088 -139 1107 -134 ct 1133 -127 1152 -121 1162 -116 ct 1172 -112 1180 -105 1186 -97 ct 
1192 -88 1195 -77 1195 -65 ct 1195 -52 1191 -41 1184 -30 ct 1177 -19 1167 -10 1153 -4 ct 
1139 2 1124 5 1107 5 ct 1078 5 1057 -1 1042 -13 ct 1027 -25 1017 -43 1013 -66 ct 
p ef
1273 84 m  1273 -220 l  1307 -220 l  1307 -192 l  1315 -203 1324 -211 1334 -217 ct 
1344 -222 1356 -225 1371 -225 ct 1390 -225 1406 -220 1421 -210 ct 1435 -201 1446 -187 1453 -170 ct 
1460 -152 1464 -133 1464 -112 ct 1464 -89 1460 -69 1452 -51 ct 1444 -33 1432 -19 1417 -9 ct 
1401 0 1385 5 1368 5 ct 1355 5 1344 2 1334 -3 ct 1324 -8 1316 -15 1310 -23 ct 1310 84 l 
1273 84 l  p
1306 -109 m  1306 -81 1312 -60 1323 -46 ct 1335 -33 1349 -26 1365 -26 ct 1382 -26 1396 -33 1408 -47 ct 
1420 -61 1426 -83 1426 -112 ct 1426 -140 1420 -161 1409 -175 ct 1397 -189 1383 -196 1367 -196 ct 
1351 -196 1337 -189 1324 -174 ct 1312 -159 1306 -137 1306 -109 ct p ef
1532 -110 m  1532 -151 1543 -181 1566 -201 ct 1584 -217 1607 -225 1634 -225 ct 
1664 -225 1689 -215 1708 -195 ct 1727 -175 1736 -148 1736 -113 ct 1736 -85 1732 -63 1723 -46 ct 
1715 -30 1703 -17 1687 -8 ct 1671 1 1653 5 1634 5 ct 1604 5 1579 -5 1560 -25 ct 
1541 -44 1532 -73 1532 -110 ct p
1570 -110 m  1570 -82 1576 -61 1588 -47 ct 1600 -33 1616 -26 1634 -26 ct 1652 -26 1668 -33 1680 -47 ct 
1692 -61 1698 -83 1698 -111 ct 1698 -138 1692 -159 1680 -173 ct 1667 -187 1652 -194 1634 -194 ct 
1616 -194 1600 -187 1588 -173 ct 1576 -159 1570 -138 1570 -110 ct p ef
1817 0 m  1817 -220 l  1849 -220 l  1849 -187 l  1858 -203 1866 -213 1873 -218 ct 
1880 -223 1888 -225 1897 -225 ct 1910 -225 1923 -221 1936 -213 ct 1923 -179 l 
1914 -184 1905 -187 1896 -187 ct 1888 -187 1881 -185 1874 -180 ct 1868 -175 1863 -168 1860 -159 ct 
1856 -146 1854 -131 1854 -116 ct 1854 0 l  1817 0 l  p ef
2074 -33 m  2079 0 l  2069 2 2059 3 2051 3 ct 2037 3 2027 1 2019 -3 ct 2012 -8 2007 -13 2004 -20 ct 
2001 -27 1999 -42 1999 -64 ct 1999 -191 l  1972 -191 l  1972 -220 l  1999 -220 l 
1999 -274 l  2036 -297 l  2036 -220 l  2074 -220 l  2074 -191 l  2036 -191 l 
2036 -63 l  2036 -53 2037 -46 2038 -43 ct 2039 -40 2041 -37 2045 -36 ct 2048 -34 2052 -33 2057 -33 ct 
2062 -33 2067 -33 2074 -33 ct p ef
2297 -71 m  2334 -66 l  2328 -44 2317 -26 2300 -14 ct 2284 -1 2263 5 2237 5 ct 
2205 5 2180 -5 2161 -25 ct 2142 -45 2133 -72 2133 -108 ct 2133 -145 2142 -174 2161 -194 ct 
2180 -215 2205 -225 2235 -225 ct 2265 -225 2289 -215 2307 -195 ct 2326 -175 2335 -146 2335 -110 ct 
2335 -108 2335 -104 2335 -100 ct 2171 -100 l  2172 -76 2179 -58 2192 -45 ct 
2204 -32 2220 -26 2238 -26 ct 2252 -26 2264 -30 2273 -37 ct 2283 -44 2291 -55 2297 -71 ct 
p
2172 -131 m  2297 -131 l  2295 -149 2291 -163 2283 -173 ct 2271 -187 2255 -194 2236 -194 ct 
2218 -194 2204 -188 2192 -177 ct 2180 -165 2173 -150 2172 -131 ct p ef
pom
0.933 0.933 0.933 c 6500 8594 m  3542 8594 l  3542 7713 l  9458 7713 l 
9458 8594 l  6500 8594 l  p ef
0.402 0.402 0.402 c 6500 8594 m  3542 8594 l  3542 7713 l  9458 7713 l 
9458 8594 l  6500 8594 l  pc
pum
5940 8298 t
0.203 0.203 0.203 c 34 0 m  34 -303 l  168 -303 l  195 -303 215 -300 229 -295 ct 
243 -289 254 -280 262 -266 ct 271 -252 275 -237 275 -220 ct 275 -199 268 -181 254 -166 ct 
240 -151 219 -142 190 -138 ct 201 -133 209 -128 214 -123 ct 226 -112 237 -99 247 -83 ct 
299 0 l  250 0 l  210 -63 l  198 -81 188 -95 181 -105 ct 173 -115 167 -121 161 -125 ct 
155 -129 149 -132 142 -134 ct 138 -135 131 -135 120 -135 ct 74 -135 l  74 0 l 
34 0 l  p
74 -171 m  160 -171 l  178 -171 192 -173 202 -177 ct 213 -180 221 -186 226 -195 ct 
231 -203 234 -212 234 -221 ct 234 -236 229 -247 218 -256 ct 208 -265 192 -270 169 -270 ct 
74 -270 l  74 -171 l  p ef
519 -71 m  556 -66 l  550 -44 539 -26 522 -14 ct 506 -1 485 5 459 5 ct 427 5 402 -5 383 -25 ct 
364 -45 355 -72 355 -108 ct 355 -145 364 -174 383 -194 ct 402 -215 427 -225 457 -225 ct 
487 -225 511 -215 529 -195 ct 548 -175 557 -146 557 -110 ct 557 -108 557 -104 557 -100 ct 
393 -100 l  394 -76 401 -58 414 -45 ct 426 -32 442 -26 460 -26 ct 474 -26 486 -30 495 -37 ct 
505 -44 513 -55 519 -71 ct p
394 -131 m  519 -131 l  517 -149 513 -163 505 -173 ct 493 -187 477 -194 458 -194 ct 
440 -194 426 -188 414 -177 ct 402 -165 395 -150 394 -131 ct p ef
782 0 m  782 -28 l  768 -6 748 5 721 5 ct 703 5 687 0 672 -10 ct 658 -19 646 -33 638 -50 ct 
630 -67 626 -87 626 -110 ct 626 -132 630 -152 637 -170 ct 644 -187 655 -201 670 -211 ct 
685 -220 701 -225 719 -225 ct 732 -225 744 -222 755 -217 ct 765 -211 774 -204 780 -195 ct 
780 -303 l  817 -303 l  817 0 l  782 0 l  p
664 -110 m  664 -82 670 -61 682 -47 ct 694 -33 708 -26 724 -26 ct 740 -26 754 -33 766 -46 ct 
777 -59 783 -80 783 -107 ct 783 -137 777 -159 766 -173 ct 754 -187 740 -194 722 -194 ct 
706 -194 692 -187 681 -174 ct 670 -160 664 -139 664 -110 ct p ef
1063 -71 m  1100 -66 l  1094 -44 1083 -26 1066 -14 ct 1050 -1 1029 5 1003 5 ct 
971 5 946 -5 927 -25 ct 908 -45 899 -72 899 -108 ct 899 -145 908 -174 927 -194 ct 
946 -215 971 -225 1001 -225 ct 1031 -225 1055 -215 1073 -195 ct 1092 -175 1101 -146 1101 -110 ct 
1101 -108 1101 -104 1101 -100 ct 937 -100 l  938 -76 945 -58 958 -45 ct 970 -32 986 -26 1004 -26 ct 
1018 -26 1030 -30 1039 -37 ct 1049 -44 1057 -55 1063 -71 ct p
938 -131 m  1063 -131 l  1061 -149 1057 -163 1049 -173 ct 1037 -187 1021 -194 1002 -194 ct 
984 -194 970 -188 958 -177 ct 946 -165 939 -150 938 -131 ct p ef
pom
0.933 0.933 0.933 c 6500 9594 m  3542 9594 l  3542 8713 l  9458 8713 l 
9458 9594 l  6500 9594 l  p ef
0.402 0.402 0.402 c 6500 9594 m  3542 9594 l  3542 8713 l  9458 8713 l 
9458 9594 l  6500 9594 l  pc
pum
4559 9298 t
0.203 0.203 0.203 c 34 0 m  34 -303 l  252 -303 l  252 -267 l  74 -267 l 
74 -175 l  241 -175 l  241 -139 l  74 -139 l  74 -36 l  259 -36 l  259 0 l 
34 0 l  p ef
348 0 m  348 -220 l  381 -220 l  381 -189 l  397 -213 420 -225 450 -225 ct 
464 -225 476 -223 487 -218 ct 498 -213 506 -207 511 -199 ct 517 -191 521 -182 523 -172 ct 
524 -165 525 -153 525 -135 ct 525 0 l  487 0 l  487 -134 l  487 -149 486 -161 483 -168 ct 
480 -176 475 -182 468 -186 ct 460 -191 452 -193 442 -193 ct 427 -193 413 -188 402 -178 ct 
391 -168 385 -149 385 -120 ct 385 0 l  348 0 l  p ef
618 0 m  618 -303 l  655 -303 l  655 0 l  618 0 l  p ef
891 -27 m  878 -15 864 -7 852 -2 ct 839 3 825 5 810 5 ct 786 5 767 -1 754 -13 ct 
741 -25 734 -40 734 -58 ct 734 -69 736 -79 741 -88 ct 746 -97 753 -104 761 -109 ct 
769 -115 778 -119 788 -122 ct 795 -123 807 -125 822 -127 ct 852 -131 874 -135 889 -140 ct 
889 -145 889 -148 889 -150 ct 889 -165 885 -175 878 -181 ct 869 -190 854 -194 835 -194 ct 
817 -194 804 -191 796 -185 ct 787 -179 781 -168 777 -152 ct 740 -157 l  743 -173 749 -185 757 -195 ct 
764 -205 775 -212 790 -217 ct 804 -222 821 -225 840 -225 ct 859 -225 874 -223 886 -218 ct 
898 -214 907 -208 912 -202 ct 918 -195 922 -186 924 -176 ct 925 -170 926 -158 926 -142 ct 
926 -92 l  926 -57 927 -35 928 -26 ct 930 -17 933 -8 937 0 ct 899 0 l  895 -8 892 -17 891 -27 ct 
p
889 -111 m  875 -105 855 -101 827 -97 ct 812 -95 801 -92 794 -89 ct 788 -86 783 -82 779 -77 ct 
776 -72 774 -66 774 -59 ct 774 -49 778 -41 785 -34 ct 793 -27 804 -24 819 -24 ct 
833 -24 846 -27 858 -33 ct 869 -40 877 -48 883 -59 ct 887 -68 889 -81 889 -97 ct 
889 -111 l  p ef
1163 -81 m  1200 -76 l  1196 -51 1186 -31 1169 -17 ct 1153 -2 1132 5 1108 5 ct 
1078 5 1054 -5 1036 -25 ct 1017 -44 1008 -72 1008 -109 ct 1008 -133 1012 -154 1020 -172 ct 
1028 -189 1040 -203 1056 -212 ct 1072 -221 1089 -225 1108 -225 ct 1132 -225 1152 -219 1167 -207 ct 
1182 -195 1192 -177 1196 -155 ct 1160 -150 l  1157 -165 1150 -176 1142 -183 ct 
1133 -190 1122 -194 1110 -194 ct 1091 -194 1075 -187 1064 -174 ct 1052 -160 1046 -139 1046 -110 ct 
1046 -81 1052 -59 1063 -46 ct 1074 -33 1089 -26 1108 -26 ct 1122 -26 1134 -30 1144 -39 ct 
1154 -48 1160 -62 1163 -81 ct p ef
1417 -71 m  1454 -66 l  1448 -44 1437 -26 1420 -14 ct 1404 -1 1383 5 1357 5 ct 
1325 5 1300 -5 1281 -25 ct 1262 -45 1253 -72 1253 -108 ct 1253 -145 1262 -174 1281 -194 ct 
1300 -215 1325 -225 1355 -225 ct 1385 -225 1409 -215 1427 -195 ct 1446 -175 1455 -146 1455 -110 ct 
1455 -108 1455 -104 1455 -100 ct 1291 -100 l  1292 -76 1299 -58 1312 -45 ct 
1324 -32 1340 -26 1358 -26 ct 1372 -26 1384 -30 1393 -37 ct 1403 -44 1411 -55 1417 -71 ct 
p
1292 -131 m  1417 -131 l  1415 -149 1411 -163 1403 -173 ct 1391 -187 1375 -194 1356 -194 ct 
1338 -194 1324 -188 1312 -177 ct 1300 -165 1293 -150 1292 -131 ct p ef
1833 0 m  1833 -28 l  1819 -6 1799 5 1772 5 ct 1754 5 1738 0 1723 -10 ct 1709 -19 1697 -33 1689 -50 ct 
1681 -67 1677 -87 1677 -110 ct 1677 -132 1681 -152 1688 -170 ct 1695 -187 1706 -201 1721 -211 ct 
1736 -220 1752 -225 1770 -225 ct 1783 -225 1795 -222 1806 -217 ct 1816 -211 1825 -204 1831 -195 ct 
1831 -303 l  1868 -303 l  1868 0 l  1833 0 l  p
1715 -110 m  1715 -82 1721 -61 1733 -47 ct 1745 -33 1759 -26 1775 -26 ct 1791 -26 1805 -33 1817 -46 ct 
1828 -59 1834 -80 1834 -107 ct 1834 -137 1828 -159 1817 -173 ct 1805 -187 1791 -194 1773 -194 ct 
1757 -194 1743 -187 1732 -174 ct 1721 -160 1715 -139 1715 -110 ct p ef
2114 -71 m  2151 -66 l  2145 -44 2134 -26 2117 -14 ct 2101 -1 2080 5 2054 5 ct 
2022 5 1997 -5 1978 -25 ct 1959 -45 1950 -72 1950 -108 ct 1950 -145 1959 -174 1978 -194 ct 
1997 -215 2022 -225 2052 -225 ct 2082 -225 2106 -215 2124 -195 ct 2143 -175 2152 -146 2152 -110 ct 
2152 -108 2152 -104 2152 -100 ct 1988 -100 l  1989 -76 1996 -58 2009 -45 ct 
2021 -32 2037 -26 2055 -26 ct 2069 -26 2081 -30 2090 -37 ct 2100 -44 2108 -55 2114 -71 ct 
p
1989 -131 m  2114 -131 l  2112 -149 2108 -163 2100 -173 ct 2088 -187 2072 -194 2053 -194 ct 
2035 -194 2021 -188 2009 -177 ct 1997 -165 1990 -150 1989 -131 ct p ef
2394 0 m  2394 -303 l  2498 -303 l  2521 -303 2539 -302 2551 -299 ct 2569 -295 2583 -287 2596 -277 ct 
2611 -263 2623 -246 2631 -225 ct 2639 -204 2643 -180 2643 -153 ct 2643 -130 2640 -110 2635 -92 ct 
2630 -74 2623 -59 2614 -48 ct 2606 -36 2597 -27 2587 -20 ct 2577 -14 2565 -9 2551 -5 ct 
2537 -2 2521 0 2503 0 ct 2394 0 l  p
2434 -36 m  2498 -36 l  2518 -36 2534 -38 2545 -42 ct 2556 -45 2565 -51 2572 -57 ct 
2581 -67 2589 -79 2594 -96 ct 2599 -112 2602 -131 2602 -154 ct 2602 -185 2597 -210 2586 -227 ct 
2576 -244 2564 -255 2549 -261 ct 2538 -265 2521 -267 2497 -267 ct 2434 -267 l 
2434 -36 l  p ef
2873 -27 m  2860 -15 2846 -7 2834 -2 ct 2821 3 2807 5 2792 5 ct 2768 5 2749 -1 2736 -13 ct 
2723 -25 2716 -40 2716 -58 ct 2716 -69 2718 -79 2723 -88 ct 2728 -97 2735 -104 2743 -109 ct 
2751 -115 2760 -119 2770 -122 ct 2777 -123 2789 -125 2804 -127 ct 2834 -131 2856 -135 2871 -140 ct 
2871 -145 2871 -148 2871 -150 ct 2871 -165 2867 -175 2860 -181 ct 2851 -190 2836 -194 2817 -194 ct 
2799 -194 2786 -191 2778 -185 ct 2769 -179 2763 -168 2759 -152 ct 2722 -157 l 
2725 -173 2731 -185 2739 -195 ct 2746 -205 2757 -212 2772 -217 ct 2786 -222 2803 -225 2822 -225 ct 
2841 -225 2856 -223 2868 -218 ct 2880 -214 2889 -208 2894 -202 ct 2900 -195 2904 -186 2906 -176 ct 
2907 -170 2908 -158 2908 -142 ct 2908 -92 l  2908 -57 2909 -35 2910 -26 ct 2912 -17 2915 -8 2919 0 ct 
2881 0 l  2877 -8 2874 -17 2873 -27 ct p
2871 -111 m  2857 -105 2837 -101 2809 -97 ct 2794 -95 2783 -92 2776 -89 ct 2770 -86 2765 -82 2761 -77 ct 
2758 -72 2756 -66 2756 -59 ct 2756 -49 2760 -41 2767 -34 ct 2775 -27 2786 -24 2801 -24 ct 
2815 -24 2828 -27 2840 -33 ct 2851 -40 2859 -48 2865 -59 ct 2869 -68 2871 -81 2871 -97 ct 
2871 -111 l  p ef
3143 0 m  3143 -28 l  3129 -6 3109 5 3082 5 ct 3064 5 3048 0 3033 -10 ct 3019 -19 3007 -33 2999 -50 ct 
2991 -67 2987 -87 2987 -110 ct 2987 -132 2991 -152 2998 -170 ct 3005 -187 3016 -201 3031 -211 ct 
3046 -220 3062 -225 3080 -225 ct 3093 -225 3105 -222 3116 -217 ct 3126 -211 3135 -204 3141 -195 ct 
3141 -303 l  3178 -303 l  3178 0 l  3143 0 l  p
3025 -110 m  3025 -82 3031 -61 3043 -47 ct 3055 -33 3069 -26 3085 -26 ct 3101 -26 3115 -33 3127 -46 ct 
3138 -59 3144 -80 3144 -107 ct 3144 -137 3138 -159 3127 -173 ct 3115 -187 3101 -194 3083 -194 ct 
3067 -194 3053 -187 3042 -174 ct 3031 -160 3025 -139 3025 -110 ct p ef
3259 -110 m  3259 -151 3270 -181 3293 -201 ct 3311 -217 3334 -225 3361 -225 ct 
3391 -225 3416 -215 3435 -195 ct 3454 -175 3463 -148 3463 -113 ct 3463 -85 3459 -63 3450 -46 ct 
3442 -30 3430 -17 3414 -8 ct 3398 1 3380 5 3361 5 ct 3331 5 3306 -5 3287 -25 ct 
3268 -44 3259 -73 3259 -110 ct p
3297 -110 m  3297 -82 3303 -61 3315 -47 ct 3327 -33 3343 -26 3361 -26 ct 3379 -26 3395 -33 3407 -47 ct 
3419 -61 3425 -83 3425 -111 ct 3425 -138 3419 -159 3407 -173 ct 3394 -187 3379 -194 3361 -194 ct 
3343 -194 3327 -187 3315 -173 ct 3303 -159 3297 -138 3297 -110 ct p ef
3531 -66 m  3568 -71 l  3570 -56 3576 -45 3585 -38 ct 3595 -30 3608 -26 3625 -26 ct 
3642 -26 3654 -29 3663 -36 ct 3671 -43 3675 -51 3675 -61 ct 3675 -69 3671 -76 3664 -81 ct 
3659 -84 3646 -88 3626 -93 ct 3598 -100 3579 -106 3568 -111 ct 3558 -116 3550 -123 3544 -132 ct 
3539 -141 3536 -151 3536 -162 ct 3536 -171 3538 -180 3543 -189 ct 3547 -197 3553 -204 3561 -210 ct 
3567 -214 3575 -218 3585 -221 ct 3595 -224 3606 -225 3617 -225 ct 3635 -225 3650 -223 3663 -218 ct 
3676 -213 3686 -206 3692 -197 ct 3698 -189 3703 -177 3705 -163 ct 3669 -158 l 
3667 -169 3662 -178 3654 -184 ct 3646 -191 3635 -194 3620 -194 ct 3603 -194 3591 -191 3583 -186 ct 
3576 -180 3572 -173 3572 -166 ct 3572 -161 3574 -157 3577 -153 ct 3580 -149 3585 -146 3591 -143 ct 
3595 -142 3606 -139 3625 -134 ct 3651 -127 3670 -121 3680 -116 ct 3690 -112 3698 -105 3704 -97 ct 
3710 -88 3713 -77 3713 -65 ct 3713 -52 3709 -41 3702 -30 ct 3695 -19 3685 -10 3671 -4 ct 
3657 2 3642 5 3625 5 ct 3596 5 3575 -1 3560 -13 ct 3545 -25 3535 -43 3531 -66 ct 
p ef
pom
0.933 0.933 0.933 c 6500 10594 m  3542 10594 l  3542 9713 l  9458 9713 l 
9458 10594 l  6500 10594 l  p ef
0.402 0.402 0.402 c 6500 10594 m  3542 10594 l  3542 9713 l  9458 9713 l 
9458 10594 l  6500 10594 l  pc
pum
5850 10298 t
0.203 0.203 0.203 c 34 0 m  34 -303 l  238 -303 l  238 -267 l  74 -267 l 
74 -174 l  216 -174 l  216 -138 l  74 -138 l  74 0 l  34 0 l  p ef
334 0 m  334 -220 l  371 -220 l  371 0 l  334 0 l  p
322 -247 m  349 -305 l  398 -305 l  353 -247 l  322 -247 l  p ef
457 -66 m  494 -71 l  496 -56 502 -45 511 -38 ct 521 -30 534 -26 551 -26 ct 
568 -26 580 -29 589 -36 ct 597 -43 601 -51 601 -61 ct 601 -69 597 -76 590 -81 ct 
585 -84 572 -88 552 -93 ct 524 -100 505 -106 494 -111 ct 484 -116 476 -123 470 -132 ct 
465 -141 462 -151 462 -162 ct 462 -171 464 -180 469 -189 ct 473 -197 479 -204 487 -210 ct 
493 -214 501 -218 511 -221 ct 521 -224 532 -225 543 -225 ct 561 -225 576 -223 589 -218 ct 
602 -213 612 -206 618 -197 ct 624 -189 629 -177 631 -163 ct 595 -158 l  593 -169 588 -178 580 -184 ct 
572 -191 561 -194 546 -194 ct 529 -194 517 -191 509 -186 ct 502 -180 498 -173 498 -166 ct 
498 -161 500 -157 503 -153 ct 506 -149 511 -146 517 -143 ct 521 -142 532 -139 551 -134 ct 
577 -127 596 -121 606 -116 ct 616 -112 624 -105 630 -97 ct 636 -88 639 -77 639 -65 ct 
639 -52 635 -41 628 -30 ct 621 -19 611 -10 597 -4 ct 583 2 568 5 551 5 ct 522 5 501 -1 486 -13 ct 
471 -25 461 -43 457 -66 ct p ef
718 -261 m  718 -303 l  755 -303 l  755 -261 l  718 -261 l  p
718 0 m  718 -220 l  755 -220 l  755 0 l  718 0 l  p ef
989 -81 m  1026 -76 l  1022 -51 1012 -31 995 -17 ct 979 -2 958 5 934 5 ct 904 5 880 -5 862 -25 ct 
843 -44 834 -72 834 -109 ct 834 -133 838 -154 846 -172 ct 854 -189 866 -203 882 -212 ct 
898 -221 915 -225 934 -225 ct 958 -225 978 -219 993 -207 ct 1008 -195 1018 -177 1022 -155 ct 
986 -150 l  983 -165 976 -176 968 -183 ct 959 -190 948 -194 936 -194 ct 917 -194 901 -187 890 -174 ct 
878 -160 872 -139 872 -110 ct 872 -81 878 -59 889 -46 ct 900 -33 915 -26 934 -26 ct 
948 -26 960 -30 970 -39 ct 980 -48 986 -62 989 -81 ct p ef
1236 -27 m  1223 -15 1209 -7 1197 -2 ct 1184 3 1170 5 1155 5 ct 1131 5 1112 -1 1099 -13 ct 
1086 -25 1079 -40 1079 -58 ct 1079 -69 1081 -79 1086 -88 ct 1091 -97 1098 -104 1106 -109 ct 
1114 -115 1123 -119 1133 -122 ct 1140 -123 1152 -125 1167 -127 ct 1197 -131 1219 -135 1234 -140 ct 
1234 -145 1234 -148 1234 -150 ct 1234 -165 1230 -175 1223 -181 ct 1214 -190 1199 -194 1180 -194 ct 
1162 -194 1149 -191 1141 -185 ct 1132 -179 1126 -168 1122 -152 ct 1085 -157 l 
1088 -173 1094 -185 1102 -195 ct 1109 -205 1120 -212 1135 -217 ct 1149 -222 1166 -225 1185 -225 ct 
1204 -225 1219 -223 1231 -218 ct 1243 -214 1252 -208 1257 -202 ct 1263 -195 1267 -186 1269 -176 ct 
1270 -170 1271 -158 1271 -142 ct 1271 -92 l  1271 -57 1272 -35 1273 -26 ct 1275 -17 1278 -8 1282 0 ct 
1244 0 l  1240 -8 1237 -17 1236 -27 ct p
1234 -111 m  1220 -105 1200 -101 1172 -97 ct 1157 -95 1146 -92 1139 -89 ct 1133 -86 1128 -82 1124 -77 ct 
1121 -72 1119 -66 1119 -59 ct 1119 -49 1123 -41 1130 -34 ct 1138 -27 1149 -24 1164 -24 ct 
1178 -24 1191 -27 1203 -33 ct 1214 -40 1222 -48 1228 -59 ct 1232 -68 1234 -81 1234 -97 ct 
1234 -111 l  p ef
pom
pum
9775 4249 t
0.003 0.003 0.003 c 18 -241 m  18 -274 l  198 -274 l  198 -247 l  180 -228 162 -203 145 -172 ct 
127 -141 114 -109 104 -76 ct 97 -53 93 -28 91 0 ct 57 0 l  57 -22 62 -48 70 -79 ct 
78 -110 90 -140 105 -168 ct 120 -197 137 -221 154 -241 ct 18 -241 l  p ef
pom
pum
9761 5239 t
193 -209 m  159 -206 l  156 -219 152 -229 146 -235 ct 137 -245 126 -250 112 -250 ct 
101 -250 92 -247 83 -241 ct 73 -233 65 -222 59 -207 ct 52 -192 49 -171 49 -143 ct 
57 -156 67 -165 79 -171 ct 91 -177 103 -180 116 -180 ct 139 -180 158 -172 174 -155 ct 
190 -138 198 -117 198 -90 ct 198 -73 194 -57 187 -42 ct 179 -27 169 -16 156 -8 ct 
143 0 128 4 111 4 ct 83 4 60 -6 42 -27 ct 24 -48 15 -82 15 -130 ct 15 -183 25 -222 45 -246 ct 
62 -267 85 -278 114 -278 ct 136 -278 154 -272 168 -260 ct 182 -247 190 -231 193 -209 ct 
p
54 -90 m  54 -79 57 -67 62 -57 ct 67 -46 73 -38 82 -32 ct 91 -27 101 -24 111 -24 ct 
126 -24 138 -30 149 -41 ct 159 -53 164 -69 164 -88 ct 164 -108 159 -123 149 -134 ct 
139 -145 126 -150 110 -150 ct 94 -150 81 -145 70 -134 ct 59 -123 54 -108 54 -90 ct 
p ef
pom
pum
9761 6244 t
16 -73 m  52 -76 l  55 -59 61 -46 70 -37 ct 80 -28 91 -24 105 -24 ct 122 -24 136 -30 147 -42 ct 
158 -55 164 -71 164 -91 ct 164 -111 159 -126 148 -137 ct 137 -148 123 -154 105 -154 ct 
93 -154 83 -151 75 -146 ct 66 -141 59 -135 54 -127 ct 22 -132 l  49 -274 l  187 -274 l 
187 -241 l  75 -241 l  61 -167 l  78 -178 95 -184 114 -184 ct 138 -184 158 -176 175 -159 ct 
192 -142 200 -121 200 -94 ct 200 -69 193 -48 178 -30 ct 160 -7 136 4 105 4 ct 80 4 59 -3 43 -17 ct 
27 -31 18 -50 16 -73 ct p ef
pom
pum
9761 7244 t
126 0 m  126 -67 l  5 -67 l  5 -98 l  133 -278 l  160 -278 l  160 -98 l 
198 -98 l  198 -67 l  160 -67 l  160 0 l  126 0 l  p
126 -98 m  126 -223 l  39 -98 l  126 -98 l  p ef
pom
pum
9761 8244 t
18 -73 m  52 -78 l  56 -59 62 -45 71 -37 ct 81 -28 92 -24 106 -24 ct 122 -24 135 -29 146 -40 ct 
157 -51 162 -65 162 -81 ct 162 -97 157 -110 147 -120 ct 137 -130 124 -135 108 -135 ct 
102 -135 94 -134 85 -131 ct 88 -161 l  91 -161 92 -161 94 -161 ct 108 -161 121 -164 132 -172 ct 
143 -179 149 -191 149 -207 ct 149 -219 145 -230 137 -238 ct 128 -246 117 -250 104 -250 ct 
91 -250 80 -246 72 -238 ct 63 -229 57 -217 55 -200 ct 21 -206 l  25 -229 34 -247 49 -259 ct 
63 -272 82 -278 103 -278 ct 118 -278 132 -275 144 -268 ct 157 -262 166 -253 173 -242 ct 
180 -231 183 -219 183 -206 ct 183 -194 180 -183 173 -173 ct 167 -164 157 -156 145 -150 ct 
161 -146 174 -138 184 -127 ct 193 -115 198 -100 198 -82 ct 198 -58 189 -38 172 -21 ct 
154 -4 132 4 105 4 ct 81 4 61 -3 45 -17 ct 29 -32 20 -50 18 -73 ct p ef
pom
pum
9761 9244 t
196 -33 m  196 0 l  11 0 l  11 -8 12 -16 15 -24 ct 20 -37 27 -49 37 -61 ct 47 -74 62 -88 82 -103 ct 
112 -128 133 -148 145 -162 ct 156 -176 162 -190 162 -203 ct 162 -216 157 -227 147 -236 ct 
137 -245 124 -250 108 -250 ct 90 -250 77 -245 67 -235 ct 56 -225 51 -211 51 -193 ct 
17 -198 l  19 -224 29 -244 44 -258 ct 60 -271 82 -278 108 -278 ct 135 -278 157 -271 172 -256 ct 
188 -241 196 -223 196 -201 ct 196 -190 194 -179 189 -169 ct 184 -158 177 -147 166 -135 ct 
155 -123 138 -107 113 -86 ct 93 -69 79 -57 73 -51 ct 67 -45 61 -39 57 -33 ct 196 -33 l 
p ef
pom
pum
9761 10239 t
145 0 m  111 0 l  111 -217 l  103 -209 92 -201 78 -193 ct 65 -185 53 -180 42 -176 ct 
42 -209 l  61 -217 78 -228 92 -241 ct 107 -254 117 -266 123 -278 ct 145 -278 l 
145 0 l  p ef
pom
0.203 0.203 0.203 c 10325 3704 m  10425 3704 10525 3824 10525 3945 ct 10525 4912 l 
10525 5033 10625 5154 10726 5154 ct 10625 5154 10525 5275 10525 5396 ct 10525 6363 l 
10525 6484 10425 6605 10325 6605 ct ps
10325 3704 m  10325 3704 l  pc
10726 6605 m  10726 6605 l  pc
pum
10905 5080 t
-1 0 m  105 -278 l  146 -278 l  258 0 l  216 0 l  185 -84 l  68 -84 l 
38 0 l  -1 0 l  p
79 -114 m  173 -114 l  145 -191 l  136 -214 129 -234 125 -249 ct 120 -231 115 -213 109 -196 ct 
79 -114 l  p ef
283 0 m  283 -278 l  317 -278 l  317 0 l  283 0 l  p ef
442 -30 m  447 0 l  437 2 429 3 421 3 ct 409 3 399 1 393 -3 ct 386 -7 381 -12 378 -18 ct 
375 -25 374 -38 374 -59 ct 374 -175 l  349 -175 l  349 -202 l  374 -202 l 
374 -252 l  408 -272 l  408 -202 l  442 -202 l  442 -175 l  408 -175 l 
408 -58 l  408 -48 409 -42 410 -39 ct 411 -36 413 -34 416 -32 ct 418 -31 422 -30 427 -30 ct 
431 -30 436 -30 442 -30 ct p ef
466 -101 m  466 -138 476 -166 497 -184 ct 514 -199 535 -206 560 -206 ct 587 -206 609 -197 627 -179 ct 
644 -161 653 -136 653 -104 ct 653 -78 649 -58 641 -43 ct 634 -28 623 -16 608 -8 ct 
593 0 577 4 560 4 ct 532 4 509 -5 492 -23 ct 475 -41 466 -67 466 -101 ct p
500 -101 m  500 -75 506 -56 517 -43 ct 528 -30 542 -24 560 -24 ct 577 -24 591 -30 602 -43 ct 
613 -56 619 -76 619 -102 ct 619 -127 613 -146 602 -159 ct 591 -172 576 -178 560 -178 ct 
542 -178 528 -172 517 -159 ct 506 -146 500 -127 500 -101 ct p ef
pom
pum
10905 5516 t
30 0 m  30 -278 l  67 -278 l  214 -60 l  214 -278 l  249 -278 l  249 0 l 
212 0 l  65 -218 l  65 0 l  30 0 l  p ef
317 0 m  317 -202 l  351 -202 l  351 0 l  317 0 l  p
306 -226 m  331 -279 l  376 -279 l  334 -226 l  306 -226 l  p ef
462 0 m  386 -202 l  422 -202 l  466 -81 l  470 -68 475 -54 479 -40 ct 482 -51 486 -64 491 -79 ct 
535 -202 l  571 -202 l  498 0 l  462 0 l  p ef
737 -66 m  772 -61 l  766 -40 756 -24 741 -13 ct 725 -2 706 4 682 4 ct 652 4 629 -5 611 -23 ct 
594 -41 585 -67 585 -99 ct 585 -133 594 -159 612 -178 ct 629 -197 652 -206 680 -206 ct 
708 -206 730 -197 747 -178 ct 764 -160 773 -134 773 -101 ct 773 -99 773 -96 773 -92 ct 
619 -92 l  620 -70 627 -53 638 -42 ct 650 -30 664 -24 682 -24 ct 695 -24 706 -27 715 -34 ct 
724 -41 731 -51 737 -66 ct p
620 -120 m  737 -120 l  735 -137 731 -150 724 -158 ct 712 -171 698 -178 680 -178 ct 
663 -178 650 -173 638 -162 ct 627 -152 621 -138 620 -120 ct p ef
812 0 m  812 -278 l  846 -278 l  846 0 l  812 0 l  p ef
pom
10326 6804 m  10426 6804 10526 6958 10526 7112 ct 10526 8345 l  10526 8499 10626 8654 10727 8654 ct 
10626 8654 10526 8808 10526 8962 ct 10526 10195 l  10526 10349 10426 10504 10326 10504 ct 
ps
10326 6804 m  10326 6804 l  pc
10727 10504 m  10727 10504 l  pc
pum
10905 8581 t
28 0 m  28 -278 l  133 -278 l  154 -278 171 -275 184 -270 ct 197 -264 207 -255 214 -244 ct 
221 -232 225 -220 225 -207 ct 225 -195 222 -184 215 -173 ct 209 -163 199 -154 186 -148 ct 
203 -143 216 -135 225 -123 ct 234 -111 238 -97 238 -81 ct 238 -68 235 -55 230 -44 ct 
224 -33 217 -24 209 -18 ct 201 -12 191 -8 179 -5 ct 167 -2 152 0 134 0 ct 28 0 l 
p
65 -161 m  125 -161 l  142 -161 154 -162 161 -164 ct 170 -167 177 -172 182 -178 ct 
187 -185 189 -193 189 -202 ct 189 -212 187 -220 182 -227 ct 178 -234 172 -239 163 -241 ct 
155 -244 141 -245 121 -245 ct 65 -245 l  65 -161 l  p
65 -33 m  134 -33 l  146 -33 154 -33 159 -34 ct 168 -36 175 -38 180 -42 ct 186 -45 191 -51 195 -57 ct 
198 -64 200 -72 200 -81 ct 200 -91 197 -100 192 -107 ct 187 -115 180 -120 170 -123 ct 
161 -126 147 -128 130 -128 ct 65 -128 l  65 -33 l  p ef
416 -25 m  404 -14 391 -7 380 -3 ct 368 2 355 4 342 4 ct 319 4 302 -1 290 -12 ct 
278 -23 272 -37 272 -53 ct 272 -63 274 -72 279 -80 ct 283 -89 289 -95 297 -100 ct 
304 -105 312 -109 322 -111 ct 328 -113 339 -115 352 -116 ct 380 -120 401 -123 414 -128 ct 
414 -133 414 -136 414 -137 ct 414 -151 411 -161 404 -166 ct 395 -174 382 -178 365 -178 ct 
348 -178 336 -175 328 -169 ct 321 -164 315 -154 311 -139 ct 277 -144 l  280 -158 285 -170 292 -179 ct 
299 -187 309 -194 323 -199 ct 336 -204 351 -206 369 -206 ct 386 -206 401 -204 411 -200 ct 
422 -196 430 -191 436 -185 ct 441 -179 444 -171 446 -162 ct 447 -156 448 -145 448 -130 ct 
448 -85 l  448 -53 449 -33 450 -25 ct 451 -16 454 -8 458 0 ct 424 0 l  420 -7 417 -15 416 -25 ct 
p
414 -101 m  401 -96 382 -92 357 -88 ct 343 -86 333 -84 327 -82 ct 321 -79 316 -75 313 -71 ct 
310 -66 308 -60 308 -55 ct 308 -46 312 -38 319 -32 ct 326 -26 336 -23 349 -23 ct 
363 -23 375 -26 385 -32 ct 396 -37 403 -45 408 -55 ct 412 -63 414 -74 414 -89 ct 
414 -101 l  p ef
501 -240 m  501 -278 l  535 -278 l  535 -240 l  501 -240 l  p
501 0 m  501 -202 l  535 -202 l  535 0 l  501 0 l  p ef
561 0 m  634 -105 l  566 -202 l  607 -202 l  640 -153 l  646 -145 651 -138 654 -132 ct 
660 -140 665 -148 669 -154 ct 703 -202 l  744 -202 l  676 -104 l  749 0 l 
708 0 l  666 -62 l  656 -77 l  602 0 l  561 0 l  p ef
762 -101 m  762 -138 772 -166 793 -184 ct 810 -199 831 -206 856 -206 ct 883 -206 905 -197 923 -179 ct 
940 -161 949 -136 949 -104 ct 949 -78 945 -58 937 -43 ct 930 -28 919 -16 904 -8 ct 
889 0 873 4 856 4 ct 828 4 805 -5 788 -23 ct 771 -41 762 -67 762 -101 ct p
796 -101 m  796 -75 802 -56 813 -43 ct 824 -30 838 -24 856 -24 ct 873 -24 887 -30 898 -43 ct 
909 -56 915 -76 915 -102 ct 915 -127 909 -146 898 -159 ct 887 -172 872 -178 856 -178 ct 
838 -178 824 -172 813 -159 ct 802 -146 796 -127 796 -101 ct p ef
pom
pum
10905 9017 t
30 0 m  30 -278 l  67 -278 l  214 -60 l  214 -278 l  249 -278 l  249 0 l 
212 0 l  65 -218 l  65 0 l  30 0 l  p ef
317 0 m  317 -202 l  351 -202 l  351 0 l  317 0 l  p
306 -226 m  331 -279 l  376 -279 l  334 -226 l  306 -226 l  p ef
462 0 m  386 -202 l  422 -202 l  466 -81 l  470 -68 475 -54 479 -40 ct 482 -51 486 -64 491 -79 ct 
535 -202 l  571 -202 l  498 0 l  462 0 l  p ef
737 -66 m  772 -61 l  766 -40 756 -24 741 -13 ct 725 -2 706 4 682 4 ct 652 4 629 -5 611 -23 ct 
594 -41 585 -67 585 -99 ct 585 -133 594 -159 612 -178 ct 629 -197 652 -206 680 -206 ct 
708 -206 730 -197 747 -178 ct 764 -160 773 -134 773 -101 ct 773 -99 773 -96 773 -92 ct 
619 -92 l  620 -70 627 -53 638 -42 ct 650 -30 664 -24 682 -24 ct 695 -24 706 -27 715 -34 ct 
724 -41 731 -51 737 -66 ct p
620 -120 m  737 -120 l  735 -137 731 -150 724 -158 ct 712 -171 698 -178 680 -178 ct 
663 -178 650 -173 638 -162 ct 627 -152 621 -138 620 -120 ct p ef
812 0 m  812 -278 l  846 -278 l  846 0 l  812 0 l  p ef
pom
3326 3704 m  3200 3704 3075 3866 3075 4029 ct 3075 5329 l  3075 5491 2950 5654 2825 5654 ct 
2950 5654 3075 5817 3075 5979 ct 3075 7279 l  3075 7442 3200 7605 3326 7605 ct 
ps
2825 3704 m  2825 3704 l  pc
3326 7605 m  3326 7605 l  pc
pum
914 5710 t
19 -98 m  57 -101 l  59 -86 63 -73 69 -64 ct 76 -54 86 -46 100 -40 ct 113 -34 129 -31 146 -31 ct 
161 -31 174 -33 186 -38 ct 197 -42 206 -49 212 -57 ct 217 -65 220 -73 220 -82 ct 
220 -92 217 -100 212 -107 ct 207 -114 198 -120 185 -125 ct 177 -128 159 -133 132 -140 ct 
104 -146 84 -153 73 -158 ct 59 -166 48 -175 41 -187 ct 34 -198 30 -210 30 -224 ct 
30 -240 34 -254 43 -267 ct 52 -281 64 -291 81 -298 ct 98 -305 116 -308 136 -308 ct 
159 -308 179 -304 196 -297 ct 213 -290 226 -279 235 -265 ct 244 -251 249 -236 250 -218 ct 
212 -215 l  210 -234 203 -248 191 -258 ct 179 -267 162 -272 138 -272 ct 114 -272 97 -268 86 -259 ct 
75 -250 69 -239 69 -227 ct 69 -216 73 -207 81 -200 ct 88 -193 109 -186 141 -178 ct 
174 -171 196 -165 208 -159 ct 225 -151 238 -141 247 -128 ct 255 -116 259 -102 259 -85 ct 
259 -69 254 -54 245 -40 ct 236 -26 223 -15 206 -7 ct 188 1 169 5 148 5 ct 120 5 97 1 79 -7 ct 
61 -15 46 -27 36 -43 ct 25 -59 20 -78 19 -98 ct p ef
298 -110 m  298 -151 309 -181 332 -201 ct 350 -217 373 -225 400 -225 ct 430 -225 455 -215 474 -195 ct 
493 -175 502 -148 502 -113 ct 502 -85 498 -63 489 -46 ct 481 -30 469 -17 453 -8 ct 
437 1 419 5 400 5 ct 370 5 345 -5 326 -25 ct 307 -44 298 -73 298 -110 ct p
336 -110 m  336 -82 342 -61 354 -47 ct 366 -33 382 -26 400 -26 ct 418 -26 434 -33 446 -47 ct 
458 -61 464 -83 464 -111 ct 464 -138 458 -159 446 -173 ct 433 -187 418 -194 400 -194 ct 
382 -194 366 -187 354 -173 ct 342 -159 336 -138 336 -110 ct p ef
558 0 m  558 -191 l  526 -191 l  526 -220 l  558 -220 l  558 -243 l  558 -258 559 -269 562 -276 ct 
565 -285 572 -293 581 -299 ct 590 -305 603 -308 620 -308 ct 630 -308 642 -307 654 -304 ct 
649 -272 l  641 -273 634 -274 627 -274 ct 615 -274 607 -272 603 -267 ct 598 -262 596 -253 596 -240 ct 
596 -220 l  638 -220 l  638 -191 l  595 -191 l  595 0 l  558 0 l  p ef
752 -33 m  757 0 l  747 2 737 3 729 3 ct 715 3 705 1 697 -3 ct 690 -8 685 -13 682 -20 ct 
679 -27 677 -42 677 -64 ct 677 -191 l  650 -191 l  650 -220 l  677 -220 l 
677 -274 l  714 -297 l  714 -220 l  752 -220 l  752 -191 l  714 -191 l 
714 -63 l  714 -53 715 -46 716 -43 ct 717 -40 719 -37 723 -36 ct 726 -34 730 -33 735 -33 ct 
740 -33 745 -33 752 -33 ct p ef
830 0 m  763 -220 l  801 -220 l  836 -93 l  849 -46 l  849 -48 853 -63 860 -91 ct 
895 -220 l  933 -220 l  965 -92 l  976 -50 l  988 -93 l  1026 -220 l  1063 -220 l 
993 0 l  955 0 l  921 -131 l  913 -169 l  868 0 l  830 0 l  p ef
1235 -27 m  1222 -15 1208 -7 1196 -2 ct 1183 3 1169 5 1154 5 ct 1130 5 1111 -1 1098 -13 ct 
1085 -25 1078 -40 1078 -58 ct 1078 -69 1080 -79 1085 -88 ct 1090 -97 1097 -104 1105 -109 ct 
1113 -115 1122 -119 1132 -122 ct 1139 -123 1151 -125 1166 -127 ct 1196 -131 1218 -135 1233 -140 ct 
1233 -145 1233 -148 1233 -150 ct 1233 -165 1229 -175 1222 -181 ct 1213 -190 1198 -194 1179 -194 ct 
1161 -194 1148 -191 1140 -185 ct 1131 -179 1125 -168 1121 -152 ct 1084 -157 l 
1087 -173 1093 -185 1101 -195 ct 1108 -205 1119 -212 1134 -217 ct 1148 -222 1165 -225 1184 -225 ct 
1203 -225 1218 -223 1230 -218 ct 1242 -214 1251 -208 1256 -202 ct 1262 -195 1266 -186 1268 -176 ct 
1269 -170 1270 -158 1270 -142 ct 1270 -92 l  1270 -57 1271 -35 1272 -26 ct 1274 -17 1277 -8 1281 0 ct 
1243 0 l  1239 -8 1236 -17 1235 -27 ct p
1233 -111 m  1219 -105 1199 -101 1171 -97 ct 1156 -95 1145 -92 1138 -89 ct 1132 -86 1127 -82 1123 -77 ct 
1120 -72 1118 -66 1118 -59 ct 1118 -49 1122 -41 1129 -34 ct 1137 -27 1148 -24 1163 -24 ct 
1177 -24 1190 -27 1202 -33 ct 1213 -40 1221 -48 1227 -59 ct 1231 -68 1233 -81 1233 -97 ct 
1233 -111 l  p ef
1327 0 m  1327 -220 l  1359 -220 l  1359 -187 l  1368 -203 1376 -213 1383 -218 ct 
1390 -223 1398 -225 1407 -225 ct 1420 -225 1433 -221 1446 -213 ct 1433 -179 l 
1424 -184 1415 -187 1406 -187 ct 1398 -187 1391 -185 1384 -180 ct 1378 -175 1373 -168 1370 -159 ct 
1366 -146 1364 -131 1364 -116 ct 1364 0 l  1327 0 l  p ef
1618 -71 m  1655 -66 l  1649 -44 1638 -26 1621 -14 ct 1605 -1 1584 5 1558 5 ct 
1526 5 1501 -5 1482 -25 ct 1463 -45 1454 -72 1454 -108 ct 1454 -145 1463 -174 1482 -194 ct 
1501 -215 1526 -225 1556 -225 ct 1586 -225 1610 -215 1628 -195 ct 1647 -175 1656 -146 1656 -110 ct 
1656 -108 1656 -104 1656 -100 ct 1492 -100 l  1493 -76 1500 -58 1513 -45 ct 
1525 -32 1541 -26 1559 -26 ct 1573 -26 1585 -30 1594 -37 ct 1604 -44 1612 -55 1618 -71 ct 
p
1493 -131 m  1618 -131 l  1616 -149 1612 -163 1604 -173 ct 1592 -187 1576 -194 1557 -194 ct 
1539 -194 1525 -188 1513 -177 ct 1501 -165 1494 -150 1493 -131 ct p ef
pom
3327 7804 m  3201 7804 3076 7920 3076 8037 ct 3076 8970 l  3076 9087 2951 9204 2826 9204 ct 
2951 9204 3076 9320 3076 9437 ct 3076 10370 l  3076 10487 3201 10604 3327 10604 ct 
ps
2826 7804 m  2826 7804 l  pc
3327 10604 m  3327 10604 l  pc
pum
873 9349 t
34 0 m  34 -303 l  74 -303 l  74 -179 l  231 -179 l  231 -303 l  271 -303 l 
271 0 l  231 0 l  231 -143 l  74 -143 l  74 0 l  34 0 l  p ef
477 -27 m  464 -15 450 -7 438 -2 ct 425 3 411 5 396 5 ct 372 5 353 -1 340 -13 ct 
327 -25 320 -40 320 -58 ct 320 -69 322 -79 327 -88 ct 332 -97 339 -104 347 -109 ct 
355 -115 364 -119 374 -122 ct 381 -123 393 -125 408 -127 ct 438 -131 460 -135 475 -140 ct 
475 -145 475 -148 475 -150 ct 475 -165 471 -175 464 -181 ct 455 -190 440 -194 421 -194 ct 
403 -194 390 -191 382 -185 ct 373 -179 367 -168 363 -152 ct 326 -157 l  329 -173 335 -185 343 -195 ct 
350 -205 361 -212 376 -217 ct 390 -222 407 -225 426 -225 ct 445 -225 460 -223 472 -218 ct 
484 -214 493 -208 498 -202 ct 504 -195 508 -186 510 -176 ct 511 -170 512 -158 512 -142 ct 
512 -92 l  512 -57 513 -35 514 -26 ct 516 -17 519 -8 523 0 ct 485 0 l  481 -8 478 -17 477 -27 ct 
p
475 -111 m  461 -105 441 -101 413 -97 ct 398 -95 387 -92 380 -89 ct 374 -86 369 -82 365 -77 ct 
362 -72 360 -66 360 -59 ct 360 -49 364 -41 371 -34 ct 379 -27 390 -24 405 -24 ct 
419 -24 432 -27 444 -33 ct 455 -40 463 -48 469 -59 ct 473 -68 475 -81 475 -97 ct 
475 -111 l  p ef
569 0 m  569 -220 l  601 -220 l  601 -187 l  610 -203 618 -213 625 -218 ct 
632 -223 640 -225 649 -225 ct 662 -225 675 -221 688 -213 ct 675 -179 l  666 -184 657 -187 648 -187 ct 
640 -187 633 -185 626 -180 ct 620 -175 615 -168 612 -159 ct 608 -146 606 -131 606 -116 ct 
606 0 l  569 0 l  p ef
852 0 m  852 -28 l  838 -6 818 5 791 5 ct 773 5 757 0 742 -10 ct 728 -19 716 -33 708 -50 ct 
700 -67 696 -87 696 -110 ct 696 -132 700 -152 707 -170 ct 714 -187 725 -201 740 -211 ct 
755 -220 771 -225 789 -225 ct 802 -225 814 -222 825 -217 ct 835 -211 844 -204 850 -195 ct 
850 -303 l  887 -303 l  887 0 l  852 0 l  p
734 -110 m  734 -82 740 -61 752 -47 ct 764 -33 778 -26 794 -26 ct 810 -26 824 -33 836 -46 ct 
847 -59 853 -80 853 -107 ct 853 -137 847 -159 836 -173 ct 824 -187 810 -194 792 -194 ct 
776 -194 762 -187 751 -174 ct 740 -160 734 -139 734 -110 ct p ef
987 0 m  920 -220 l  958 -220 l  993 -93 l  1006 -46 l  1006 -48 1010 -63 1017 -91 ct 
1052 -220 l  1090 -220 l  1122 -92 l  1133 -50 l  1145 -93 l  1183 -220 l 
1220 -220 l  1150 0 l  1112 0 l  1078 -131 l  1070 -169 l  1025 0 l  987 0 l 
p ef
1391 -27 m  1378 -15 1364 -7 1352 -2 ct 1339 3 1325 5 1310 5 ct 1286 5 1267 -1 1254 -13 ct 
1241 -25 1234 -40 1234 -58 ct 1234 -69 1236 -79 1241 -88 ct 1246 -97 1253 -104 1261 -109 ct 
1269 -115 1278 -119 1288 -122 ct 1295 -123 1307 -125 1322 -127 ct 1352 -131 1374 -135 1389 -140 ct 
1389 -145 1389 -148 1389 -150 ct 1389 -165 1385 -175 1378 -181 ct 1369 -190 1354 -194 1335 -194 ct 
1317 -194 1304 -191 1296 -185 ct 1287 -179 1281 -168 1277 -152 ct 1240 -157 l 
1243 -173 1249 -185 1257 -195 ct 1264 -205 1275 -212 1290 -217 ct 1304 -222 1321 -225 1340 -225 ct 
1359 -225 1374 -223 1386 -218 ct 1398 -214 1407 -208 1412 -202 ct 1418 -195 1422 -186 1424 -176 ct 
1425 -170 1426 -158 1426 -142 ct 1426 -92 l  1426 -57 1427 -35 1428 -26 ct 1430 -17 1433 -8 1437 0 ct 
1399 0 l  1395 -8 1392 -17 1391 -27 ct p
1389 -111 m  1375 -105 1355 -101 1327 -97 ct 1312 -95 1301 -92 1294 -89 ct 1288 -86 1283 -82 1279 -77 ct 
1276 -72 1274 -66 1274 -59 ct 1274 -49 1278 -41 1285 -34 ct 1293 -27 1304 -24 1319 -24 ct 
1333 -24 1346 -27 1358 -33 ct 1369 -40 1377 -48 1383 -59 ct 1387 -68 1389 -81 1389 -97 ct 
1389 -111 l  p ef
1483 0 m  1483 -220 l  1515 -220 l  1515 -187 l  1524 -203 1532 -213 1539 -218 ct 
1546 -223 1554 -225 1563 -225 ct 1576 -225 1589 -221 1602 -213 ct 1589 -179 l 
1580 -184 1571 -187 1562 -187 ct 1554 -187 1547 -185 1540 -180 ct 1534 -175 1529 -168 1526 -159 ct 
1522 -146 1520 -131 1520 -116 ct 1520 0 l  1483 0 l  p ef
1775 -71 m  1812 -66 l  1806 -44 1795 -26 1778 -14 ct 1762 -1 1741 5 1715 5 ct 
1683 5 1658 -5 1639 -25 ct 1620 -45 1611 -72 1611 -108 ct 1611 -145 1620 -174 1639 -194 ct 
1658 -215 1683 -225 1713 -225 ct 1743 -225 1767 -215 1785 -195 ct 1804 -175 1813 -146 1813 -110 ct 
1813 -108 1813 -104 1813 -100 ct 1649 -100 l  1650 -76 1657 -58 1670 -45 ct 
1682 -32 1698 -26 1716 -26 ct 1730 -26 1742 -30 1751 -37 ct 1761 -44 1769 -55 1775 -71 ct 
p
1650 -131 m  1775 -131 l  1773 -149 1769 -163 1761 -173 ct 1749 -187 1733 -194 1714 -194 ct 
1696 -194 1682 -188 1670 -177 ct 1658 -165 1651 -150 1650 -131 ct p ef
pom
0.867 0.867 0.867 c 5856 2493 m  5856 2996 l  5233 2996 l  6500 3487 l 
7767 2996 l  7144 2996 l  7144 2493 l  5856 2493 l  p
5233 2493 m  5233 2493 l  p
7767 3487 m  7767 3487 l  p ef
0.203 0.203 0.203 c 5856 2493 m  5856 2996 l  5233 2996 l  6500 3487 l 
7767 2996 l  7144 2996 l  7144 2493 l  5856 2493 l  pc
5233 2493 m  5233 2493 l  pc
7767 3487 m  7767 3487 l  pc
0.867 0.867 0.867 c 5856 10993 m  5856 11496 l  5233 11496 l  6500 11987 l 
7767 11496 l  7144 11496 l  7144 10993 l  5856 10993 l  p
5233 10993 m  5233 10993 l  p
7767 11987 m  7767 11987 l  p ef
0.203 0.203 0.203 c 5856 10993 m  5856 11496 l  5233 11496 l  6500 11987 l 
7767 11496 l  7144 11496 l  7144 10993 l  5856 10993 l  pc
5233 10993 m  5233 10993 l  pc
7767 11987 m  7767 11987 l  pc
1.000 1.000 1.000 c 6500 273 m  8157 273 9423 688 9423 1231 ct 9423 1774 8157 2189 6500 2189 ct 
4843 2189 3577 1774 3577 1231 ct 3577 688 4843 273 6500 273 ct p
3577 273 m  3577 273 l  p
9424 2190 m  9424 2190 l  p ef
0.203 0.203 0.203 c 6500 273 m  8157 273 9423 688 9423 1231 ct 9423 1774 8157 2189 6500 2189 ct 
4843 2189 3577 1774 3577 1231 ct 3577 688 4843 273 6500 273 ct pc
3577 273 m  3577 273 l  pc
9424 2190 m  9424 2190 l  pc
pum
4493 1136 t
0 0 m  116 -303 l  160 -303 l  282 0 l  236 0 l  201 -92 l  75 -92 l  42 0 l 
0 0 l  p
87 -125 m  189 -125 l  158 -208 l  148 -234 141 -255 137 -271 ct 133 -252 127 -232 120 -213 ct 
87 -125 l  p ef
311 84 m  311 -220 l  345 -220 l  345 -192 l  353 -203 362 -211 372 -217 ct 
382 -222 394 -225 409 -225 ct 428 -225 444 -220 459 -210 ct 473 -201 484 -187 491 -170 ct 
498 -152 502 -133 502 -112 ct 502 -89 498 -69 490 -51 ct 482 -33 470 -19 455 -9 ct 
439 0 423 5 406 5 ct 393 5 382 2 372 -3 ct 362 -8 354 -15 348 -23 ct 348 84 l  311 84 l 
p
344 -109 m  344 -81 350 -60 361 -46 ct 373 -33 387 -26 403 -26 ct 420 -26 434 -33 446 -47 ct 
458 -61 464 -83 464 -112 ct 464 -140 458 -161 447 -175 ct 435 -189 421 -196 405 -196 ct 
389 -196 375 -189 362 -174 ct 350 -159 344 -137 344 -109 ct p ef
548 0 m  548 -303 l  585 -303 l  585 0 l  548 0 l  p ef
643 -261 m  643 -303 l  680 -303 l  680 -261 l  643 -261 l  p
643 0 m  643 -220 l  680 -220 l  680 0 l  643 0 l  p ef
879 -81 m  916 -76 l  912 -51 902 -31 885 -17 ct 869 -2 848 5 824 5 ct 794 5 770 -5 752 -25 ct 
733 -44 724 -72 724 -109 ct 724 -133 728 -154 736 -172 ct 744 -189 756 -203 772 -212 ct 
788 -221 805 -225 824 -225 ct 848 -225 868 -219 883 -207 ct 898 -195 908 -177 912 -155 ct 
876 -150 l  873 -165 866 -176 858 -183 ct 849 -190 838 -194 826 -194 ct 807 -194 791 -187 780 -174 ct 
768 -160 762 -139 762 -110 ct 762 -81 768 -59 779 -46 ct 790 -33 805 -26 824 -26 ct 
838 -26 850 -30 860 -39 ct 870 -48 876 -62 879 -81 ct p ef
1091 -27 m  1078 -15 1064 -7 1052 -2 ct 1039 3 1025 5 1010 5 ct 986 5 967 -1 954 -13 ct 
941 -25 934 -40 934 -58 ct 934 -69 936 -79 941 -88 ct 946 -97 953 -104 961 -109 ct 
969 -115 978 -119 988 -122 ct 995 -123 1007 -125 1022 -127 ct 1052 -131 1074 -135 1089 -140 ct 
1089 -145 1089 -148 1089 -150 ct 1089 -165 1085 -175 1078 -181 ct 1069 -190 1054 -194 1035 -194 ct 
1017 -194 1004 -191 996 -185 ct 987 -179 981 -168 977 -152 ct 940 -157 l  943 -173 949 -185 957 -195 ct 
964 -205 975 -212 990 -217 ct 1004 -222 1021 -225 1040 -225 ct 1059 -225 1074 -223 1086 -218 ct 
1098 -214 1107 -208 1112 -202 ct 1118 -195 1122 -186 1124 -176 ct 1125 -170 1126 -158 1126 -142 ct 
1126 -92 l  1126 -57 1127 -35 1128 -26 ct 1130 -17 1133 -8 1137 0 ct 1099 0 l 
1095 -8 1092 -17 1091 -27 ct p
1089 -111 m  1075 -105 1055 -101 1027 -97 ct 1012 -95 1001 -92 994 -89 ct 988 -86 983 -82 979 -77 ct 
976 -72 974 -66 974 -59 ct 974 -49 978 -41 985 -34 ct 993 -27 1004 -24 1019 -24 ct 
1033 -24 1046 -27 1058 -33 ct 1069 -40 1077 -48 1083 -59 ct 1087 -68 1089 -81 1089 -97 ct 
1089 -111 l  p ef
1328 -81 m  1365 -76 l  1361 -51 1351 -31 1334 -17 ct 1318 -2 1297 5 1273 5 ct 
1243 5 1219 -5 1201 -25 ct 1182 -44 1173 -72 1173 -109 ct 1173 -133 1177 -154 1185 -172 ct 
1193 -189 1205 -203 1221 -212 ct 1237 -221 1254 -225 1273 -225 ct 1297 -225 1317 -219 1332 -207 ct 
1347 -195 1357 -177 1361 -155 ct 1325 -150 l  1322 -165 1315 -176 1307 -183 ct 
1298 -190 1287 -194 1275 -194 ct 1256 -194 1240 -187 1229 -174 ct 1217 -160 1211 -139 1211 -110 ct 
1211 -81 1217 -59 1228 -46 ct 1239 -33 1254 -26 1273 -26 ct 1287 -26 1299 -30 1309 -39 ct 
1319 -48 1325 -62 1328 -81 ct p
1241 37 m  1252 0 l  1280 0 l  1273 22 l  1285 23 1294 27 1300 33 ct 1306 38 1309 45 1309 52 ct 
1309 62 1304 71 1294 79 ct 1284 87 1269 91 1250 91 ct 1238 91 1229 91 1220 91 ct 
1222 65 l  1231 66 1237 66 1242 66 ct 1255 66 1264 64 1269 61 ct 1273 58 1275 55 1275 51 ct 
1275 48 1274 46 1272 44 ct 1271 42 1268 41 1263 39 ct 1259 38 1251 37 1241 37 ct 
p ef
1539 -27 m  1526 -15 1512 -7 1500 -2 ct 1487 3 1473 5 1458 5 ct 1434 5 1415 -1 1402 -13 ct 
1389 -25 1382 -40 1382 -58 ct 1382 -69 1384 -79 1389 -88 ct 1394 -97 1401 -104 1409 -109 ct 
1417 -115 1426 -119 1436 -122 ct 1443 -123 1455 -125 1470 -127 ct 1500 -131 1522 -135 1537 -140 ct 
1537 -145 1537 -148 1537 -150 ct 1537 -165 1533 -175 1526 -181 ct 1517 -190 1502 -194 1483 -194 ct 
1465 -194 1452 -191 1444 -185 ct 1435 -179 1429 -168 1425 -152 ct 1388 -157 l 
1391 -173 1397 -185 1405 -195 ct 1412 -205 1423 -212 1438 -217 ct 1452 -222 1469 -225 1488 -225 ct 
1507 -225 1522 -223 1534 -218 ct 1546 -214 1555 -208 1560 -202 ct 1566 -195 1570 -186 1572 -176 ct 
1573 -170 1574 -158 1574 -142 ct 1574 -92 l  1574 -57 1575 -35 1576 -26 ct 1578 -17 1581 -8 1585 0 ct 
1547 0 l  1543 -8 1540 -17 1539 -27 ct p
1537 -111 m  1523 -105 1503 -101 1475 -97 ct 1460 -95 1449 -92 1442 -89 ct 1436 -86 1431 -82 1427 -77 ct 
1424 -72 1422 -66 1422 -59 ct 1422 -49 1426 -41 1433 -34 ct 1441 -27 1452 -24 1467 -24 ct 
1481 -24 1494 -27 1506 -33 ct 1517 -40 1525 -48 1531 -59 ct 1535 -68 1537 -81 1537 -97 ct 
1537 -111 l  p
1415 -246 m  1415 -260 1419 -272 1427 -280 ct 1434 -289 1444 -293 1457 -293 ct 
1465 -293 1477 -289 1491 -282 ct 1500 -278 1506 -276 1511 -276 ct 1515 -276 1519 -277 1521 -280 ct 
1523 -282 1525 -287 1526 -294 ct 1553 -294 l  1553 -278 1549 -267 1541 -259 ct 
1534 -251 1524 -247 1512 -247 ct 1504 -247 1492 -251 1478 -259 ct 1469 -264 1462 -266 1458 -266 ct 
1453 -266 1449 -264 1446 -261 ct 1443 -258 1442 -253 1442 -246 ct 1415 -246 l 
p ef
1618 -110 m  1618 -151 1629 -181 1652 -201 ct 1670 -217 1693 -225 1720 -225 ct 
1750 -225 1775 -215 1794 -195 ct 1813 -175 1822 -148 1822 -113 ct 1822 -85 1818 -63 1809 -46 ct 
1801 -30 1789 -17 1773 -8 ct 1757 1 1739 5 1720 5 ct 1690 5 1665 -5 1646 -25 ct 
1627 -44 1618 -73 1618 -110 ct p
1656 -110 m  1656 -82 1662 -61 1674 -47 ct 1686 -33 1702 -26 1720 -26 ct 1738 -26 1754 -33 1766 -47 ct 
1778 -61 1784 -83 1784 -111 ct 1784 -138 1778 -159 1766 -173 ct 1753 -187 1738 -194 1720 -194 ct 
1702 -194 1686 -187 1674 -173 ct 1662 -159 1656 -138 1656 -110 ct p ef
2130 0 m  2130 -28 l  2116 -6 2096 5 2069 5 ct 2051 5 2035 0 2020 -10 ct 2006 -19 1994 -33 1986 -50 ct 
1978 -67 1974 -87 1974 -110 ct 1974 -132 1978 -152 1985 -170 ct 1992 -187 2003 -201 2018 -211 ct 
2033 -220 2049 -225 2067 -225 ct 2080 -225 2092 -222 2103 -217 ct 2113 -211 2122 -204 2128 -195 ct 
2128 -303 l  2165 -303 l  2165 0 l  2130 0 l  p
2012 -110 m  2012 -82 2018 -61 2030 -47 ct 2042 -33 2056 -26 2072 -26 ct 2088 -26 2102 -33 2114 -46 ct 
2125 -59 2131 -80 2131 -107 ct 2131 -137 2125 -159 2114 -173 ct 2102 -187 2088 -194 2070 -194 ct 
2054 -194 2040 -187 2029 -174 ct 2018 -160 2012 -139 2012 -110 ct p ef
2211 -110 m  2211 -151 2222 -181 2245 -201 ct 2263 -217 2286 -225 2313 -225 ct 
2343 -225 2368 -215 2387 -195 ct 2406 -175 2415 -148 2415 -113 ct 2415 -85 2411 -63 2402 -46 ct 
2394 -30 2382 -17 2366 -8 ct 2350 1 2332 5 2313 5 ct 2283 5 2258 -5 2239 -25 ct 
2220 -44 2211 -73 2211 -110 ct p
2249 -110 m  2249 -82 2255 -61 2267 -47 ct 2279 -33 2295 -26 2313 -26 ct 2331 -26 2347 -33 2359 -47 ct 
2371 -61 2377 -83 2377 -111 ct 2377 -138 2371 -159 2359 -173 ct 2346 -187 2331 -194 2313 -194 ct 
2295 -194 2279 -187 2267 -173 ct 2255 -159 2249 -138 2249 -110 ct p ef
2783 -303 m  2824 -303 l  2824 -128 l  2824 -98 2821 -73 2814 -56 ct 2807 -38 2794 -23 2777 -12 ct 
2759 -1 2735 5 2706 5 ct 2678 5 2655 0 2637 -10 ct 2619 -19 2606 -34 2599 -52 ct 
2591 -71 2587 -96 2587 -128 ct 2587 -303 l  2628 -303 l  2628 -129 l  2628 -103 2630 -83 2635 -71 ct 
2640 -58 2648 -49 2660 -42 ct 2672 -35 2686 -32 2703 -32 ct 2732 -32 2752 -39 2765 -52 ct 
2777 -65 2783 -91 2783 -129 ct 2783 -303 l  p ef
2872 -66 m  2909 -71 l  2911 -56 2917 -45 2926 -38 ct 2936 -30 2949 -26 2966 -26 ct 
2983 -26 2995 -29 3004 -36 ct 3012 -43 3016 -51 3016 -61 ct 3016 -69 3012 -76 3005 -81 ct 
3000 -84 2987 -88 2967 -93 ct 2939 -100 2920 -106 2909 -111 ct 2899 -116 2891 -123 2885 -132 ct 
2880 -141 2877 -151 2877 -162 ct 2877 -171 2879 -180 2884 -189 ct 2888 -197 2894 -204 2902 -210 ct 
2908 -214 2916 -218 2926 -221 ct 2936 -224 2947 -225 2958 -225 ct 2976 -225 2991 -223 3004 -218 ct 
3017 -213 3027 -206 3033 -197 ct 3039 -189 3044 -177 3046 -163 ct 3010 -158 l 
3008 -169 3003 -178 2995 -184 ct 2987 -191 2976 -194 2961 -194 ct 2944 -194 2932 -191 2924 -186 ct 
2917 -180 2913 -173 2913 -166 ct 2913 -161 2915 -157 2918 -153 ct 2921 -149 2926 -146 2932 -143 ct 
2936 -142 2947 -139 2966 -134 ct 2992 -127 3011 -121 3021 -116 ct 3031 -112 3039 -105 3045 -97 ct 
3051 -88 3054 -77 3054 -65 ct 3054 -52 3050 -41 3043 -30 ct 3036 -19 3026 -10 3012 -4 ct 
2998 2 2983 5 2966 5 ct 2937 5 2916 -1 2901 -13 ct 2886 -25 2876 -43 2872 -66 ct 
p ef
3242 0 m  3242 -32 l  3225 -7 3201 5 3172 5 ct 3159 5 3146 3 3135 -2 ct 3124 -7 3115 -14 3110 -21 ct 
3104 -29 3101 -38 3098 -49 ct 3097 -56 3096 -68 3096 -84 ct 3096 -220 l  3133 -220 l 
3133 -98 l  3133 -78 3134 -65 3135 -59 ct 3138 -49 3143 -41 3150 -35 ct 3158 -30 3168 -27 3179 -27 ct 
3190 -27 3201 -30 3211 -36 ct 3221 -41 3228 -49 3232 -59 ct 3236 -69 3238 -83 3238 -102 ct 
3238 -220 l  3275 -220 l  3275 0 l  3242 0 l  p ef
3478 -27 m  3465 -15 3451 -7 3439 -2 ct 3426 3 3412 5 3397 5 ct 3373 5 3354 -1 3341 -13 ct 
3328 -25 3321 -40 3321 -58 ct 3321 -69 3323 -79 3328 -88 ct 3333 -97 3340 -104 3348 -109 ct 
3356 -115 3365 -119 3375 -122 ct 3382 -123 3394 -125 3409 -127 ct 3439 -131 3461 -135 3476 -140 ct 
3476 -145 3476 -148 3476 -150 ct 3476 -165 3472 -175 3465 -181 ct 3456 -190 3441 -194 3422 -194 ct 
3404 -194 3391 -191 3383 -185 ct 3374 -179 3368 -168 3364 -152 ct 3327 -157 l 
3330 -173 3336 -185 3344 -195 ct 3351 -205 3362 -212 3377 -217 ct 3391 -222 3408 -225 3427 -225 ct 
3446 -225 3461 -223 3473 -218 ct 3485 -214 3494 -208 3499 -202 ct 3505 -195 3509 -186 3511 -176 ct 
3512 -170 3513 -158 3513 -142 ct 3513 -92 l  3513 -57 3514 -35 3515 -26 ct 3517 -17 3520 -8 3524 0 ct 
3486 0 l  3482 -8 3479 -17 3478 -27 ct p
3476 -111 m  3462 -105 3442 -101 3414 -97 ct 3399 -95 3388 -92 3381 -89 ct 3375 -86 3370 -82 3366 -77 ct 
3363 -72 3361 -66 3361 -59 ct 3361 -49 3365 -41 3372 -34 ct 3380 -27 3391 -24 3406 -24 ct 
3420 -24 3433 -27 3445 -33 ct 3456 -40 3464 -48 3470 -59 ct 3474 -68 3476 -81 3476 -97 ct 
3476 -111 l  p
3396 -247 m  3423 -305 l  3472 -305 l  3427 -247 l  3396 -247 l  p ef
3570 0 m  3570 -220 l  3602 -220 l  3602 -187 l  3611 -203 3619 -213 3626 -218 ct 
3633 -223 3641 -225 3650 -225 ct 3663 -225 3676 -221 3689 -213 ct 3676 -179 l 
3667 -184 3658 -187 3649 -187 ct 3641 -187 3634 -185 3627 -180 ct 3621 -175 3616 -168 3613 -159 ct 
3609 -146 3607 -131 3607 -116 ct 3607 0 l  3570 0 l  p ef
3712 -261 m  3712 -303 l  3749 -303 l  3749 -261 l  3712 -261 l  p
3712 0 m  3712 -220 l  3749 -220 l  3749 0 l  3712 0 l  p ef
3790 -110 m  3790 -151 3801 -181 3824 -201 ct 3842 -217 3865 -225 3892 -225 ct 
3922 -225 3947 -215 3966 -195 ct 3985 -175 3994 -148 3994 -113 ct 3994 -85 3990 -63 3981 -46 ct 
3973 -30 3961 -17 3945 -8 ct 3929 1 3911 5 3892 5 ct 3862 5 3837 -5 3818 -25 ct 
3799 -44 3790 -73 3790 -110 ct p
3828 -110 m  3828 -82 3834 -61 3846 -47 ct 3858 -33 3874 -26 3892 -26 ct 3910 -26 3926 -33 3938 -47 ct 
3950 -61 3956 -83 3956 -111 ct 3956 -138 3950 -159 3938 -173 ct 3925 -187 3910 -194 3892 -194 ct 
3874 -194 3858 -187 3846 -173 ct 3834 -159 3828 -138 3828 -110 ct p ef
pom
pum
5592 1610 t
-8 0 m  163 -303 l  211 -303 l  261 0 l  221 0 l  207 -87 l  83 -87 l 
36 0 l  -8 0 l  p
102 -118 m  202 -118 l  191 -194 l  186 -225 183 -251 182 -271 ct 174 -253 164 -233 150 -209 ct 
102 -118 l  p ef
295 0 m  359 -303 l  397 -303 l  333 0 l  295 0 l  p ef
479 -29 m  472 1 l  464 4 455 5 446 5 ct 431 5 419 1 411 -6 ct 404 -12 401 -19 401 -29 ct 
401 -34 402 -45 406 -62 ct 433 -191 l  403 -191 l  410 -220 l  440 -220 l 
452 -273 l  495 -299 l  479 -220 l  516 -220 l  509 -191 l  472 -191 l 
445 -69 l  442 -53 440 -44 440 -41 ct 440 -36 441 -33 444 -31 ct 447 -28 451 -27 457 -27 ct 
465 -27 472 -28 479 -29 ct p ef
516 -83 m  516 -126 529 -162 554 -190 ct 574 -213 602 -225 635 -225 ct 661 -225 683 -217 699 -200 ct 
715 -184 723 -161 723 -133 ct 723 -108 718 -84 708 -62 ct 698 -41 683 -24 664 -12 ct 
646 -1 626 5 605 5 ct 588 5 573 1 559 -6 ct 545 -13 534 -24 527 -37 ct 520 -50 516 -66 516 -83 ct 
p
553 -87 m  553 -66 558 -51 568 -40 ct 578 -29 590 -24 606 -24 ct 613 -24 621 -26 629 -29 ct 
637 -32 644 -37 651 -44 ct 658 -50 663 -58 668 -66 ct 673 -75 677 -84 680 -94 ct 
684 -108 686 -121 686 -133 ct 686 -153 681 -169 671 -180 ct 661 -191 649 -196 634 -196 ct 
622 -196 611 -193 602 -188 ct 592 -182 583 -174 576 -163 ct 568 -152 562 -140 558 -125 ct 
555 -111 553 -98 553 -87 ct p ef
869 0 m  932 -303 l  975 -303 l  1025 -189 l  1040 -154 1052 -125 1061 -101 ct 
1066 -87 1072 -69 1078 -45 ct 1082 -71 1087 -98 1093 -125 ct 1130 -303 l  1170 -303 l 
1107 0 l  1065 0 l  993 -175 l  980 -206 969 -235 960 -262 ct 957 -239 953 -213 947 -185 ct 
909 0 l  869 0 l  p ef
1183 0 m  1229 -220 l  1267 -220 l  1221 0 l  1183 0 l  p
1219 -246 m  1258 -303 l  1305 -303 l  1250 -246 l  1219 -246 l  p ef
1344 0 m  1308 -220 l  1344 -220 l  1363 -100 l  1365 -87 1368 -65 1371 -35 ct 
1378 -51 1387 -69 1399 -89 ct 1472 -220 l  1512 -220 l  1386 0 l  1344 0 l 
p ef
1661 -74 m  1698 -71 l  1692 -53 1680 -36 1661 -19 ct 1642 -3 1620 5 1594 5 ct 
1577 5 1562 1 1549 -6 ct 1535 -14 1525 -25 1518 -39 ct 1511 -54 1507 -70 1507 -88 ct 
1507 -112 1513 -136 1524 -158 ct 1535 -181 1549 -198 1567 -209 ct 1585 -220 1604 -225 1624 -225 ct 
1651 -225 1672 -217 1687 -201 ct 1703 -184 1711 -162 1711 -134 ct 1711 -123 1710 -112 1708 -101 ct 
1545 -101 l  1544 -97 1544 -93 1544 -89 ct 1544 -69 1549 -53 1558 -42 ct 1568 -31 1580 -26 1594 -26 ct 
1607 -26 1619 -30 1632 -38 ct 1644 -47 1654 -58 1661 -74 ct p
1551 -130 m  1676 -130 l  1676 -134 1676 -137 1676 -138 ct 1676 -157 1671 -171 1662 -181 ct 
1652 -191 1640 -196 1625 -196 ct 1609 -196 1594 -191 1581 -180 ct 1568 -169 1558 -152 1551 -130 ct 
p ef
1734 0 m  1798 -303 l  1836 -303 l  1772 0 l  1734 0 l  p ef
pom
1.000 1.000 1.000 c 6500 12286 m  8167 12286 9441 12706 9441 13256 ct 9441 13806 8167 14227 6500 14227 ct 
4833 14227 3559 13806 3559 13256 ct 3559 12706 4833 12286 6500 12286 ct p
3559 12286 m  3559 12286 l  p
9442 14228 m  9442 14228 l  p ef
0.203 0.203 0.203 c 6500 12286 m  8167 12286 9441 12706 9441 13256 ct 9441 13806 8167 14227 6500 14227 ct 
4833 14227 3559 13806 3559 13256 ct 3559 12706 4833 12286 6500 12286 ct pc
3559 12286 m  3559 12286 l  pc
9442 14228 m  9442 14228 l  pc
pum
5937 13162 t
34 0 m  34 -303 l  238 -303 l  238 -267 l  74 -267 l  74 -174 l  216 -174 l 
216 -138 l  74 -138 l  74 0 l  34 0 l  p ef
299 0 m  299 -220 l  336 -220 l  336 0 l  299 0 l  p
287 -247 m  314 -305 l  363 -305 l  318 -247 l  287 -247 l  p ef
387 -66 m  424 -71 l  426 -56 432 -45 441 -38 ct 451 -30 464 -26 481 -26 ct 
498 -26 510 -29 519 -36 ct 527 -43 531 -51 531 -61 ct 531 -69 527 -76 520 -81 ct 
515 -84 502 -88 482 -93 ct 454 -100 435 -106 424 -111 ct 414 -116 406 -123 400 -132 ct 
395 -141 392 -151 392 -162 ct 392 -171 394 -180 399 -189 ct 403 -197 409 -204 417 -210 ct 
423 -214 431 -218 441 -221 ct 451 -224 462 -225 473 -225 ct 491 -225 506 -223 519 -218 ct 
532 -213 542 -206 548 -197 ct 554 -189 559 -177 561 -163 ct 525 -158 l  523 -169 518 -178 510 -184 ct 
502 -191 491 -194 476 -194 ct 459 -194 447 -191 439 -186 ct 432 -180 428 -173 428 -166 ct 
428 -161 430 -157 433 -153 ct 436 -149 441 -146 447 -143 ct 451 -142 462 -139 481 -134 ct 
507 -127 526 -121 536 -116 ct 546 -112 554 -105 560 -97 ct 566 -88 569 -77 569 -65 ct 
569 -52 565 -41 558 -30 ct 551 -19 541 -10 527 -4 ct 513 2 498 5 481 5 ct 452 5 431 -1 416 -13 ct 
401 -25 391 -43 387 -66 ct p ef
613 -261 m  613 -303 l  650 -303 l  650 -261 l  613 -261 l  p
613 0 m  613 -220 l  650 -220 l  650 0 l  613 0 l  p ef
849 -81 m  886 -76 l  882 -51 872 -31 855 -17 ct 839 -2 818 5 794 5 ct 764 5 740 -5 722 -25 ct 
703 -44 694 -72 694 -109 ct 694 -133 698 -154 706 -172 ct 714 -189 726 -203 742 -212 ct 
758 -221 775 -225 794 -225 ct 818 -225 838 -219 853 -207 ct 868 -195 878 -177 882 -155 ct 
846 -150 l  843 -165 836 -176 828 -183 ct 819 -190 808 -194 796 -194 ct 777 -194 761 -187 750 -174 ct 
738 -160 732 -139 732 -110 ct 732 -81 738 -59 749 -46 ct 760 -33 775 -26 794 -26 ct 
808 -26 820 -30 830 -39 ct 840 -48 846 -62 849 -81 ct p ef
903 -110 m  903 -151 914 -181 937 -201 ct 955 -217 978 -225 1005 -225 ct 1035 -225 1060 -215 1079 -195 ct 
1098 -175 1107 -148 1107 -113 ct 1107 -85 1103 -63 1094 -46 ct 1086 -30 1074 -17 1058 -8 ct 
1042 1 1024 5 1005 5 ct 975 5 950 -5 931 -25 ct 912 -44 903 -73 903 -110 ct p
941 -110 m  941 -82 947 -61 959 -47 ct 971 -33 987 -26 1005 -26 ct 1023 -26 1039 -33 1051 -47 ct 
1063 -61 1069 -83 1069 -111 ct 1069 -138 1063 -159 1051 -173 ct 1038 -187 1023 -194 1005 -194 ct 
987 -194 971 -187 959 -173 ct 947 -159 941 -138 941 -110 ct p ef
pom
pum
5427 13636 t
18 0 m  81 -302 l  177 -302 l  195 -302 208 -302 217 -301 ct 231 -299 242 -295 252 -289 ct 
261 -283 269 -275 274 -265 ct 279 -254 282 -243 282 -231 ct 282 -214 277 -199 268 -187 ct 
259 -174 245 -164 226 -158 ct 243 -152 255 -144 263 -134 ct 271 -123 275 -110 275 -96 ct 
275 -79 270 -63 260 -48 ct 251 -33 238 -21 222 -12 ct 205 -4 188 0 168 0 ct 18 0 l 
p
94 -173 m  159 -173 l  190 -173 212 -178 225 -187 ct 238 -196 244 -210 244 -228 ct 
244 -237 242 -244 238 -250 ct 234 -256 228 -261 221 -264 ct 214 -267 201 -268 181 -268 ct 
114 -268 l  94 -173 l  p
65 -34 m  137 -34 l  156 -34 168 -35 175 -36 ct 188 -38 199 -42 207 -47 ct 216 -52 222 -59 227 -68 ct 
232 -77 234 -86 234 -96 ct 234 -110 229 -121 220 -128 ct 211 -135 194 -139 167 -139 ct 
87 -139 l  65 -34 l  p ef
446 -27 m  433 -16 421 -8 409 -3 ct 397 2 384 5 370 5 ct 350 5 334 -1 322 -13 ct 
309 -25 303 -40 303 -59 ct 303 -71 306 -82 311 -91 ct 317 -101 324 -109 333 -114 ct 
343 -120 354 -124 367 -127 ct 376 -128 391 -130 415 -131 ct 438 -131 455 -134 465 -138 ct 
468 -148 469 -157 469 -163 ct 469 -172 466 -179 460 -184 ct 451 -191 438 -194 422 -194 ct 
406 -194 394 -191 384 -184 ct 374 -177 367 -167 362 -155 ct 325 -158 l  333 -180 345 -196 361 -208 ct 
378 -219 399 -225 424 -225 ct 451 -225 472 -219 488 -206 ct 500 -196 506 -183 506 -168 ct 
506 -156 504 -142 501 -127 ct 489 -72 l  485 -55 483 -41 483 -30 ct 483 -23 485 -13 488 0 ct 
450 0 l  448 -7 447 -16 446 -27 ct p
459 -111 m  454 -109 449 -108 443 -107 ct 437 -105 427 -104 413 -103 ct 391 -101 376 -99 367 -96 ct 
358 -93 351 -88 347 -81 ct 342 -75 340 -68 340 -60 ct 340 -50 344 -41 351 -34 ct 
358 -27 368 -24 382 -24 ct 394 -24 406 -27 417 -34 ct 429 -40 438 -50 444 -61 ct 
451 -73 456 -90 459 -111 ct p ef
589 -261 m  598 -303 l  636 -303 l  627 -261 l  589 -261 l  p
535 0 m  581 -220 l  618 -220 l  573 0 l  535 0 l  p ef
613 0 m  708 -111 l  654 -220 l  696 -220 l  715 -181 l  722 -166 728 -153 733 -140 ct 
796 -220 l  842 -220 l  750 -109 l  806 0 l  764 0 l  742 -45 l  737 -54 732 -65 726 -79 ct 
660 0 l  613 0 l  p ef
847 -83 m  847 -126 860 -162 885 -190 ct 905 -213 933 -225 966 -225 ct 992 -225 1014 -217 1030 -200 ct 
1046 -184 1054 -161 1054 -133 ct 1054 -108 1049 -84 1039 -62 ct 1029 -41 1014 -24 995 -12 ct 
977 -1 957 5 936 5 ct 919 5 904 1 890 -6 ct 876 -13 865 -24 858 -37 ct 851 -50 847 -66 847 -83 ct 
p
884 -87 m  884 -66 889 -51 899 -40 ct 909 -29 921 -24 937 -24 ct 944 -24 952 -26 960 -29 ct 
968 -32 975 -37 982 -44 ct 989 -50 994 -58 999 -66 ct 1004 -75 1008 -84 1011 -94 ct 
1015 -108 1017 -121 1017 -133 ct 1017 -153 1012 -169 1002 -180 ct 992 -191 980 -196 965 -196 ct 
953 -196 942 -193 933 -188 ct 923 -182 914 -174 907 -163 ct 899 -152 893 -140 889 -125 ct 
886 -111 884 -98 884 -87 ct p ef
1199 0 m  1262 -303 l  1305 -303 l  1355 -189 l  1370 -154 1382 -125 1391 -101 ct 
1396 -87 1402 -69 1408 -45 ct 1412 -71 1417 -98 1423 -125 ct 1460 -303 l  1500 -303 l 
1437 0 l  1395 0 l  1323 -175 l  1310 -206 1299 -235 1290 -262 ct 1287 -239 1283 -213 1277 -185 ct 
1239 0 l  1199 0 l  p ef
1513 0 m  1559 -220 l  1597 -220 l  1551 0 l  1513 0 l  p
1549 -246 m  1588 -303 l  1635 -303 l  1580 -246 l  1549 -246 l  p ef
1674 0 m  1638 -220 l  1674 -220 l  1693 -100 l  1695 -87 1698 -65 1701 -35 ct 
1708 -51 1717 -69 1729 -89 ct 1802 -220 l  1842 -220 l  1716 0 l  1674 0 l 
p ef
1991 -74 m  2028 -71 l  2022 -53 2010 -36 1991 -19 ct 1972 -3 1950 5 1924 5 ct 
1907 5 1892 1 1879 -6 ct 1865 -14 1855 -25 1848 -39 ct 1841 -54 1837 -70 1837 -88 ct 
1837 -112 1843 -136 1854 -158 ct 1865 -181 1879 -198 1897 -209 ct 1915 -220 1934 -225 1954 -225 ct 
1981 -225 2002 -217 2017 -201 ct 2033 -184 2041 -162 2041 -134 ct 2041 -123 2040 -112 2038 -101 ct 
1875 -101 l  1874 -97 1874 -93 1874 -89 ct 1874 -69 1879 -53 1888 -42 ct 1898 -31 1910 -26 1924 -26 ct 
1937 -26 1949 -30 1962 -38 ct 1974 -47 1984 -58 1991 -74 ct p
1881 -130 m  2006 -130 l  2006 -134 2006 -137 2006 -138 ct 2006 -157 2001 -171 1992 -181 ct 
1982 -191 1970 -196 1955 -196 ct 1939 -196 1924 -191 1911 -180 ct 1898 -169 1888 -152 1881 -130 ct 
p ef
2064 0 m  2128 -303 l  2166 -303 l  2102 0 l  2064 0 l  p ef
pom
1.000 1.000 1.000 c 9633 14499 m  9222 14499 l  9222 13934 l  10044 13934 l 
10044 14499 l  9633 14499 l  p ef
3725 12611 m  3417 12611 l  3417 12046 l  4033 12046 l  4033 12611 l  3725 12611 l 
p ef
10917 10968 m  10609 10968 l  10609 10403 l  11225 10403 l  11225 10968 l 
10917 10968 l  p ef
10788 6909 m  10480 6909 l  10480 6524 l  11096 6524 l  11096 6909 l  10788 6909 l 
p ef
2826 3775 m  2543 3775 l  2543 3210 l  3108 3210 l  3108 3775 l  2826 3775 l 
p ef
2800 7936 m  2492 7936 l  2492 7551 l  3108 7551 l  3108 7936 l  2800 7936 l 
p ef
7732 3622 m  7424 3622 l  7424 3262 l  8040 3262 l  8040 3622 l  7732 3622 l 
p ef
5266 2825 m  4958 2825 l  4958 2260 l  5574 2260 l  5574 2825 l  5266 2825 l 
p ef
9582 2311 m  9274 2311 l  9274 1746 l  9890 1746 l  9890 2311 l  9582 2311 l 
p ef
3622 564 m  3314 564 l  3314 -1 l  3930 -1 l  3930 564 l  3622 564 l  p ef
7784 12251 m  7476 12251 l  7476 11840 l  8092 11840 l  8092 12251 l  7784 12251 l 
p ef
5266 11328 m  4958 11328 l  4958 10763 l  5574 10763 l  5574 11328 l  5266 11328 l 
p ef
gr
gs
0 0 m 12999 0 l 12999 14499 l 0 14499 l 0 0 l eoclip newpath
gr
gr
0 14500 t 
pom
count op_count sub {pop} repeat countdictstack dict_count sub {end} repeat b4_inc_state restore
%%PageTrailer
%%Trailer
%%EOF
