%!PS-Adobe-3.0 EPSF-3.0 
%%BoundingBox: 0 0 255 142
%%Pages: 0
%%Creator: LibreOffice 4.3
%%Title: none
%%CreationDate: none
%%LanguageLevel: 2
%%EndComments
%%BeginProlog
%%BeginResource: procset SDRes-Prolog 1.0 0
/b4_inc_state save def
/dict_count countdictstack def
/op_count count 1 sub def
userdict begin
0 setgray 0 setlinecap 1 setlinewidth 0 setlinejoin 10 setmiterlimit[] 0 setdash newpath
/languagelevel where {pop languagelevel 1 ne {false setstrokeadjust false setoverprint} if} if
/bdef {bind def} bind def
/c {setrgbcolor} bdef
/l {neg lineto} bdef
/rl {neg rlineto} bdef
/lc {setlinecap} bdef
/lj {setlinejoin} bdef
/lw {setlinewidth} bdef
/ml {setmiterlimit} bdef
/ld {setdash} bdef
/m {neg moveto} bdef
/ct {6 2 roll neg 6 2 roll neg 6 2 roll neg curveto} bdef
/r {rotate} bdef
/t {neg translate} bdef
/s {scale} bdef
/sw {show} bdef
/gs {gsave} bdef
/gr {grestore} bdef
/f {findfont dup length dict begin
{1 index /FID ne {def} {pop pop} ifelse} forall /Encoding ISOLatin1Encoding def
currentdict end /NFont exch definefont pop /NFont findfont} bdef
/p {closepath} bdef
/sf {scalefont setfont} bdef
/ef {eofill}bdef
/pc {closepath stroke}bdef
/ps {stroke}bdef
/pum {matrix currentmatrix}bdef
/pom {setmatrix}bdef
/bs {/aString exch def /nXOfs exch def /nWidth exch def currentpoint nXOfs 0 rmoveto pum nWidth aString stringwidth pop div 1 scale aString show pom moveto} bdef
%%EndResource
%%EndProlog
%%BeginSetup
%%EndSetup
%%Page: 1 1
%%BeginPageSetup
%%EndPageSetup
pum
0.02833 0.0284 s 
0 -5000 t
/tm matrix currentmatrix def
gs
0 0 m 8999 0 l 8999 4999 l 0 4999 l 0 0 l eoclip newpath
gs
0 0 m 8999 0 l 8999 4999 l 0 4999 l 0 0 l eoclip newpath
1.000 1.000 1.000 c 0 0 m  8999 0 l  8999 4999 l  0 4999 l  0 0 l  p ef
300 2788 m  1718 2788 l  1718 2449 l  2647 3100 l  1718 3752 l  1718 3412 l 
300 3412 l  300 2788 l  p
300 2449 m  300 2449 l  p
2647 3752 m  2647 3752 l  p ef
35 lw 1 lj 0.203 0.203 0.203 c 300 2788 m  1718 2788 l  1718 2449 l  2647 3100 l 
1718 3752 l  1718 3412 l  300 3412 l  300 2788 l  pc
300 2449 m  300 2449 l  pc
2647 3752 m  2647 3752 l  pc
1.000 1.000 1.000 c 4500 4177 m  2891 4177 l  2891 2022 l  6109 2022 l 
6109 4177 l  4500 4177 l  p ef
1 lc 2 lj 0.203 0.203 0.203 c 4500 4177 m  2891 4177 l  2891 2022 l  6109 2022 l 
6109 4177 l  4500 4177 l  pc
0.402 0.402 0.402 c 4234 3504 m  4256 3515 l  4279 3526 l  4302 3535 l 
4326 3544 l  4350 3551 l  4375 3557 l  4400 3562 l  4425 3566 l  4450 3569 l 
4476 3571 l  4501 3571 l  4527 3570 l  4552 3568 l  4577 3566 l  4603 3561 l 
4627 3556 l  4652 3550 l  4676 3542 l  4700 3534 l  4723 3524 l  4746 3513 l 
4768 3502 l  4789 3489 l  4810 3475 l  4830 3461 l  4849 3445 l  4867 3429 l 
4885 3412 l  4901 3394 l  4917 3376 l  4931 3356 l  4944 3336 l  4957 3316 l 
4968 3295 l  4978 3273 l  4987 3252 l  4994 3229 l  5001 3207 l  5006 3184 l 
5010 3161 l  5012 3138 l  5014 3114 l  5014 3091 l  5013 3068 l  5010 3044 l 
5007 3021 l  5002 2998 l  4996 2976 l  4988 2953 l  4980 2931 l  4970 2910 l 
4959 2889 l  4947 2868 l  4934 2848 l  4920 2829 l  4905 2810 l  4888 2792 l 
4871 2775 l  4853 2758 l  4834 2742 l  4815 2728 l  4794 2714 l  4773 2701 l 
4751 2689 l  4728 2678 l  4705 2668 l  4681 2660 l  4657 2652 l  4633 2645 l 
4608 2640 l  4583 2635 l  4558 2632 l  4532 2630 l  4507 2629 l  4481 2629 l 
4456 2631 l  4430 2633 l  4405 2637 l  4380 2642 l  4356 2648 l  4331 2655 l 
4307 2663 l  4284 2672 l  4261 2682 l  4239 2694 l  4217 2706 l  4196 2719 l 
4176 2733 l  4156 2748 l  4138 2764 l  4120 2781 l  4103 2799 l  4087 2817 l 
4072 2836 l  4059 2856 l  4046 2876 l  4034 2897 l  4024 2918 l  4015 2940 l 
4007 2962 l  4000 2984 l  3994 3007 l  3990 3030 l  3987 3053 l  3985 3077 l 
3984 3100 l  3930 3100 l  3931 3074 l  3933 3048 l  3936 3023 l  3941 2997 l 
3947 2972 l  3955 2947 l  3964 2923 l  3974 2899 l  3986 2875 l  3999 2852 l 
4013 2830 l  4028 2808 l  4044 2787 l  4062 2767 l  4080 2747 l  4100 2729 l 
4121 2711 l  4142 2694 l  4165 2679 l  4188 2664 l  4212 2650 l  4237 2638 l 
4262 2627 l  4288 2616 l  4314 2607 l  4341 2600 l  4369 2593 l  4396 2588 l 
4424 2584 l  4452 2581 l  4480 2579 l  4509 2579 l  4537 2580 l  4565 2582 l 
4593 2586 l  4621 2591 l  4648 2597 l  4675 2604 l  4702 2613 l  4728 2623 l 
4754 2633 l  4779 2646 l  4803 2659 l  4827 2673 l  4849 2688 l  4871 2705 l 
4892 2722 l  4912 2740 l  4931 2759 l  4949 2779 l  4966 2800 l  4982 2821 l 
4996 2844 l  5009 2866 l  5021 2890 l  5032 2914 l  5042 2938 l  5050 2963 l 
5057 2988 l  5062 3013 l  5066 3039 l  5069 3064 l  5070 3090 l  5070 3116 l 
5068 3142 l  5065 3167 l  5061 3193 l  5055 3218 l  5048 3243 l  5040 3268 l 
5030 3292 l  5019 3316 l  5007 3339 l  4993 3362 l  4978 3384 l  4962 3405 l 
4945 3425 l  4927 3445 l  4908 3464 l  4887 3482 l  4866 3499 l  4844 3515 l 
4821 3530 l  4797 3544 l  4773 3557 l  4748 3569 l  4722 3580 l  4696 3589 l 
4669 3598 l  4642 3605 l  4614 3610 l  4587 3615 l  4559 3618 l  4530 3620 l 
4502 3621 l  4474 3620 l  4446 3619 l  4418 3616 l  4390 3611 l  4362 3606 l 
4335 3599 l  4308 3591 l  4282 3581 l  4256 3571 l  4231 3559 l  4206 3547 l 
4132 3659 l  4074 3445 l  4307 3392 l  4234 3504 l  p
3930 2579 m  3930 2579 l  p
5070 3622 m  5070 3622 l  p ef
0 lc 1 lj 4234 3504 m  4256 3515 l  4279 3526 l  4302 3535 l  4326 3544 l 
4350 3551 l  4375 3557 l  4400 3562 l  4425 3566 l  4450 3569 l  4476 3571 l 
4501 3571 l  4527 3570 l  4552 3568 l  4577 3566 l  4603 3561 l  4627 3556 l 
4652 3550 l  4676 3542 l  4700 3534 l  4723 3524 l  4746 3513 l  4768 3502 l 
4789 3489 l  4810 3475 l  4830 3461 l  4849 3445 l  4867 3429 l  4885 3412 l 
4901 3394 l  4917 3376 l  4931 3356 l  4944 3336 l  4957 3316 l  4968 3295 l 
4978 3273 l  4987 3252 l  4994 3229 l  5001 3207 l  5006 3184 l  5010 3161 l 
5012 3138 l  5014 3114 l  5014 3091 l  5013 3068 l  5010 3044 l  5007 3021 l 
5002 2998 l  4996 2976 l  4988 2953 l  4980 2931 l  4970 2910 l  4959 2889 l 
4947 2868 l  4934 2848 l  4920 2829 l  4905 2810 l  4888 2792 l  4871 2775 l 
4853 2758 l  4834 2742 l  4815 2728 l  4794 2714 l  4773 2701 l  4751 2689 l 
4728 2678 l  4705 2668 l  4681 2660 l  4657 2652 l  4633 2645 l  4608 2640 l 
4583 2635 l  4558 2632 l  4532 2630 l  4507 2629 l  4481 2629 l  4456 2631 l 
4430 2633 l  4405 2637 l  4380 2642 l  4356 2648 l  4331 2655 l  4307 2663 l 
4284 2672 l  4261 2682 l  4239 2694 l  4217 2706 l  4196 2719 l  4176 2733 l 
4156 2748 l  4138 2764 l  4120 2781 l  4103 2799 l  4087 2817 l  4072 2836 l 
4059 2856 l  4046 2876 l  4034 2897 l  4024 2918 l  4015 2940 l  4007 2962 l 
4000 2984 l  3994 3007 l  3990 3030 l  3987 3053 l  3985 3077 l  3984 3100 l 
3930 3100 l  3931 3074 l  3933 3048 l  3936 3023 l  3941 2997 l  3947 2972 l 
3955 2947 l  3964 2923 l  3974 2899 l  3986 2875 l  3999 2852 l  4013 2830 l 
4028 2808 l  4044 2787 l  4062 2767 l  4080 2747 l  4100 2729 l  4121 2711 l 
4142 2694 l  4165 2679 l  4188 2664 l  4212 2650 l  4237 2638 l  4262 2627 l 
4288 2616 l  4314 2607 l  4341 2600 l  4369 2593 l  4396 2588 l  4424 2584 l 
4452 2581 l  4480 2579 l  4509 2579 l  4537 2580 l  4565 2582 l  4593 2586 l 
4621 2591 l  4648 2597 l  4675 2604 l  4702 2613 l  4728 2623 l  4754 2633 l 
4779 2646 l  4803 2659 l  4827 2673 l  4849 2688 l  4871 2705 l  4892 2722 l 
4912 2740 l  4931 2759 l  4949 2779 l  4966 2800 l  4982 2821 l  4996 2844 l 
5009 2866 l  5021 2890 l  5032 2914 l  5042 2938 l  5050 2963 l  5057 2988 l 
5062 3013 l  5066 3039 l  5069 3064 l  5070 3090 l  5070 3116 l  5068 3142 l 
5065 3167 l  5061 3193 l  5055 3218 l  5048 3243 l  5040 3268 l  5030 3292 l 
5019 3316 l  5007 3339 l  4993 3362 l  4978 3384 l  4962 3405 l  4945 3425 l 
4927 3445 l  4908 3464 l  4887 3482 l  4866 3499 l  4844 3515 l  4821 3530 l 
4797 3544 l  4773 3557 l  4748 3569 l  4722 3580 l  4696 3589 l  4669 3598 l 
4642 3605 l  4614 3610 l  4587 3615 l  4559 3618 l  4530 3620 l  4502 3621 l 
4474 3620 l  4446 3619 l  4418 3616 l  4390 3611 l  4362 3606 l  4335 3599 l 
4308 3591 l  4282 3581 l  4256 3571 l  4231 3559 l  4206 3547 l  4132 3659 l 
4074 3445 l  4307 3392 l  4234 3504 l  pc
3930 2579 m  3930 2579 l  pc
5070 3622 m  5070 3622 l  pc
1.000 1.000 1.000 c 2433 4224 m  2102 4224 l  2102 3536 l  2764 3536 l 
2764 4224 l  2433 4224 l  p ef
7104 3216 m  6773 3216 l  6773 2528 l  7435 2528 l  7435 3216 l  7104 3216 l 
p ef
2502 2644 m  2171 2644 l  2171 1956 l  2833 1956 l  2833 2644 l  2502 2644 l 
p ef
6510 2798 m  7928 2798 l  7928 2459 l  8857 3110 l  7928 3762 l  7928 3422 l 
6510 3422 l  6510 2798 l  p
6510 2459 m  6510 2459 l  p
8857 3762 m  8857 3762 l  p ef
0.203 0.203 0.203 c 6510 2798 m  7928 2798 l  7928 2459 l  8857 3110 l 
7928 3762 l  7928 3422 l  6510 3422 l  6510 2798 l  pc
6510 2459 m  6510 2459 l  pc
8857 3762 m  8857 3762 l  pc
pum
6923 2247 t
0.003 0.003 0.003 c 19 -98 m  57 -101 l  59 -86 63 -73 69 -64 ct 76 -54 86 -46 100 -40 ct 
113 -34 129 -31 146 -31 ct 161 -31 174 -33 186 -38 ct 197 -42 206 -49 212 -57 ct 
217 -65 220 -73 220 -82 ct 220 -92 217 -100 212 -107 ct 207 -114 198 -120 185 -125 ct 
177 -128 159 -133 132 -140 ct 104 -146 84 -153 73 -158 ct 59 -166 48 -175 41 -187 ct 
34 -198 30 -210 30 -224 ct 30 -240 34 -254 43 -267 ct 52 -281 64 -291 81 -298 ct 
98 -305 116 -308 136 -308 ct 159 -308 179 -304 196 -297 ct 213 -290 226 -279 235 -265 ct 
244 -251 249 -236 250 -218 ct 212 -215 l  210 -234 203 -248 191 -258 ct 179 -267 162 -272 138 -272 ct 
114 -272 97 -268 86 -259 ct 75 -250 69 -239 69 -227 ct 69 -216 73 -207 81 -200 ct 
88 -193 109 -186 141 -178 ct 174 -171 196 -165 208 -159 ct 225 -151 238 -141 247 -128 ct 
255 -116 259 -102 259 -85 ct 259 -69 254 -54 245 -40 ct 236 -26 223 -15 206 -7 ct 
188 1 169 5 148 5 ct 120 5 97 1 79 -7 ct 61 -15 46 -27 36 -43 ct 25 -59 20 -78 19 -98 ct 
p ef
456 -27 m  443 -15 429 -7 417 -2 ct 404 3 390 5 375 5 ct 351 5 332 -1 319 -13 ct 
306 -25 299 -40 299 -58 ct 299 -69 301 -79 306 -88 ct 311 -97 318 -104 326 -109 ct 
334 -115 343 -119 353 -122 ct 360 -123 372 -125 387 -127 ct 417 -131 439 -135 454 -140 ct 
454 -145 454 -148 454 -150 ct 454 -165 450 -175 443 -181 ct 434 -190 419 -194 400 -194 ct 
382 -194 369 -191 361 -185 ct 352 -179 346 -168 342 -152 ct 305 -157 l  308 -173 314 -185 322 -195 ct 
329 -205 340 -212 355 -217 ct 369 -222 386 -225 405 -225 ct 424 -225 439 -223 451 -218 ct 
463 -214 472 -208 477 -202 ct 483 -195 487 -186 489 -176 ct 490 -170 491 -158 491 -142 ct 
491 -92 l  491 -57 492 -35 493 -26 ct 495 -17 498 -8 502 0 ct 464 0 l  460 -8 457 -17 456 -27 ct 
p
454 -111 m  440 -105 420 -101 392 -97 ct 377 -95 366 -92 359 -89 ct 353 -86 348 -82 344 -77 ct 
341 -72 339 -66 339 -59 ct 339 -49 343 -41 350 -34 ct 358 -27 369 -24 384 -24 ct 
398 -24 411 -27 423 -33 ct 434 -40 442 -48 448 -59 ct 452 -68 454 -81 454 -97 ct 
454 -111 l  p ef
562 0 m  562 -220 l  599 -220 l  599 0 l  562 0 l  p
550 -247 m  577 -305 l  626 -305 l  581 -247 l  550 -247 l  p ef
805 0 m  805 -28 l  791 -6 771 5 744 5 ct 726 5 710 0 695 -10 ct 681 -19 669 -33 661 -50 ct 
653 -67 649 -87 649 -110 ct 649 -132 653 -152 660 -170 ct 667 -187 678 -201 693 -211 ct 
708 -220 724 -225 742 -225 ct 755 -225 767 -222 778 -217 ct 788 -211 797 -204 803 -195 ct 
803 -303 l  840 -303 l  840 0 l  805 0 l  p
687 -110 m  687 -82 693 -61 705 -47 ct 717 -33 731 -26 747 -26 ct 763 -26 777 -33 789 -46 ct 
800 -59 806 -80 806 -107 ct 806 -137 800 -159 789 -173 ct 777 -187 763 -194 745 -194 ct 
729 -194 715 -187 704 -174 ct 693 -160 687 -139 687 -110 ct p ef
1044 -27 m  1031 -15 1017 -7 1005 -2 ct 992 3 978 5 963 5 ct 939 5 920 -1 907 -13 ct 
894 -25 887 -40 887 -58 ct 887 -69 889 -79 894 -88 ct 899 -97 906 -104 914 -109 ct 
922 -115 931 -119 941 -122 ct 948 -123 960 -125 975 -127 ct 1005 -131 1027 -135 1042 -140 ct 
1042 -145 1042 -148 1042 -150 ct 1042 -165 1038 -175 1031 -181 ct 1022 -190 1007 -194 988 -194 ct 
970 -194 957 -191 949 -185 ct 940 -179 934 -168 930 -152 ct 893 -157 l  896 -173 902 -185 910 -195 ct 
917 -205 928 -212 943 -217 ct 957 -222 974 -225 993 -225 ct 1012 -225 1027 -223 1039 -218 ct 
1051 -214 1060 -208 1065 -202 ct 1071 -195 1075 -186 1077 -176 ct 1078 -170 1079 -158 1079 -142 ct 
1079 -92 l  1079 -57 1080 -35 1081 -26 ct 1083 -17 1086 -8 1090 0 ct 1052 0 l 
1048 -8 1045 -17 1044 -27 ct p
1042 -111 m  1028 -105 1008 -101 980 -97 ct 965 -95 954 -92 947 -89 ct 941 -86 936 -82 932 -77 ct 
929 -72 927 -66 927 -59 ct 927 -49 931 -41 938 -34 ct 946 -27 957 -24 972 -24 ct 
986 -24 999 -27 1011 -33 ct 1022 -40 1030 -48 1036 -59 ct 1040 -68 1042 -81 1042 -97 ct 
1042 -111 l  p ef
1123 -66 m  1160 -71 l  1162 -56 1168 -45 1177 -38 ct 1187 -30 1200 -26 1217 -26 ct 
1234 -26 1246 -29 1255 -36 ct 1263 -43 1267 -51 1267 -61 ct 1267 -69 1263 -76 1256 -81 ct 
1251 -84 1238 -88 1218 -93 ct 1190 -100 1171 -106 1160 -111 ct 1150 -116 1142 -123 1136 -132 ct 
1131 -141 1128 -151 1128 -162 ct 1128 -171 1130 -180 1135 -189 ct 1139 -197 1145 -204 1153 -210 ct 
1159 -214 1167 -218 1177 -221 ct 1187 -224 1198 -225 1209 -225 ct 1227 -225 1242 -223 1255 -218 ct 
1268 -213 1278 -206 1284 -197 ct 1290 -189 1295 -177 1297 -163 ct 1261 -158 l 
1259 -169 1254 -178 1246 -184 ct 1238 -191 1227 -194 1212 -194 ct 1195 -194 1183 -191 1175 -186 ct 
1168 -180 1164 -173 1164 -166 ct 1164 -161 1166 -157 1169 -153 ct 1172 -149 1177 -146 1183 -143 ct 
1187 -142 1198 -139 1217 -134 ct 1243 -127 1262 -121 1272 -116 ct 1282 -112 1290 -105 1296 -97 ct 
1302 -88 1305 -77 1305 -65 ct 1305 -52 1301 -41 1294 -30 ct 1287 -19 1277 -10 1263 -4 ct 
1249 2 1234 5 1217 5 ct 1188 5 1167 -1 1152 -13 ct 1137 -25 1127 -43 1123 -66 ct 
p ef
pom
pum
523 2237 t
34 0 m  34 -303 l  252 -303 l  252 -267 l  74 -267 l  74 -175 l  241 -175 l 
241 -139 l  74 -139 l  74 -36 l  259 -36 l  259 0 l  34 0 l  p ef
313 0 m  313 -220 l  346 -220 l  346 -189 l  362 -213 385 -225 415 -225 ct 
429 -225 441 -223 452 -218 ct 463 -213 471 -207 476 -199 ct 482 -191 486 -182 488 -172 ct 
489 -165 490 -153 490 -135 ct 490 0 l  452 0 l  452 -134 l  452 -149 451 -161 448 -168 ct 
445 -176 440 -182 433 -186 ct 425 -191 417 -193 407 -193 ct 392 -193 378 -188 367 -178 ct 
356 -168 350 -149 350 -120 ct 350 0 l  313 0 l  p ef
630 -33 m  635 0 l  625 2 615 3 607 3 ct 593 3 583 1 575 -3 ct 568 -8 563 -13 560 -20 ct 
557 -27 555 -42 555 -64 ct 555 -191 l  528 -191 l  528 -220 l  555 -220 l 
555 -274 l  592 -297 l  592 -220 l  630 -220 l  630 -191 l  592 -191 l 
592 -63 l  592 -53 593 -46 594 -43 ct 595 -40 597 -37 601 -36 ct 604 -34 608 -33 613 -33 ct 
618 -33 623 -33 630 -33 ct p ef
666 0 m  666 -220 l  698 -220 l  698 -187 l  707 -203 715 -213 722 -218 ct 
729 -223 737 -225 746 -225 ct 759 -225 772 -221 785 -213 ct 772 -179 l  763 -184 754 -187 745 -187 ct 
737 -187 730 -185 723 -180 ct 717 -175 712 -168 709 -159 ct 705 -146 703 -131 703 -116 ct 
703 0 l  666 0 l  p ef
951 -27 m  938 -15 924 -7 912 -2 ct 899 3 885 5 870 5 ct 846 5 827 -1 814 -13 ct 
801 -25 794 -40 794 -58 ct 794 -69 796 -79 801 -88 ct 806 -97 813 -104 821 -109 ct 
829 -115 838 -119 848 -122 ct 855 -123 867 -125 882 -127 ct 912 -131 934 -135 949 -140 ct 
949 -145 949 -148 949 -150 ct 949 -165 945 -175 938 -181 ct 929 -190 914 -194 895 -194 ct 
877 -194 864 -191 856 -185 ct 847 -179 841 -168 837 -152 ct 800 -157 l  803 -173 809 -185 817 -195 ct 
824 -205 835 -212 850 -217 ct 864 -222 881 -225 900 -225 ct 919 -225 934 -223 946 -218 ct 
958 -214 967 -208 972 -202 ct 978 -195 982 -186 984 -176 ct 985 -170 986 -158 986 -142 ct 
986 -92 l  986 -57 987 -35 988 -26 ct 990 -17 993 -8 997 0 ct 959 0 l  955 -8 952 -17 951 -27 ct 
p
949 -111 m  935 -105 915 -101 887 -97 ct 872 -95 861 -92 854 -89 ct 848 -86 843 -82 839 -77 ct 
836 -72 834 -66 834 -59 ct 834 -49 838 -41 845 -34 ct 853 -27 864 -24 879 -24 ct 
893 -24 906 -27 918 -33 ct 929 -40 937 -48 943 -59 ct 947 -68 949 -81 949 -97 ct 
949 -111 l  p ef
1186 0 m  1186 -28 l  1172 -6 1152 5 1125 5 ct 1107 5 1091 0 1076 -10 ct 1062 -19 1050 -33 1042 -50 ct 
1034 -67 1030 -87 1030 -110 ct 1030 -132 1034 -152 1041 -170 ct 1048 -187 1059 -201 1074 -211 ct 
1089 -220 1105 -225 1123 -225 ct 1136 -225 1148 -222 1159 -217 ct 1169 -211 1178 -204 1184 -195 ct 
1184 -303 l  1221 -303 l  1221 0 l  1186 0 l  p
1068 -110 m  1068 -82 1074 -61 1086 -47 ct 1098 -33 1112 -26 1128 -26 ct 1144 -26 1158 -33 1170 -46 ct 
1181 -59 1187 -80 1187 -107 ct 1187 -137 1181 -159 1170 -173 ct 1158 -187 1144 -194 1126 -194 ct 
1110 -194 1096 -187 1085 -174 ct 1074 -160 1068 -139 1068 -110 ct p ef
1425 -27 m  1412 -15 1398 -7 1386 -2 ct 1373 3 1359 5 1344 5 ct 1320 5 1301 -1 1288 -13 ct 
1275 -25 1268 -40 1268 -58 ct 1268 -69 1270 -79 1275 -88 ct 1280 -97 1287 -104 1295 -109 ct 
1303 -115 1312 -119 1322 -122 ct 1329 -123 1341 -125 1356 -127 ct 1386 -131 1408 -135 1423 -140 ct 
1423 -145 1423 -148 1423 -150 ct 1423 -165 1419 -175 1412 -181 ct 1403 -190 1388 -194 1369 -194 ct 
1351 -194 1338 -191 1330 -185 ct 1321 -179 1315 -168 1311 -152 ct 1274 -157 l 
1277 -173 1283 -185 1291 -195 ct 1298 -205 1309 -212 1324 -217 ct 1338 -222 1355 -225 1374 -225 ct 
1393 -225 1408 -223 1420 -218 ct 1432 -214 1441 -208 1446 -202 ct 1452 -195 1456 -186 1458 -176 ct 
1459 -170 1460 -158 1460 -142 ct 1460 -92 l  1460 -57 1461 -35 1462 -26 ct 1464 -17 1467 -8 1471 0 ct 
1433 0 l  1429 -8 1426 -17 1425 -27 ct p
1423 -111 m  1409 -105 1389 -101 1361 -97 ct 1346 -95 1335 -92 1328 -89 ct 1322 -86 1317 -82 1313 -77 ct 
1310 -72 1308 -66 1308 -59 ct 1308 -49 1312 -41 1319 -34 ct 1327 -27 1338 -24 1353 -24 ct 
1367 -24 1380 -27 1392 -33 ct 1403 -40 1411 -48 1417 -59 ct 1421 -68 1423 -81 1423 -97 ct 
1423 -111 l  p ef
1504 -66 m  1541 -71 l  1543 -56 1549 -45 1558 -38 ct 1568 -30 1581 -26 1598 -26 ct 
1615 -26 1627 -29 1636 -36 ct 1644 -43 1648 -51 1648 -61 ct 1648 -69 1644 -76 1637 -81 ct 
1632 -84 1619 -88 1599 -93 ct 1571 -100 1552 -106 1541 -111 ct 1531 -116 1523 -123 1517 -132 ct 
1512 -141 1509 -151 1509 -162 ct 1509 -171 1511 -180 1516 -189 ct 1520 -197 1526 -204 1534 -210 ct 
1540 -214 1548 -218 1558 -221 ct 1568 -224 1579 -225 1590 -225 ct 1608 -225 1623 -223 1636 -218 ct 
1649 -213 1659 -206 1665 -197 ct 1671 -189 1676 -177 1678 -163 ct 1642 -158 l 
1640 -169 1635 -178 1627 -184 ct 1619 -191 1608 -194 1593 -194 ct 1576 -194 1564 -191 1556 -186 ct 
1549 -180 1545 -173 1545 -166 ct 1545 -161 1547 -157 1550 -153 ct 1553 -149 1558 -146 1564 -143 ct 
1568 -142 1579 -139 1598 -134 ct 1624 -127 1643 -121 1653 -116 ct 1663 -112 1671 -105 1677 -97 ct 
1683 -88 1686 -77 1686 -65 ct 1686 -52 1682 -41 1675 -30 ct 1668 -19 1658 -10 1644 -4 ct 
1630 2 1615 5 1598 5 ct 1569 5 1548 -1 1533 -13 ct 1518 -25 1508 -43 1504 -66 ct 
p ef
pom
1.000 1.000 1.000 c 8831 2719 m  8500 2719 l  8500 2031 l  9162 2031 l 
9162 2719 l  8831 2719 l  p ef
8892 4090 m  8561 4090 l  8561 3402 l  9223 3402 l  9223 4090 l  8892 4090 l 
p ef
pum
3521 417 t
0.003 0.003 0.003 c 39 0 m  39 -303 l  79 -303 l  79 0 l  39 0 l  p ef
148 0 m  148 -220 l  181 -220 l  181 -189 l  197 -213 220 -225 250 -225 ct 
264 -225 276 -223 287 -218 ct 298 -213 306 -207 311 -199 ct 317 -191 321 -182 323 -172 ct 
324 -165 325 -153 325 -135 ct 325 0 l  287 0 l  287 -134 l  287 -149 286 -161 283 -168 ct 
280 -176 275 -182 268 -186 ct 260 -191 252 -193 242 -193 ct 227 -193 213 -188 202 -178 ct 
191 -168 185 -149 185 -120 ct 185 0 l  148 0 l  p ef
370 -66 m  407 -71 l  409 -56 415 -45 424 -38 ct 434 -30 447 -26 464 -26 ct 
481 -26 493 -29 502 -36 ct 510 -43 514 -51 514 -61 ct 514 -69 510 -76 503 -81 ct 
498 -84 485 -88 465 -93 ct 437 -100 418 -106 407 -111 ct 397 -116 389 -123 383 -132 ct 
378 -141 375 -151 375 -162 ct 375 -171 377 -180 382 -189 ct 386 -197 392 -204 400 -210 ct 
406 -214 414 -218 424 -221 ct 434 -224 445 -225 456 -225 ct 474 -225 489 -223 502 -218 ct 
515 -213 525 -206 531 -197 ct 537 -189 542 -177 544 -163 ct 508 -158 l  506 -169 501 -178 493 -184 ct 
485 -191 474 -194 459 -194 ct 442 -194 430 -191 422 -186 ct 415 -180 411 -173 411 -166 ct 
411 -161 413 -157 416 -153 ct 419 -149 424 -146 430 -143 ct 434 -142 445 -139 464 -134 ct 
490 -127 509 -121 519 -116 ct 529 -112 537 -105 543 -97 ct 549 -88 552 -77 552 -65 ct 
552 -52 548 -41 541 -30 ct 534 -19 524 -10 510 -4 ct 496 2 481 5 464 5 ct 435 5 414 -1 399 -13 ct 
384 -25 374 -43 370 -66 ct p ef
676 -33 m  681 0 l  671 2 661 3 653 3 ct 639 3 629 1 621 -3 ct 614 -8 609 -13 606 -20 ct 
603 -27 601 -42 601 -64 ct 601 -191 l  574 -191 l  574 -220 l  601 -220 l 
601 -274 l  638 -297 l  638 -220 l  676 -220 l  676 -191 l  638 -191 l 
638 -63 l  638 -53 639 -46 640 -43 ct 641 -40 643 -37 647 -36 ct 650 -34 654 -33 659 -33 ct 
664 -33 669 -33 676 -33 ct p ef
713 0 m  713 -220 l  745 -220 l  745 -187 l  754 -203 762 -213 769 -218 ct 
776 -223 784 -225 793 -225 ct 806 -225 819 -221 832 -213 ct 819 -179 l  810 -184 801 -187 792 -187 ct 
784 -187 777 -185 770 -180 ct 764 -175 759 -168 756 -159 ct 752 -146 750 -131 750 -116 ct 
750 0 l  713 0 l  p ef
999 0 m  999 -32 l  982 -7 958 5 929 5 ct 916 5 903 3 892 -2 ct 881 -7 872 -14 867 -21 ct 
861 -29 858 -38 855 -49 ct 854 -56 853 -68 853 -84 ct 853 -220 l  890 -220 l 
890 -98 l  890 -78 891 -65 892 -59 ct 895 -49 900 -41 907 -35 ct 915 -30 925 -27 936 -27 ct 
947 -27 958 -30 968 -36 ct 978 -41 985 -49 989 -59 ct 993 -69 995 -83 995 -102 ct 
995 -220 l  1032 -220 l  1032 0 l  999 0 l  p ef
1235 -81 m  1272 -76 l  1268 -51 1258 -31 1241 -17 ct 1225 -2 1204 5 1180 5 ct 
1150 5 1126 -5 1108 -25 ct 1089 -44 1080 -72 1080 -109 ct 1080 -133 1084 -154 1092 -172 ct 
1100 -189 1112 -203 1128 -212 ct 1144 -221 1161 -225 1180 -225 ct 1204 -225 1224 -219 1239 -207 ct 
1254 -195 1264 -177 1268 -155 ct 1232 -150 l  1229 -165 1222 -176 1214 -183 ct 
1205 -190 1194 -194 1182 -194 ct 1163 -194 1147 -187 1136 -174 ct 1124 -160 1118 -139 1118 -110 ct 
1118 -81 1124 -59 1135 -46 ct 1146 -33 1161 -26 1180 -26 ct 1194 -26 1206 -30 1216 -39 ct 
1226 -48 1232 -62 1235 -81 ct p
1148 37 m  1159 0 l  1187 0 l  1180 22 l  1192 23 1201 27 1207 33 ct 1213 38 1216 45 1216 52 ct 
1216 62 1211 71 1201 79 ct 1191 87 1176 91 1157 91 ct 1145 91 1136 91 1127 91 ct 
1129 65 l  1138 66 1144 66 1149 66 ct 1162 66 1171 64 1176 61 ct 1180 58 1182 55 1182 51 ct 
1182 48 1181 46 1179 44 ct 1178 42 1175 41 1170 39 ct 1166 38 1158 37 1148 37 ct 
p ef
1288 -110 m  1288 -151 1299 -181 1322 -201 ct 1340 -217 1363 -225 1390 -225 ct 
1420 -225 1445 -215 1464 -195 ct 1483 -175 1492 -148 1492 -113 ct 1492 -85 1488 -63 1479 -46 ct 
1471 -30 1459 -17 1443 -8 ct 1427 1 1409 5 1390 5 ct 1360 5 1335 -5 1316 -25 ct 
1297 -44 1288 -73 1288 -110 ct p
1326 -110 m  1326 -82 1332 -61 1344 -47 ct 1356 -33 1372 -26 1390 -26 ct 1408 -26 1424 -33 1436 -47 ct 
1448 -61 1454 -83 1454 -111 ct 1454 -138 1448 -159 1436 -173 ct 1423 -187 1408 -194 1390 -194 ct 
1372 -194 1356 -187 1344 -173 ct 1332 -159 1326 -138 1326 -110 ct p
1323 -246 m  1323 -260 1327 -272 1335 -280 ct 1342 -289 1352 -293 1365 -293 ct 
1373 -293 1385 -289 1399 -282 ct 1408 -278 1414 -276 1419 -276 ct 1423 -276 1427 -277 1429 -280 ct 
1431 -282 1433 -287 1434 -294 ct 1461 -294 l  1461 -278 1457 -267 1449 -259 ct 
1442 -251 1432 -247 1420 -247 ct 1412 -247 1400 -251 1386 -259 ct 1377 -264 1370 -266 1366 -266 ct 
1361 -266 1357 -264 1354 -261 ct 1351 -258 1350 -253 1350 -246 ct 1323 -246 l 
p ef
1690 -71 m  1727 -66 l  1721 -44 1710 -26 1693 -14 ct 1677 -1 1656 5 1630 5 ct 
1598 5 1573 -5 1554 -25 ct 1535 -45 1526 -72 1526 -108 ct 1526 -145 1535 -174 1554 -194 ct 
1573 -215 1598 -225 1628 -225 ct 1658 -225 1682 -215 1700 -195 ct 1719 -175 1728 -146 1728 -110 ct 
1728 -108 1728 -104 1728 -100 ct 1564 -100 l  1565 -76 1572 -58 1585 -45 ct 
1597 -32 1613 -26 1631 -26 ct 1645 -26 1657 -30 1666 -37 ct 1676 -44 1684 -55 1690 -71 ct 
p
1565 -131 m  1690 -131 l  1688 -149 1684 -163 1676 -173 ct 1664 -187 1648 -194 1629 -194 ct 
1611 -194 1597 -188 1585 -177 ct 1573 -165 1566 -150 1565 -131 ct p ef
1762 -66 m  1799 -71 l  1801 -56 1807 -45 1816 -38 ct 1826 -30 1839 -26 1856 -26 ct 
1873 -26 1885 -29 1894 -36 ct 1902 -43 1906 -51 1906 -61 ct 1906 -69 1902 -76 1895 -81 ct 
1890 -84 1877 -88 1857 -93 ct 1829 -100 1810 -106 1799 -111 ct 1789 -116 1781 -123 1775 -132 ct 
1770 -141 1767 -151 1767 -162 ct 1767 -171 1769 -180 1774 -189 ct 1778 -197 1784 -204 1792 -210 ct 
1798 -214 1806 -218 1816 -221 ct 1826 -224 1837 -225 1848 -225 ct 1866 -225 1881 -223 1894 -218 ct 
1907 -213 1917 -206 1923 -197 ct 1929 -189 1934 -177 1936 -163 ct 1900 -158 l 
1898 -169 1893 -178 1885 -184 ct 1877 -191 1866 -194 1851 -194 ct 1834 -194 1822 -191 1814 -186 ct 
1807 -180 1803 -173 1803 -166 ct 1803 -161 1805 -157 1808 -153 ct 1811 -149 1816 -146 1822 -143 ct 
1826 -142 1837 -139 1856 -134 ct 1882 -127 1901 -121 1911 -116 ct 1921 -112 1929 -105 1935 -97 ct 
1941 -88 1944 -77 1944 -65 ct 1944 -52 1940 -41 1933 -30 ct 1926 -19 1916 -10 1902 -4 ct 
1888 2 1873 5 1856 5 ct 1827 5 1806 -1 1791 -13 ct 1776 -25 1766 -43 1762 -66 ct 
p ef
pom
1.000 1.000 1.000 c 4076 720 m  4076 1305 l  3625 1305 l  4421 1893 l  5218 1305 l 
4767 1305 l  4767 720 l  4076 720 l  p
3625 720 m  3625 720 l  p
5219 1893 m  5219 1893 l  p ef
0.203 0.203 0.203 c 4076 720 m  4076 1305 l  3625 1305 l  4421 1893 l  5218 1305 l 
4767 1305 l  4767 720 l  4076 720 l  pc
3625 720 m  3625 720 l  pc
5219 1893 m  5219 1893 l  pc
pum
3393 4718 t
0.003 0.003 0.003 c 247 -106 m  288 -96 l  280 -63 265 -38 243 -21 ct 221 -4 194 5 163 5 ct 
130 5 104 -2 84 -15 ct 63 -28 48 -47 37 -73 ct 26 -98 21 -125 21 -154 ct 21 -185 27 -213 39 -236 ct 
51 -260 68 -278 90 -290 ct 113 -302 137 -308 164 -308 ct 194 -308 219 -300 240 -285 ct 
261 -270 275 -248 283 -220 ct 244 -211 l  237 -233 227 -249 213 -259 ct 200 -269 183 -274 163 -274 ct 
140 -274 120 -268 105 -257 ct 89 -246 78 -231 72 -212 ct 65 -193 62 -174 62 -154 ct 
62 -128 66 -106 73 -86 ct 81 -67 92 -53 108 -43 ct 124 -34 141 -29 159 -29 ct 181 -29 200 -35 216 -48 ct 
231 -61 242 -81 247 -106 ct p ef
319 -110 m  319 -151 330 -181 353 -201 ct 371 -217 394 -225 421 -225 ct 451 -225 476 -215 495 -195 ct 
514 -175 523 -148 523 -113 ct 523 -85 519 -63 510 -46 ct 502 -30 490 -17 474 -8 ct 
458 1 440 5 421 5 ct 391 5 366 -5 347 -25 ct 328 -44 319 -73 319 -110 ct p
357 -110 m  357 -82 363 -61 375 -47 ct 387 -33 403 -26 421 -26 ct 439 -26 455 -33 467 -47 ct 
479 -61 485 -83 485 -111 ct 485 -138 479 -159 467 -173 ct 454 -187 439 -194 421 -194 ct 
403 -194 387 -187 375 -173 ct 363 -159 357 -138 357 -110 ct p ef
571 0 m  571 -220 l  604 -220 l  604 -189 l  620 -213 643 -225 673 -225 ct 
687 -225 699 -223 710 -218 ct 721 -213 729 -207 734 -199 ct 740 -191 744 -182 746 -172 ct 
747 -165 748 -153 748 -135 ct 748 0 l  710 0 l  710 -134 l  710 -149 709 -161 706 -168 ct 
703 -176 698 -182 691 -186 ct 683 -191 675 -193 665 -193 ct 650 -193 636 -188 625 -178 ct 
614 -168 608 -149 608 -120 ct 608 0 l  571 0 l  p ef
888 -33 m  893 0 l  883 2 873 3 865 3 ct 851 3 841 1 833 -3 ct 826 -8 821 -13 818 -20 ct 
815 -27 813 -42 813 -64 ct 813 -191 l  786 -191 l  786 -220 l  813 -220 l 
813 -274 l  850 -297 l  850 -220 l  888 -220 l  888 -191 l  850 -191 l 
850 -63 l  850 -53 851 -46 852 -43 ct 853 -40 855 -37 859 -36 ct 862 -34 866 -33 871 -33 ct 
876 -33 881 -33 888 -33 ct p ef
924 0 m  924 -220 l  956 -220 l  956 -187 l  965 -203 973 -213 980 -218 ct 
987 -223 995 -225 1004 -225 ct 1017 -225 1030 -221 1043 -213 ct 1030 -179 l 
1021 -184 1012 -187 1003 -187 ct 995 -187 988 -185 981 -180 ct 975 -175 970 -168 967 -159 ct 
963 -146 961 -131 961 -116 ct 961 0 l  924 0 l  p ef
1051 -110 m  1051 -151 1062 -181 1085 -201 ct 1103 -217 1126 -225 1153 -225 ct 
1183 -225 1208 -215 1227 -195 ct 1246 -175 1255 -148 1255 -113 ct 1255 -85 1251 -63 1242 -46 ct 
1234 -30 1222 -17 1206 -8 ct 1190 1 1172 5 1153 5 ct 1123 5 1098 -5 1079 -25 ct 
1060 -44 1051 -73 1051 -110 ct p
1089 -110 m  1089 -82 1095 -61 1107 -47 ct 1119 -33 1135 -26 1153 -26 ct 1171 -26 1187 -33 1199 -47 ct 
1211 -61 1217 -83 1217 -111 ct 1217 -138 1211 -159 1199 -173 ct 1186 -187 1171 -194 1153 -194 ct 
1135 -194 1119 -187 1107 -173 ct 1095 -159 1089 -138 1089 -110 ct p ef
1301 0 m  1301 -303 l  1338 -303 l  1338 0 l  1301 0 l  p ef
1539 -27 m  1526 -15 1512 -7 1500 -2 ct 1487 3 1473 5 1458 5 ct 1434 5 1415 -1 1402 -13 ct 
1389 -25 1382 -40 1382 -58 ct 1382 -69 1384 -79 1389 -88 ct 1394 -97 1401 -104 1409 -109 ct 
1417 -115 1426 -119 1436 -122 ct 1443 -123 1455 -125 1470 -127 ct 1500 -131 1522 -135 1537 -140 ct 
1537 -145 1537 -148 1537 -150 ct 1537 -165 1533 -175 1526 -181 ct 1517 -190 1502 -194 1483 -194 ct 
1465 -194 1452 -191 1444 -185 ct 1435 -179 1429 -168 1425 -152 ct 1388 -157 l 
1391 -173 1397 -185 1405 -195 ct 1412 -205 1423 -212 1438 -217 ct 1452 -222 1469 -225 1488 -225 ct 
1507 -225 1522 -223 1534 -218 ct 1546 -214 1555 -208 1560 -202 ct 1566 -195 1570 -186 1572 -176 ct 
1573 -170 1574 -158 1574 -142 ct 1574 -92 l  1574 -57 1575 -35 1576 -26 ct 1578 -17 1581 -8 1585 0 ct 
1547 0 l  1543 -8 1540 -17 1539 -27 ct p
1537 -111 m  1523 -105 1503 -101 1475 -97 ct 1460 -95 1449 -92 1442 -89 ct 1436 -86 1431 -82 1427 -77 ct 
1424 -72 1422 -66 1422 -59 ct 1422 -49 1426 -41 1433 -34 ct 1441 -27 1452 -24 1467 -24 ct 
1481 -24 1494 -27 1506 -33 ct 1517 -40 1525 -48 1531 -59 ct 1535 -68 1537 -81 1537 -97 ct 
1537 -111 l  p ef
1774 0 m  1774 -28 l  1760 -6 1740 5 1713 5 ct 1695 5 1679 0 1664 -10 ct 1650 -19 1638 -33 1630 -50 ct 
1622 -67 1618 -87 1618 -110 ct 1618 -132 1622 -152 1629 -170 ct 1636 -187 1647 -201 1662 -211 ct 
1677 -220 1693 -225 1711 -225 ct 1724 -225 1736 -222 1747 -217 ct 1757 -211 1766 -204 1772 -195 ct 
1772 -303 l  1809 -303 l  1809 0 l  1774 0 l  p
1656 -110 m  1656 -82 1662 -61 1674 -47 ct 1686 -33 1700 -26 1716 -26 ct 1732 -26 1746 -33 1758 -46 ct 
1769 -59 1775 -80 1775 -107 ct 1775 -137 1769 -159 1758 -173 ct 1746 -187 1732 -194 1714 -194 ct 
1698 -194 1684 -187 1673 -174 ct 1662 -160 1656 -139 1656 -110 ct p ef
1856 -110 m  1856 -151 1867 -181 1890 -201 ct 1908 -217 1931 -225 1958 -225 ct 
1988 -225 2013 -215 2032 -195 ct 2051 -175 2060 -148 2060 -113 ct 2060 -85 2056 -63 2047 -46 ct 
2039 -30 2027 -17 2011 -8 ct 1995 1 1977 5 1958 5 ct 1928 5 1903 -5 1884 -25 ct 
1865 -44 1856 -73 1856 -110 ct p
1894 -110 m  1894 -82 1900 -61 1912 -47 ct 1924 -33 1940 -26 1958 -26 ct 1976 -26 1992 -33 2004 -47 ct 
2016 -61 2022 -83 2022 -111 ct 2022 -138 2016 -159 2004 -173 ct 1991 -187 1976 -194 1958 -194 ct 
1940 -194 1924 -187 1912 -173 ct 1900 -159 1894 -138 1894 -110 ct p ef
2106 0 m  2106 -220 l  2138 -220 l  2138 -187 l  2147 -203 2155 -213 2162 -218 ct 
2169 -223 2177 -225 2186 -225 ct 2199 -225 2212 -221 2225 -213 ct 2212 -179 l 
2203 -184 2194 -187 2185 -187 ct 2177 -187 2170 -185 2163 -180 ct 2157 -175 2152 -168 2149 -159 ct 
2145 -146 2143 -131 2143 -116 ct 2143 0 l  2106 0 l  p ef
pom
gr
gs
0 0 m 8999 0 l 8999 4999 l 0 4999 l 0 0 l eoclip newpath
gr
gr
0 5000 t 
pom
count op_count sub {pop} repeat countdictstack dict_count sub {end} repeat b4_inc_state restore
%%PageTrailer
%%Trailer
%%EOF
