%!PS-Adobe-3.0 EPSF-3.0 
%%BoundingBox: 0 0 567 283
%%Pages: 0
%%Creator: LibreOffice 4.3
%%Title: none
%%CreationDate: none
%%LanguageLevel: 2
%%EndComments
%%BeginProlog
%%BeginResource: procset SDRes-Prolog 1.0 0
/b4_inc_state save def
/dict_count countdictstack def
/op_count count 1 sub def
userdict begin
0 setgray 0 setlinecap 1 setlinewidth 0 setlinejoin 10 setmiterlimit[] 0 setdash newpath
/languagelevel where {pop languagelevel 1 ne {false setstrokeadjust false setoverprint} if} if
/bdef {bind def} bind def
/c {setrgbcolor} bdef
/l {neg lineto} bdef
/rl {neg rlineto} bdef
/lc {setlinecap} bdef
/lj {setlinejoin} bdef
/lw {setlinewidth} bdef
/ml {setmiterlimit} bdef
/ld {setdash} bdef
/m {neg moveto} bdef
/ct {6 2 roll neg 6 2 roll neg 6 2 roll neg curveto} bdef
/r {rotate} bdef
/t {neg translate} bdef
/s {scale} bdef
/sw {show} bdef
/gs {gsave} bdef
/gr {grestore} bdef
/f {findfont dup length dict begin
{1 index /FID ne {def} {pop pop} ifelse} forall /Encoding ISOLatin1Encoding def
currentdict end /NFont exch definefont pop /NFont findfont} bdef
/p {closepath} bdef
/sf {scalefont setfont} bdef
/ef {eofill}bdef
/pc {closepath stroke}bdef
/ps {stroke}bdef
/pum {matrix currentmatrix}bdef
/pom {setmatrix}bdef
/bs {/aString exch def /nXOfs exch def /nWidth exch def currentpoint nXOfs 0 rmoveto pum nWidth aString stringwidth pop div 1 scale aString show pom moveto} bdef
%%EndResource
%%EndProlog
%%BeginSetup
%%EndSetup
%%Page: 1 1
%%BeginPageSetup
%%EndPageSetup
pum
0.02835 0.0283 s 
0 -10000 t
/tm matrix currentmatrix def
gs
0 0 m 19999 0 l 19999 9999 l 0 9999 l 0 0 l eoclip newpath
gs
0 0 m 19999 0 l 19999 9999 l 0 9999 l 0 0 l eoclip newpath
1.000 1.000 1.000 c 0 0 m  19999 0 l  19999 9999 l  0 9999 l  0 0 l  p ef
0 lw 1 lj 0.800 0.800 0.800 c 17892 1353 m  17892 9823 l  ps
16292 1353 m  16292 9823 l  ps
14592 1353 m  14592 9823 l  ps
12792 1353 m  12792 9823 l  ps
6492 1353 m  6492 9823 l  ps
pum
1500 1149 t
0.003 0.003 0.003 c 157 0 m  120 0 l  120 -237 l  111 -228 99 -220 85 -211 ct 
70 -203 58 -196 46 -192 ct 46 -228 l  67 -238 85 -250 100 -264 ct 116 -277 127 -291 133 -304 ct 
157 -304 l  157 0 l  p ef
311 -164 m  296 -170 285 -178 277 -188 ct 270 -199 266 -211 266 -226 ct 266 -248 274 -266 290 -281 ct 
306 -296 327 -304 353 -304 ct 379 -304 401 -296 417 -281 ct 433 -266 441 -247 441 -225 ct 
441 -211 437 -198 430 -188 ct 423 -178 412 -170 397 -164 ct 415 -158 429 -148 439 -135 ct 
448 -121 453 -105 453 -86 ct 453 -61 444 -39 426 -21 ct 407 -4 383 5 354 5 ct 324 5 300 -4 281 -21 ct 
263 -39 254 -61 254 -88 ct 254 -107 259 -124 269 -137 ct 279 -150 293 -159 311 -164 ct 
p
304 -227 m  304 -212 309 -201 318 -192 ct 327 -183 339 -178 354 -178 ct 369 -178 380 -183 389 -192 ct 
398 -201 403 -212 403 -225 ct 403 -238 398 -250 389 -259 ct 380 -268 368 -273 354 -273 ct 
339 -273 327 -268 318 -259 ct 309 -250 304 -239 304 -227 ct p
292 -88 m  292 -77 294 -67 299 -57 ct 304 -47 312 -40 322 -34 ct 332 -29 342 -26 354 -26 ct 
372 -26 387 -32 398 -43 ct 409 -54 415 -69 415 -86 ct 415 -104 409 -119 397 -131 ct 
386 -142 371 -148 353 -148 ct 335 -148 320 -142 309 -131 ct 298 -119 292 -105 292 -88 ct 
p ef
548 -164 m  533 -170 522 -178 514 -188 ct 507 -199 503 -211 503 -226 ct 503 -248 511 -266 527 -281 ct 
543 -296 564 -304 590 -304 ct 616 -304 638 -296 654 -281 ct 670 -266 678 -247 678 -225 ct 
678 -211 674 -198 667 -188 ct 660 -178 649 -170 634 -164 ct 652 -158 666 -148 676 -135 ct 
685 -121 690 -105 690 -86 ct 690 -61 681 -39 663 -21 ct 644 -4 620 5 591 5 ct 561 5 537 -4 518 -21 ct 
500 -39 491 -61 491 -88 ct 491 -107 496 -124 506 -137 ct 516 -150 530 -159 548 -164 ct 
p
541 -227 m  541 -212 546 -201 555 -192 ct 564 -183 576 -178 591 -178 ct 606 -178 617 -183 626 -192 ct 
635 -201 640 -212 640 -225 ct 640 -238 635 -250 626 -259 ct 617 -268 605 -273 591 -273 ct 
576 -273 564 -268 555 -259 ct 546 -250 541 -239 541 -227 ct p
529 -88 m  529 -77 531 -67 536 -57 ct 541 -47 549 -40 559 -34 ct 569 -29 579 -26 591 -26 ct 
609 -26 624 -32 635 -43 ct 646 -54 652 -69 652 -86 ct 652 -104 646 -119 634 -131 ct 
623 -142 608 -148 590 -148 ct 572 -148 557 -142 546 -131 ct 535 -119 529 -105 529 -88 ct 
p ef
729 -149 m  729 -185 733 -214 740 -236 ct 747 -258 758 -275 773 -287 ct 788 -298 806 -304 828 -304 ct 
844 -304 859 -301 871 -294 ct 884 -288 894 -278 902 -266 ct 909 -254 916 -239 920 -221 ct 
925 -203 927 -179 927 -149 ct 927 -114 923 -85 916 -63 ct 909 -41 898 -24 883 -13 ct 
869 -1 850 5 828 5 ct 799 5 776 -5 759 -26 ct 739 -51 729 -93 729 -149 ct p
767 -150 m  767 -100 773 -67 785 -50 ct 796 -34 811 -26 828 -26 ct 845 -26 860 -34 871 -50 ct 
883 -67 889 -100 889 -150 ct 889 -199 883 -232 872 -249 ct 860 -265 845 -273 828 -273 ct 
810 -273 797 -266 786 -251 ct 773 -233 767 -199 767 -150 ct p ef
pom
pum
6001 1149 t
157 0 m  120 0 l  120 -237 l  111 -228 99 -220 85 -211 ct 70 -203 58 -196 46 -192 ct 
46 -228 l  67 -238 85 -250 100 -264 ct 116 -277 127 -291 133 -304 ct 157 -304 l 
157 0 l  p ef
260 -70 m  296 -73 l  299 -57 305 -45 313 -37 ct 322 -30 332 -26 346 -26 ct 
357 -26 367 -29 375 -34 ct 384 -39 391 -46 396 -55 ct 402 -63 406 -75 410 -90 ct 
413 -105 415 -120 415 -135 ct 415 -137 415 -140 415 -143 ct 408 -131 398 -121 385 -114 ct 
372 -107 358 -103 344 -103 ct 319 -103 298 -112 281 -130 ct 264 -148 255 -172 255 -202 ct 
255 -233 264 -257 282 -276 ct 300 -295 323 -304 350 -304 ct 369 -304 387 -299 403 -288 ct 
420 -278 432 -262 440 -243 ct 449 -223 453 -195 453 -158 ct 453 -119 449 -88 440 -65 ct 
432 -42 420 -25 403 -13 ct 387 -1 367 5 345 5 ct 321 5 302 -2 287 -15 ct 272 -28 263 -46 260 -70 ct 
p
412 -204 m  412 -225 406 -242 395 -254 ct 384 -267 370 -273 354 -273 ct 337 -273 323 -266 311 -253 ct 
299 -239 293 -222 293 -201 ct 293 -182 299 -166 310 -154 ct 322 -142 336 -136 353 -136 ct 
370 -136 384 -142 395 -154 ct 406 -166 412 -183 412 -204 ct p ef
687 -36 m  687 0 l  486 0 l  486 -9 487 -18 490 -26 ct 496 -40 504 -53 515 -66 ct 
526 -79 543 -95 564 -112 ct 597 -139 619 -160 631 -176 ct 643 -192 649 -207 649 -221 ct 
649 -235 644 -248 633 -258 ct 622 -268 608 -273 591 -273 ct 573 -273 558 -268 548 -257 ct 
537 -246 531 -230 531 -211 ct 493 -216 l  496 -245 506 -266 523 -281 ct 540 -296 563 -304 592 -304 ct 
621 -304 644 -296 661 -280 ct 678 -264 687 -244 687 -220 ct 687 -208 684 -196 679 -184 ct 
674 -173 666 -160 654 -147 ct 643 -134 624 -117 597 -94 ct 575 -75 560 -63 554 -56 ct 
547 -49 542 -43 538 -36 ct 687 -36 l  p ef
729 -149 m  729 -185 733 -214 740 -236 ct 747 -258 758 -275 773 -287 ct 788 -298 806 -304 828 -304 ct 
844 -304 859 -301 871 -294 ct 884 -288 894 -278 902 -266 ct 909 -254 916 -239 920 -221 ct 
925 -203 927 -179 927 -149 ct 927 -114 923 -85 916 -63 ct 909 -41 898 -24 883 -13 ct 
869 -1 850 5 828 5 ct 799 5 776 -5 759 -26 ct 739 -51 729 -93 729 -149 ct p
767 -150 m  767 -100 773 -67 785 -50 ct 796 -34 811 -26 828 -26 ct 845 -26 860 -34 871 -50 ct 
883 -67 889 -100 889 -150 ct 889 -199 883 -232 872 -249 ct 860 -265 845 -273 828 -273 ct 
810 -273 797 -266 786 -251 ct 773 -233 767 -199 767 -150 ct p ef
pom
pum
12301 1149 t
157 0 m  120 0 l  120 -237 l  111 -228 99 -220 85 -211 ct 70 -203 58 -196 46 -192 ct 
46 -228 l  67 -238 85 -250 100 -264 ct 116 -277 127 -291 133 -304 ct 157 -304 l 
157 0 l  p ef
260 -70 m  296 -73 l  299 -57 305 -45 313 -37 ct 322 -30 332 -26 346 -26 ct 
357 -26 367 -29 375 -34 ct 384 -39 391 -46 396 -55 ct 402 -63 406 -75 410 -90 ct 
413 -105 415 -120 415 -135 ct 415 -137 415 -140 415 -143 ct 408 -131 398 -121 385 -114 ct 
372 -107 358 -103 344 -103 ct 319 -103 298 -112 281 -130 ct 264 -148 255 -172 255 -202 ct 
255 -233 264 -257 282 -276 ct 300 -295 323 -304 350 -304 ct 369 -304 387 -299 403 -288 ct 
420 -278 432 -262 440 -243 ct 449 -223 453 -195 453 -158 ct 453 -119 449 -88 440 -65 ct 
432 -42 420 -25 403 -13 ct 387 -1 367 5 345 5 ct 321 5 302 -2 287 -15 ct 272 -28 263 -46 260 -70 ct 
p
412 -204 m  412 -225 406 -242 395 -254 ct 384 -267 370 -273 354 -273 ct 337 -273 323 -266 311 -253 ct 
299 -239 293 -222 293 -201 ct 293 -182 299 -166 310 -154 ct 322 -142 336 -136 353 -136 ct 
370 -136 384 -142 395 -154 ct 406 -166 412 -183 412 -204 ct p ef
494 -263 m  494 -299 l  690 -299 l  690 -270 l  671 -249 651 -222 632 -188 ct 
613 -154 599 -119 588 -83 ct 581 -58 576 -30 574 0 ct 536 0 l  536 -24 541 -53 550 -86 ct 
559 -120 572 -153 589 -184 ct 605 -215 623 -242 642 -263 ct 494 -263 l  p ef
729 -149 m  729 -185 733 -214 740 -236 ct 747 -258 758 -275 773 -287 ct 788 -298 806 -304 828 -304 ct 
844 -304 859 -301 871 -294 ct 884 -288 894 -278 902 -266 ct 909 -254 916 -239 920 -221 ct 
925 -203 927 -179 927 -149 ct 927 -114 923 -85 916 -63 ct 909 -41 898 -24 883 -13 ct 
869 -1 850 5 828 5 ct 799 5 776 -5 759 -26 ct 739 -51 729 -93 729 -149 ct p
767 -150 m  767 -100 773 -67 785 -50 ct 796 -34 811 -26 828 -26 ct 845 -26 860 -34 871 -50 ct 
883 -67 889 -100 889 -150 ct 889 -199 883 -232 872 -249 ct 860 -265 845 -273 828 -273 ct 
810 -273 797 -266 786 -251 ct 773 -233 767 -199 767 -150 ct p ef
pom
pum
14102 1149 t
157 0 m  120 0 l  120 -237 l  111 -228 99 -220 85 -211 ct 70 -203 58 -196 46 -192 ct 
46 -228 l  67 -238 85 -250 100 -264 ct 116 -277 127 -291 133 -304 ct 157 -304 l 
157 0 l  p ef
260 -70 m  296 -73 l  299 -57 305 -45 313 -37 ct 322 -30 332 -26 346 -26 ct 
357 -26 367 -29 375 -34 ct 384 -39 391 -46 396 -55 ct 402 -63 406 -75 410 -90 ct 
413 -105 415 -120 415 -135 ct 415 -137 415 -140 415 -143 ct 408 -131 398 -121 385 -114 ct 
372 -107 358 -103 344 -103 ct 319 -103 298 -112 281 -130 ct 264 -148 255 -172 255 -202 ct 
255 -233 264 -257 282 -276 ct 300 -295 323 -304 350 -304 ct 369 -304 387 -299 403 -288 ct 
420 -278 432 -262 440 -243 ct 449 -223 453 -195 453 -158 ct 453 -119 449 -88 440 -65 ct 
432 -42 420 -25 403 -13 ct 387 -1 367 5 345 5 ct 321 5 302 -2 287 -15 ct 272 -28 263 -46 260 -70 ct 
p
412 -204 m  412 -225 406 -242 395 -254 ct 384 -267 370 -273 354 -273 ct 337 -273 323 -266 311 -253 ct 
299 -239 293 -222 293 -201 ct 293 -182 299 -166 310 -154 ct 322 -142 336 -136 353 -136 ct 
370 -136 384 -142 395 -154 ct 406 -166 412 -183 412 -204 ct p ef
548 -164 m  533 -170 522 -178 514 -188 ct 507 -199 503 -211 503 -226 ct 503 -248 511 -266 527 -281 ct 
543 -296 564 -304 590 -304 ct 616 -304 638 -296 654 -281 ct 670 -266 678 -247 678 -225 ct 
678 -211 674 -198 667 -188 ct 660 -178 649 -170 634 -164 ct 652 -158 666 -148 676 -135 ct 
685 -121 690 -105 690 -86 ct 690 -61 681 -39 663 -21 ct 644 -4 620 5 591 5 ct 561 5 537 -4 518 -21 ct 
500 -39 491 -61 491 -88 ct 491 -107 496 -124 506 -137 ct 516 -150 530 -159 548 -164 ct 
p
541 -227 m  541 -212 546 -201 555 -192 ct 564 -183 576 -178 591 -178 ct 606 -178 617 -183 626 -192 ct 
635 -201 640 -212 640 -225 ct 640 -238 635 -250 626 -259 ct 617 -268 605 -273 591 -273 ct 
576 -273 564 -268 555 -259 ct 546 -250 541 -239 541 -227 ct p
529 -88 m  529 -77 531 -67 536 -57 ct 541 -47 549 -40 559 -34 ct 569 -29 579 -26 591 -26 ct 
609 -26 624 -32 635 -43 ct 646 -54 652 -69 652 -86 ct 652 -104 646 -119 634 -131 ct 
623 -142 608 -148 590 -148 ct 572 -148 557 -142 546 -131 ct 535 -119 529 -105 529 -88 ct 
p ef
729 -149 m  729 -185 733 -214 740 -236 ct 747 -258 758 -275 773 -287 ct 788 -298 806 -304 828 -304 ct 
844 -304 859 -301 871 -294 ct 884 -288 894 -278 902 -266 ct 909 -254 916 -239 920 -221 ct 
925 -203 927 -179 927 -149 ct 927 -114 923 -85 916 -63 ct 909 -41 898 -24 883 -13 ct 
869 -1 850 5 828 5 ct 799 5 776 -5 759 -26 ct 739 -51 729 -93 729 -149 ct p
767 -150 m  767 -100 773 -67 785 -50 ct 796 -34 811 -26 828 -26 ct 845 -26 860 -34 871 -50 ct 
883 -67 889 -100 889 -150 ct 889 -199 883 -232 872 -249 ct 860 -265 845 -273 828 -273 ct 
810 -273 797 -266 786 -251 ct 773 -233 767 -199 767 -150 ct p ef
pom
pum
15802 1149 t
157 0 m  120 0 l  120 -237 l  111 -228 99 -220 85 -211 ct 70 -203 58 -196 46 -192 ct 
46 -228 l  67 -238 85 -250 100 -264 ct 116 -277 127 -291 133 -304 ct 157 -304 l 
157 0 l  p ef
260 -70 m  296 -73 l  299 -57 305 -45 313 -37 ct 322 -30 332 -26 346 -26 ct 
357 -26 367 -29 375 -34 ct 384 -39 391 -46 396 -55 ct 402 -63 406 -75 410 -90 ct 
413 -105 415 -120 415 -135 ct 415 -137 415 -140 415 -143 ct 408 -131 398 -121 385 -114 ct 
372 -107 358 -103 344 -103 ct 319 -103 298 -112 281 -130 ct 264 -148 255 -172 255 -202 ct 
255 -233 264 -257 282 -276 ct 300 -295 323 -304 350 -304 ct 369 -304 387 -299 403 -288 ct 
420 -278 432 -262 440 -243 ct 449 -223 453 -195 453 -158 ct 453 -119 449 -88 440 -65 ct 
432 -42 420 -25 403 -13 ct 387 -1 367 5 345 5 ct 321 5 302 -2 287 -15 ct 272 -28 263 -46 260 -70 ct 
p
412 -204 m  412 -225 406 -242 395 -254 ct 384 -267 370 -273 354 -273 ct 337 -273 323 -266 311 -253 ct 
299 -239 293 -222 293 -201 ct 293 -182 299 -166 310 -154 ct 322 -142 336 -136 353 -136 ct 
370 -136 384 -142 395 -154 ct 406 -166 412 -183 412 -204 ct p ef
497 -70 m  533 -73 l  536 -57 542 -45 550 -37 ct 559 -30 569 -26 583 -26 ct 
594 -26 604 -29 612 -34 ct 621 -39 628 -46 633 -55 ct 639 -63 643 -75 647 -90 ct 
650 -105 652 -120 652 -135 ct 652 -137 652 -140 652 -143 ct 645 -131 635 -121 622 -114 ct 
609 -107 595 -103 581 -103 ct 556 -103 535 -112 518 -130 ct 501 -148 492 -172 492 -202 ct 
492 -233 501 -257 519 -276 ct 537 -295 560 -304 587 -304 ct 606 -304 624 -299 640 -288 ct 
657 -278 669 -262 677 -243 ct 686 -223 690 -195 690 -158 ct 690 -119 686 -88 677 -65 ct 
669 -42 657 -25 640 -13 ct 624 -1 604 5 582 5 ct 558 5 539 -2 524 -15 ct 509 -28 500 -46 497 -70 ct 
p
649 -204 m  649 -225 643 -242 632 -254 ct 621 -267 607 -273 591 -273 ct 574 -273 560 -266 548 -253 ct 
536 -239 530 -222 530 -201 ct 530 -182 536 -166 547 -154 ct 559 -142 573 -136 590 -136 ct 
607 -136 621 -142 632 -154 ct 643 -166 649 -183 649 -204 ct p ef
729 -149 m  729 -185 733 -214 740 -236 ct 747 -258 758 -275 773 -287 ct 788 -298 806 -304 828 -304 ct 
844 -304 859 -301 871 -294 ct 884 -288 894 -278 902 -266 ct 909 -254 916 -239 920 -221 ct 
925 -203 927 -179 927 -149 ct 927 -114 923 -85 916 -63 ct 909 -41 898 -24 883 -13 ct 
869 -1 850 5 828 5 ct 799 5 776 -5 759 -26 ct 739 -51 729 -93 729 -149 ct p
767 -150 m  767 -100 773 -67 785 -50 ct 796 -34 811 -26 828 -26 ct 845 -26 860 -34 871 -50 ct 
883 -67 889 -100 889 -150 ct 889 -199 883 -232 872 -249 ct 860 -265 845 -273 828 -273 ct 
810 -273 797 -266 786 -251 ct 773 -233 767 -199 767 -150 ct p ef
pom
pum
17402 1149 t
213 -36 m  213 0 l  12 0 l  12 -9 13 -18 16 -26 ct 22 -40 30 -53 41 -66 ct 52 -79 69 -95 90 -112 ct 
123 -139 145 -160 157 -176 ct 169 -192 175 -207 175 -221 ct 175 -235 170 -248 159 -258 ct 
148 -268 134 -273 117 -273 ct 99 -273 84 -268 74 -257 ct 63 -246 57 -230 57 -211 ct 
19 -216 l  22 -245 32 -266 49 -281 ct 66 -296 89 -304 118 -304 ct 147 -304 170 -296 187 -280 ct 
204 -264 213 -244 213 -220 ct 213 -208 210 -196 205 -184 ct 200 -173 192 -160 180 -147 ct 
169 -134 150 -117 123 -94 ct 101 -75 86 -63 80 -56 ct 73 -49 68 -43 64 -36 ct 213 -36 l 
p ef
255 -149 m  255 -185 259 -214 266 -236 ct 273 -258 284 -275 299 -287 ct 314 -298 332 -304 354 -304 ct 
370 -304 385 -301 397 -294 ct 410 -288 420 -278 428 -266 ct 435 -254 442 -239 446 -221 ct 
451 -203 453 -179 453 -149 ct 453 -114 449 -85 442 -63 ct 435 -41 424 -24 409 -13 ct 
395 -1 376 5 354 5 ct 325 5 302 -5 285 -26 ct 265 -51 255 -93 255 -149 ct p
293 -150 m  293 -100 299 -67 311 -50 ct 322 -34 337 -26 354 -26 ct 371 -26 386 -34 397 -50 ct 
409 -67 415 -100 415 -150 ct 415 -199 409 -232 398 -249 ct 386 -265 371 -273 354 -273 ct 
336 -273 323 -266 312 -251 ct 299 -233 293 -199 293 -150 ct p ef
492 -149 m  492 -185 496 -214 503 -236 ct 510 -258 521 -275 536 -287 ct 551 -298 569 -304 591 -304 ct 
607 -304 622 -301 634 -294 ct 647 -288 657 -278 665 -266 ct 672 -254 679 -239 683 -221 ct 
688 -203 690 -179 690 -149 ct 690 -114 686 -85 679 -63 ct 672 -41 661 -24 646 -13 ct 
632 -1 613 5 591 5 ct 562 5 539 -5 522 -26 ct 502 -51 492 -93 492 -149 ct p
530 -150 m  530 -100 536 -67 548 -50 ct 559 -34 574 -26 591 -26 ct 608 -26 623 -34 634 -50 ct 
646 -67 652 -100 652 -150 ct 652 -199 646 -232 635 -249 ct 623 -265 608 -273 591 -273 ct 
573 -273 560 -266 549 -251 ct 536 -233 530 -199 530 -150 ct p ef
729 -149 m  729 -185 733 -214 740 -236 ct 747 -258 758 -275 773 -287 ct 788 -298 806 -304 828 -304 ct 
844 -304 859 -301 871 -294 ct 884 -288 894 -278 902 -266 ct 909 -254 916 -239 920 -221 ct 
925 -203 927 -179 927 -149 ct 927 -114 923 -85 916 -63 ct 909 -41 898 -24 883 -13 ct 
869 -1 850 5 828 5 ct 799 5 776 -5 759 -26 ct 739 -51 729 -93 729 -149 ct p
767 -150 m  767 -100 773 -67 785 -50 ct 796 -34 811 -26 828 -26 ct 845 -26 860 -34 871 -50 ct 
883 -67 889 -100 889 -150 ct 889 -199 883 -232 872 -249 ct 860 -265 845 -273 828 -273 ct 
810 -273 797 -266 786 -251 ct 773 -233 767 -199 767 -150 ct p ef
pom
0.800 0.800 0.800 c 1992 1353 m  1992 9823 l  ps
423 lw 2 lc 0.601 0.601 0.601 c 1436 2413 m  7426 2413 l  ps
6600 3589 m  15346 3589 l  ps
1.000 1.000 1.000 c 10973 4066 m  10168 4066 l  10168 3111 l  11778 3111 l 
11778 4066 l  10973 4066 l  p ef
pum
10431 3733 t
0.003 0.003 0.003 c 34 0 m  34 -303 l  168 -303 l  195 -303 215 -300 229 -295 ct 
243 -289 254 -280 262 -266 ct 271 -252 275 -237 275 -220 ct 275 -199 268 -181 254 -166 ct 
240 -151 219 -142 190 -138 ct 201 -133 209 -128 214 -123 ct 226 -112 237 -99 247 -83 ct 
299 0 l  250 0 l  210 -63 l  198 -81 188 -95 181 -105 ct 173 -115 167 -121 161 -125 ct 
155 -129 149 -132 142 -134 ct 138 -135 131 -135 120 -135 ct 74 -135 l  74 0 l 
34 0 l  p
74 -171 m  160 -171 l  178 -171 192 -173 202 -177 ct 213 -180 221 -186 226 -195 ct 
231 -203 234 -212 234 -221 ct 234 -236 229 -247 218 -256 ct 208 -265 192 -270 169 -270 ct 
74 -270 l  74 -171 l  p ef
484 -71 m  521 -66 l  515 -44 504 -26 487 -14 ct 471 -1 450 5 424 5 ct 392 5 367 -5 348 -25 ct 
329 -45 320 -72 320 -108 ct 320 -145 329 -174 348 -194 ct 367 -215 392 -225 422 -225 ct 
452 -225 476 -215 494 -195 ct 513 -175 522 -146 522 -110 ct 522 -108 522 -104 522 -100 ct 
358 -100 l  359 -76 366 -58 379 -45 ct 391 -32 407 -26 425 -26 ct 439 -26 451 -30 460 -37 ct 
470 -44 478 -55 484 -71 ct p
359 -131 m  484 -131 l  482 -149 478 -163 470 -173 ct 458 -187 442 -194 423 -194 ct 
405 -194 391 -188 379 -177 ct 367 -165 360 -150 359 -131 ct p ef
569 0 m  569 -303 l  606 -303 l  606 0 l  569 0 l  p ef
814 -71 m  851 -66 l  845 -44 834 -26 817 -14 ct 801 -1 780 5 754 5 ct 722 5 697 -5 678 -25 ct 
659 -45 650 -72 650 -108 ct 650 -145 659 -174 678 -194 ct 697 -215 722 -225 752 -225 ct 
782 -225 806 -215 824 -195 ct 843 -175 852 -146 852 -110 ct 852 -108 852 -104 852 -100 ct 
688 -100 l  689 -76 696 -58 709 -45 ct 721 -32 737 -26 755 -26 ct 769 -26 781 -30 790 -37 ct 
800 -44 808 -55 814 -71 ct p
689 -131 m  814 -131 l  812 -149 808 -163 800 -173 ct 788 -187 772 -194 753 -194 ct 
735 -194 721 -188 709 -177 ct 697 -165 690 -150 689 -131 ct p
721 -247 m  748 -305 l  797 -305 l  752 -247 l  721 -247 l  p ef
886 -66 m  923 -71 l  925 -56 931 -45 940 -38 ct 950 -30 963 -26 980 -26 ct 
997 -26 1009 -29 1018 -36 ct 1026 -43 1030 -51 1030 -61 ct 1030 -69 1026 -76 1019 -81 ct 
1014 -84 1001 -88 981 -93 ct 953 -100 934 -106 923 -111 ct 913 -116 905 -123 899 -132 ct 
894 -141 891 -151 891 -162 ct 891 -171 893 -180 898 -189 ct 902 -197 908 -204 916 -210 ct 
922 -214 930 -218 940 -221 ct 950 -224 961 -225 972 -225 ct 990 -225 1005 -223 1018 -218 ct 
1031 -213 1041 -206 1047 -197 ct 1053 -189 1058 -177 1060 -163 ct 1024 -158 l 
1022 -169 1017 -178 1009 -184 ct 1001 -191 990 -194 975 -194 ct 958 -194 946 -191 938 -186 ct 
931 -180 927 -173 927 -166 ct 927 -161 929 -157 932 -153 ct 935 -149 940 -146 946 -143 ct 
950 -142 961 -139 980 -134 ct 1006 -127 1025 -121 1035 -116 ct 1045 -112 1053 -105 1059 -97 ct 
1065 -88 1068 -77 1068 -65 ct 1068 -52 1064 -41 1057 -30 ct 1050 -19 1040 -10 1026 -4 ct 
1012 2 997 5 980 5 ct 951 5 930 -1 915 -13 ct 900 -25 890 -43 886 -66 ct p ef
pom
0.601 0.601 0.601 c 12333 5059 m  16007 5059 l  ps
1.000 1.000 1.000 c 14170 5536 m  13633 5536 l  13633 4581 l  14707 4581 l 
14707 5536 l  14170 5536 l  p ef
pum
13852 5203 t
0.003 0.003 0.003 c 247 -106 m  288 -96 l  280 -63 265 -38 243 -21 ct 221 -4 194 5 163 5 ct 
130 5 104 -2 84 -15 ct 63 -28 48 -47 37 -73 ct 26 -98 21 -125 21 -154 ct 21 -185 27 -213 39 -236 ct 
51 -260 68 -278 90 -290 ct 113 -302 137 -308 164 -308 ct 194 -308 219 -300 240 -285 ct 
261 -270 275 -248 283 -220 ct 244 -211 l  237 -233 227 -249 213 -259 ct 200 -269 183 -274 163 -274 ct 
140 -274 120 -268 105 -257 ct 89 -246 78 -231 72 -212 ct 65 -193 62 -174 62 -154 ct 
62 -128 66 -106 73 -86 ct 81 -67 92 -53 108 -43 ct 124 -34 141 -29 159 -29 ct 181 -29 200 -35 216 -48 ct 
231 -61 242 -81 247 -106 ct p ef
344 0 m  344 -303 l  384 -303 l  384 0 l  344 0 l  p ef
437 -66 m  474 -71 l  476 -56 482 -45 491 -38 ct 501 -30 514 -26 531 -26 ct 
548 -26 560 -29 569 -36 ct 577 -43 581 -51 581 -61 ct 581 -69 577 -76 570 -81 ct 
565 -84 552 -88 532 -93 ct 504 -100 485 -106 474 -111 ct 464 -116 456 -123 450 -132 ct 
445 -141 442 -151 442 -162 ct 442 -171 444 -180 449 -189 ct 453 -197 459 -204 467 -210 ct 
473 -214 481 -218 491 -221 ct 501 -224 512 -225 523 -225 ct 541 -225 556 -223 569 -218 ct 
582 -213 592 -206 598 -197 ct 604 -189 609 -177 611 -163 ct 575 -158 l  573 -169 568 -178 560 -184 ct 
552 -191 541 -194 526 -194 ct 509 -194 497 -191 489 -186 ct 482 -180 478 -173 478 -166 ct 
478 -161 480 -157 483 -153 ct 486 -149 491 -146 497 -143 ct 501 -142 512 -139 531 -134 ct 
557 -127 576 -121 586 -116 ct 596 -112 604 -105 610 -97 ct 616 -88 619 -77 619 -65 ct 
619 -52 615 -41 608 -30 ct 601 -19 591 -10 577 -4 ct 563 2 548 5 531 5 ct 502 5 481 -1 466 -13 ct 
451 -25 441 -43 437 -66 ct p ef
pom
0.601 0.601 0.601 c 11377 6214 m  17514 6214 l  ps
1.000 1.000 1.000 c 14445 6594 m  12893 6594 l  12893 5834 l  15996 5834 l 
15996 6594 l  14445 6594 l  p ef
pum
13049 6358 t
0.003 0.003 0.003 c 247 -106 m  288 -96 l  280 -63 265 -38 243 -21 ct 221 -4 194 5 163 5 ct 
130 5 104 -2 84 -15 ct 63 -28 48 -47 37 -73 ct 26 -98 21 -125 21 -154 ct 21 -185 27 -213 39 -236 ct 
51 -260 68 -278 90 -290 ct 113 -302 137 -308 164 -308 ct 194 -308 219 -300 240 -285 ct 
261 -270 275 -248 283 -220 ct 244 -211 l  237 -233 227 -249 213 -259 ct 200 -269 183 -274 163 -274 ct 
140 -274 120 -268 105 -257 ct 89 -246 78 -231 72 -212 ct 65 -193 62 -174 62 -154 ct 
62 -128 66 -106 73 -86 ct 81 -67 92 -53 108 -43 ct 124 -34 141 -29 159 -29 ct 181 -29 200 -35 216 -48 ct 
231 -61 242 -81 247 -106 ct p ef
319 -110 m  319 -151 330 -181 353 -201 ct 371 -217 394 -225 421 -225 ct 451 -225 476 -215 495 -195 ct 
514 -175 523 -148 523 -113 ct 523 -85 519 -63 510 -46 ct 502 -30 490 -17 474 -8 ct 
458 1 440 5 421 5 ct 391 5 366 -5 347 -25 ct 328 -44 319 -73 319 -110 ct p
357 -110 m  357 -82 363 -61 375 -47 ct 387 -33 403 -26 421 -26 ct 439 -26 455 -33 467 -47 ct 
479 -61 485 -83 485 -111 ct 485 -138 479 -159 467 -173 ct 454 -187 439 -194 421 -194 ct 
403 -194 387 -187 375 -173 ct 363 -159 357 -138 357 -110 ct p ef
570 0 m  570 -220 l  603 -220 l  603 -189 l  610 -200 619 -209 630 -215 ct 
642 -222 655 -225 669 -225 ct 686 -225 699 -222 709 -215 ct 720 -208 727 -199 731 -187 ct 
749 -212 771 -225 799 -225 ct 821 -225 838 -219 849 -207 ct 861 -195 867 -176 867 -151 ct 
867 0 l  830 0 l  830 -139 l  830 -154 829 -165 826 -171 ct 824 -178 819 -183 813 -187 ct 
807 -191 799 -193 791 -193 ct 775 -193 762 -188 752 -178 ct 742 -167 737 -151 737 -128 ct 
737 0 l  700 0 l  700 -143 l  700 -160 697 -172 691 -181 ct 685 -189 675 -193 661 -193 ct 
651 -193 641 -190 632 -185 ct 623 -179 617 -171 613 -160 ct 609 -150 607 -134 607 -114 ct 
607 0 l  570 0 l  p ef
924 84 m  924 -220 l  958 -220 l  958 -192 l  966 -203 975 -211 985 -217 ct 
995 -222 1007 -225 1022 -225 ct 1041 -225 1057 -220 1072 -210 ct 1086 -201 1097 -187 1104 -170 ct 
1111 -152 1115 -133 1115 -112 ct 1115 -89 1111 -69 1103 -51 ct 1095 -33 1083 -19 1068 -9 ct 
1052 0 1036 5 1019 5 ct 1006 5 995 2 985 -3 ct 975 -8 967 -15 961 -23 ct 961 84 l 
924 84 l  p
957 -109 m  957 -81 963 -60 974 -46 ct 986 -33 1000 -26 1016 -26 ct 1033 -26 1047 -33 1059 -47 ct 
1071 -61 1077 -83 1077 -112 ct 1077 -140 1071 -161 1060 -175 ct 1048 -189 1034 -196 1018 -196 ct 
1002 -196 988 -189 975 -174 ct 963 -159 957 -137 957 -109 ct p ef
1308 0 m  1308 -32 l  1291 -7 1267 5 1238 5 ct 1225 5 1212 3 1201 -2 ct 1190 -7 1181 -14 1176 -21 ct 
1170 -29 1167 -38 1164 -49 ct 1163 -56 1162 -68 1162 -84 ct 1162 -220 l  1199 -220 l 
1199 -98 l  1199 -78 1200 -65 1201 -59 ct 1204 -49 1209 -41 1216 -35 ct 1224 -30 1234 -27 1245 -27 ct 
1256 -27 1267 -30 1277 -36 ct 1287 -41 1294 -49 1298 -59 ct 1302 -69 1304 -83 1304 -102 ct 
1304 -220 l  1341 -220 l  1341 0 l  1308 0 l  p ef
1481 -33 m  1486 0 l  1476 2 1466 3 1458 3 ct 1444 3 1434 1 1426 -3 ct 1419 -8 1414 -13 1411 -20 ct 
1408 -27 1406 -42 1406 -64 ct 1406 -191 l  1379 -191 l  1379 -220 l  1406 -220 l 
1406 -274 l  1443 -297 l  1443 -220 l  1481 -220 l  1481 -191 l  1443 -191 l 
1443 -63 l  1443 -53 1444 -46 1445 -43 ct 1446 -40 1448 -37 1452 -36 ct 1455 -34 1459 -33 1464 -33 ct 
1469 -33 1474 -33 1481 -33 ct p ef
1662 -27 m  1649 -15 1635 -7 1623 -2 ct 1610 3 1596 5 1581 5 ct 1557 5 1538 -1 1525 -13 ct 
1512 -25 1505 -40 1505 -58 ct 1505 -69 1507 -79 1512 -88 ct 1517 -97 1524 -104 1532 -109 ct 
1540 -115 1549 -119 1559 -122 ct 1566 -123 1578 -125 1593 -127 ct 1623 -131 1645 -135 1660 -140 ct 
1660 -145 1660 -148 1660 -150 ct 1660 -165 1656 -175 1649 -181 ct 1640 -190 1625 -194 1606 -194 ct 
1588 -194 1575 -191 1567 -185 ct 1558 -179 1552 -168 1548 -152 ct 1511 -157 l 
1514 -173 1520 -185 1528 -195 ct 1535 -205 1546 -212 1561 -217 ct 1575 -222 1592 -225 1611 -225 ct 
1630 -225 1645 -223 1657 -218 ct 1669 -214 1678 -208 1683 -202 ct 1689 -195 1693 -186 1695 -176 ct 
1696 -170 1697 -158 1697 -142 ct 1697 -92 l  1697 -57 1698 -35 1699 -26 ct 1701 -17 1704 -8 1708 0 ct 
1670 0 l  1666 -8 1663 -17 1662 -27 ct p
1660 -111 m  1646 -105 1626 -101 1598 -97 ct 1583 -95 1572 -92 1565 -89 ct 1559 -86 1554 -82 1550 -77 ct 
1547 -72 1545 -66 1545 -59 ct 1545 -49 1549 -41 1556 -34 ct 1564 -27 1575 -24 1590 -24 ct 
1604 -24 1617 -27 1629 -33 ct 1640 -40 1648 -48 1654 -59 ct 1658 -68 1660 -81 1660 -97 ct 
1660 -111 l  p ef
1897 0 m  1897 -28 l  1883 -6 1863 5 1836 5 ct 1818 5 1802 0 1787 -10 ct 1773 -19 1761 -33 1753 -50 ct 
1745 -67 1741 -87 1741 -110 ct 1741 -132 1745 -152 1752 -170 ct 1759 -187 1770 -201 1785 -211 ct 
1800 -220 1816 -225 1834 -225 ct 1847 -225 1859 -222 1870 -217 ct 1880 -211 1889 -204 1895 -195 ct 
1895 -303 l  1932 -303 l  1932 0 l  1897 0 l  p
1779 -110 m  1779 -82 1785 -61 1797 -47 ct 1809 -33 1823 -26 1839 -26 ct 1855 -26 1869 -33 1881 -46 ct 
1892 -59 1898 -80 1898 -107 ct 1898 -137 1892 -159 1881 -173 ct 1869 -187 1855 -194 1837 -194 ct 
1821 -194 1807 -187 1796 -174 ct 1785 -160 1779 -139 1779 -110 ct p ef
1978 -110 m  1978 -151 1989 -181 2012 -201 ct 2030 -217 2053 -225 2080 -225 ct 
2110 -225 2135 -215 2154 -195 ct 2173 -175 2182 -148 2182 -113 ct 2182 -85 2178 -63 2169 -46 ct 
2161 -30 2149 -17 2133 -8 ct 2117 1 2099 5 2080 5 ct 2050 5 2025 -5 2006 -25 ct 
1987 -44 1978 -73 1978 -110 ct p
2016 -110 m  2016 -82 2022 -61 2034 -47 ct 2046 -33 2062 -26 2080 -26 ct 2098 -26 2114 -33 2126 -47 ct 
2138 -61 2144 -83 2144 -111 ct 2144 -138 2138 -159 2126 -173 ct 2113 -187 2098 -194 2080 -194 ct 
2062 -194 2046 -187 2034 -173 ct 2022 -159 2016 -138 2016 -110 ct p ef
2228 0 m  2228 -220 l  2260 -220 l  2260 -187 l  2269 -203 2277 -213 2284 -218 ct 
2291 -223 2299 -225 2308 -225 ct 2321 -225 2334 -221 2347 -213 ct 2334 -179 l 
2325 -184 2316 -187 2307 -187 ct 2299 -187 2292 -185 2285 -180 ct 2279 -175 2274 -168 2271 -159 ct 
2267 -146 2265 -131 2265 -116 ct 2265 0 l  2228 0 l  p ef
2520 -71 m  2557 -66 l  2551 -44 2540 -26 2523 -14 ct 2507 -1 2486 5 2460 5 ct 
2428 5 2403 -5 2384 -25 ct 2365 -45 2356 -72 2356 -108 ct 2356 -145 2365 -174 2384 -194 ct 
2403 -215 2428 -225 2458 -225 ct 2488 -225 2512 -215 2530 -195 ct 2549 -175 2558 -146 2558 -110 ct 
2558 -108 2558 -104 2558 -100 ct 2394 -100 l  2395 -76 2402 -58 2415 -45 ct 
2427 -32 2443 -26 2461 -26 ct 2475 -26 2487 -30 2496 -37 ct 2506 -44 2514 -55 2520 -71 ct 
p
2395 -131 m  2520 -131 l  2518 -149 2514 -163 2506 -173 ct 2494 -187 2478 -194 2459 -194 ct 
2441 -194 2427 -188 2415 -177 ct 2403 -165 2396 -150 2395 -131 ct p ef
2592 -66 m  2629 -71 l  2631 -56 2637 -45 2646 -38 ct 2656 -30 2669 -26 2686 -26 ct 
2703 -26 2715 -29 2724 -36 ct 2732 -43 2736 -51 2736 -61 ct 2736 -69 2732 -76 2725 -81 ct 
2720 -84 2707 -88 2687 -93 ct 2659 -100 2640 -106 2629 -111 ct 2619 -116 2611 -123 2605 -132 ct 
2600 -141 2597 -151 2597 -162 ct 2597 -171 2599 -180 2604 -189 ct 2608 -197 2614 -204 2622 -210 ct 
2628 -214 2636 -218 2646 -221 ct 2656 -224 2667 -225 2678 -225 ct 2696 -225 2711 -223 2724 -218 ct 
2737 -213 2747 -206 2753 -197 ct 2759 -189 2764 -177 2766 -163 ct 2730 -158 l 
2728 -169 2723 -178 2715 -184 ct 2707 -191 2696 -194 2681 -194 ct 2664 -194 2652 -191 2644 -186 ct 
2637 -180 2633 -173 2633 -166 ct 2633 -161 2635 -157 2638 -153 ct 2641 -149 2646 -146 2652 -143 ct 
2656 -142 2667 -139 2686 -134 ct 2712 -127 2731 -121 2741 -116 ct 2751 -112 2759 -105 2765 -97 ct 
2771 -88 2774 -77 2774 -65 ct 2774 -52 2770 -41 2763 -30 ct 2756 -19 2746 -10 2732 -4 ct 
2718 2 2703 5 2686 5 ct 2657 5 2636 -1 2621 -13 ct 2606 -25 2596 -43 2592 -66 ct 
p ef
pom
0.601 0.601 0.601 c 12452 7521 m  19250 7522 l  ps
1.000 1.000 1.000 c 15851 7840 m  15052 7840 l  15052 7202 l  16650 7202 l 
16650 7840 l  15851 7840 l  p ef
pum
15333 7665 t
0.003 0.003 0.003 c 247 -106 m  288 -96 l  280 -63 265 -38 243 -21 ct 221 -4 194 5 163 5 ct 
130 5 104 -2 84 -15 ct 63 -28 48 -47 37 -73 ct 26 -98 21 -125 21 -154 ct 21 -185 27 -213 39 -236 ct 
51 -260 68 -278 90 -290 ct 113 -302 137 -308 164 -308 ct 194 -308 219 -300 240 -285 ct 
261 -270 275 -248 283 -220 ct 244 -211 l  237 -233 227 -249 213 -259 ct 200 -269 183 -274 163 -274 ct 
140 -274 120 -268 105 -257 ct 89 -246 78 -231 72 -212 ct 65 -193 62 -174 62 -154 ct 
62 -128 66 -106 73 -86 ct 81 -67 92 -53 108 -43 ct 124 -34 141 -29 159 -29 ct 181 -29 200 -35 216 -48 ct 
231 -61 242 -81 247 -106 ct p ef
336 0 m  336 -303 l  376 -303 l  376 -36 l  525 -36 l  525 0 l  336 0 l 
p ef
575 0 m  575 -303 l  689 -303 l  709 -303 725 -302 735 -300 ct 750 -298 763 -293 773 -286 ct 
783 -279 791 -269 797 -257 ct 803 -244 806 -230 806 -215 ct 806 -189 798 -168 781 -150 ct 
765 -132 735 -123 693 -123 ct 615 -123 l  615 0 l  575 0 l  p
615 -159 m  693 -159 l  719 -159 738 -164 749 -173 ct 760 -183 765 -197 765 -214 ct 
765 -227 762 -238 755 -247 ct 749 -256 741 -261 730 -264 ct 723 -266 711 -267 693 -267 ct 
615 -267 l  615 -159 l  p ef
840 -66 m  877 -71 l  879 -56 885 -45 894 -38 ct 904 -30 917 -26 934 -26 ct 
951 -26 963 -29 972 -36 ct 980 -43 984 -51 984 -61 ct 984 -69 980 -76 973 -81 ct 
968 -84 955 -88 935 -93 ct 907 -100 888 -106 877 -111 ct 867 -116 859 -123 853 -132 ct 
848 -141 845 -151 845 -162 ct 845 -171 847 -180 852 -189 ct 856 -197 862 -204 870 -210 ct 
876 -214 884 -218 894 -221 ct 904 -224 915 -225 926 -225 ct 944 -225 959 -223 972 -218 ct 
985 -213 995 -206 1001 -197 ct 1007 -189 1012 -177 1014 -163 ct 978 -158 l  976 -169 971 -178 963 -184 ct 
955 -191 944 -194 929 -194 ct 912 -194 900 -191 892 -186 ct 885 -180 881 -173 881 -166 ct 
881 -161 883 -157 886 -153 ct 889 -149 894 -146 900 -143 ct 904 -142 915 -139 934 -134 ct 
960 -127 979 -121 989 -116 ct 999 -112 1007 -105 1013 -97 ct 1019 -88 1022 -77 1022 -65 ct 
1022 -52 1018 -41 1011 -30 ct 1004 -19 994 -10 980 -4 ct 966 2 951 5 934 5 ct 905 5 884 -1 869 -13 ct 
854 -25 844 -43 840 -66 ct p ef
pom
0.601 0.601 0.601 c 13003 8880 m  19250 8880 l  ps
1.000 1.000 1.000 c 16126 9269 m  14464 9269 l  14464 8491 l  17788 8491 l 
17788 9269 l  16126 9269 l  p ef
pum
14731 8787 t
0.003 0.003 0.003 c 247 -106 m  288 -96 l  280 -63 265 -38 243 -21 ct 221 -4 194 5 163 5 ct 
130 5 104 -2 84 -15 ct 63 -28 48 -47 37 -73 ct 26 -98 21 -125 21 -154 ct 21 -185 27 -213 39 -236 ct 
51 -260 68 -278 90 -290 ct 113 -302 137 -308 164 -308 ct 194 -308 219 -300 240 -285 ct 
261 -270 275 -248 283 -220 ct 244 -211 l  237 -233 227 -249 213 -259 ct 200 -269 183 -274 163 -274 ct 
140 -274 120 -268 105 -257 ct 89 -246 78 -231 72 -212 ct 65 -193 62 -174 62 -154 ct 
62 -128 66 -106 73 -86 ct 81 -67 92 -53 108 -43 ct 124 -34 141 -29 159 -29 ct 181 -29 200 -35 216 -48 ct 
231 -61 242 -81 247 -106 ct p ef
319 -110 m  319 -151 330 -181 353 -201 ct 371 -217 394 -225 421 -225 ct 451 -225 476 -215 495 -195 ct 
514 -175 523 -148 523 -113 ct 523 -85 519 -63 510 -46 ct 502 -30 490 -17 474 -8 ct 
458 1 440 5 421 5 ct 391 5 366 -5 347 -25 ct 328 -44 319 -73 319 -110 ct p
357 -110 m  357 -82 363 -61 375 -47 ct 387 -33 403 -26 421 -26 ct 439 -26 455 -33 467 -47 ct 
479 -61 485 -83 485 -111 ct 485 -138 479 -159 467 -173 ct 454 -187 439 -194 421 -194 ct 
403 -194 387 -187 375 -173 ct 363 -159 357 -138 357 -110 ct p ef
570 0 m  570 -220 l  603 -220 l  603 -189 l  610 -200 619 -209 630 -215 ct 
642 -222 655 -225 669 -225 ct 686 -225 699 -222 709 -215 ct 720 -208 727 -199 731 -187 ct 
749 -212 771 -225 799 -225 ct 821 -225 838 -219 849 -207 ct 861 -195 867 -176 867 -151 ct 
867 0 l  830 0 l  830 -139 l  830 -154 829 -165 826 -171 ct 824 -178 819 -183 813 -187 ct 
807 -191 799 -193 791 -193 ct 775 -193 762 -188 752 -178 ct 742 -167 737 -151 737 -128 ct 
737 0 l  700 0 l  700 -143 l  700 -160 697 -172 691 -181 ct 685 -189 675 -193 661 -193 ct 
651 -193 641 -190 632 -185 ct 623 -179 617 -171 613 -160 ct 609 -150 607 -134 607 -114 ct 
607 0 l  570 0 l  p ef
924 84 m  924 -220 l  958 -220 l  958 -192 l  966 -203 975 -211 985 -217 ct 
995 -222 1007 -225 1022 -225 ct 1041 -225 1057 -220 1072 -210 ct 1086 -201 1097 -187 1104 -170 ct 
1111 -152 1115 -133 1115 -112 ct 1115 -89 1111 -69 1103 -51 ct 1095 -33 1083 -19 1068 -9 ct 
1052 0 1036 5 1019 5 ct 1006 5 995 2 985 -3 ct 975 -8 967 -15 961 -23 ct 961 84 l 
924 84 l  p
957 -109 m  957 -81 963 -60 974 -46 ct 986 -33 1000 -26 1016 -26 ct 1033 -26 1047 -33 1059 -47 ct 
1071 -61 1077 -83 1077 -112 ct 1077 -140 1071 -161 1060 -175 ct 1048 -189 1034 -196 1018 -196 ct 
1002 -196 988 -189 975 -174 ct 963 -159 957 -137 957 -109 ct p ef
1308 0 m  1308 -32 l  1291 -7 1267 5 1238 5 ct 1225 5 1212 3 1201 -2 ct 1190 -7 1181 -14 1176 -21 ct 
1170 -29 1167 -38 1164 -49 ct 1163 -56 1162 -68 1162 -84 ct 1162 -220 l  1199 -220 l 
1199 -98 l  1199 -78 1200 -65 1201 -59 ct 1204 -49 1209 -41 1216 -35 ct 1224 -30 1234 -27 1245 -27 ct 
1256 -27 1267 -30 1277 -36 ct 1287 -41 1294 -49 1298 -59 ct 1302 -69 1304 -83 1304 -102 ct 
1304 -220 l  1341 -220 l  1341 0 l  1308 0 l  p ef
1481 -33 m  1486 0 l  1476 2 1466 3 1458 3 ct 1444 3 1434 1 1426 -3 ct 1419 -8 1414 -13 1411 -20 ct 
1408 -27 1406 -42 1406 -64 ct 1406 -191 l  1379 -191 l  1379 -220 l  1406 -220 l 
1406 -274 l  1443 -297 l  1443 -220 l  1481 -220 l  1481 -191 l  1443 -191 l 
1443 -63 l  1443 -53 1444 -46 1445 -43 ct 1446 -40 1448 -37 1452 -36 ct 1455 -34 1459 -33 1464 -33 ct 
1469 -33 1474 -33 1481 -33 ct p ef
1662 -27 m  1649 -15 1635 -7 1623 -2 ct 1610 3 1596 5 1581 5 ct 1557 5 1538 -1 1525 -13 ct 
1512 -25 1505 -40 1505 -58 ct 1505 -69 1507 -79 1512 -88 ct 1517 -97 1524 -104 1532 -109 ct 
1540 -115 1549 -119 1559 -122 ct 1566 -123 1578 -125 1593 -127 ct 1623 -131 1645 -135 1660 -140 ct 
1660 -145 1660 -148 1660 -150 ct 1660 -165 1656 -175 1649 -181 ct 1640 -190 1625 -194 1606 -194 ct 
1588 -194 1575 -191 1567 -185 ct 1558 -179 1552 -168 1548 -152 ct 1511 -157 l 
1514 -173 1520 -185 1528 -195 ct 1535 -205 1546 -212 1561 -217 ct 1575 -222 1592 -225 1611 -225 ct 
1630 -225 1645 -223 1657 -218 ct 1669 -214 1678 -208 1683 -202 ct 1689 -195 1693 -186 1695 -176 ct 
1696 -170 1697 -158 1697 -142 ct 1697 -92 l  1697 -57 1698 -35 1699 -26 ct 1701 -17 1704 -8 1708 0 ct 
1670 0 l  1666 -8 1663 -17 1662 -27 ct p
1660 -111 m  1646 -105 1626 -101 1598 -97 ct 1583 -95 1572 -92 1565 -89 ct 1559 -86 1554 -82 1550 -77 ct 
1547 -72 1545 -66 1545 -59 ct 1545 -49 1549 -41 1556 -34 ct 1564 -27 1575 -24 1590 -24 ct 
1604 -24 1617 -27 1629 -33 ct 1640 -40 1648 -48 1654 -59 ct 1658 -68 1660 -81 1660 -97 ct 
1660 -111 l  p ef
1897 0 m  1897 -28 l  1883 -6 1863 5 1836 5 ct 1818 5 1802 0 1787 -10 ct 1773 -19 1761 -33 1753 -50 ct 
1745 -67 1741 -87 1741 -110 ct 1741 -132 1745 -152 1752 -170 ct 1759 -187 1770 -201 1785 -211 ct 
1800 -220 1816 -225 1834 -225 ct 1847 -225 1859 -222 1870 -217 ct 1880 -211 1889 -204 1895 -195 ct 
1895 -303 l  1932 -303 l  1932 0 l  1897 0 l  p
1779 -110 m  1779 -82 1785 -61 1797 -47 ct 1809 -33 1823 -26 1839 -26 ct 1855 -26 1869 -33 1881 -46 ct 
1892 -59 1898 -80 1898 -107 ct 1898 -137 1892 -159 1881 -173 ct 1869 -187 1855 -194 1837 -194 ct 
1821 -194 1807 -187 1796 -174 ct 1785 -160 1779 -139 1779 -110 ct p ef
1978 -110 m  1978 -151 1989 -181 2012 -201 ct 2030 -217 2053 -225 2080 -225 ct 
2110 -225 2135 -215 2154 -195 ct 2173 -175 2182 -148 2182 -113 ct 2182 -85 2178 -63 2169 -46 ct 
2161 -30 2149 -17 2133 -8 ct 2117 1 2099 5 2080 5 ct 2050 5 2025 -5 2006 -25 ct 
1987 -44 1978 -73 1978 -110 ct p
2016 -110 m  2016 -82 2022 -61 2034 -47 ct 2046 -33 2062 -26 2080 -26 ct 2098 -26 2114 -33 2126 -47 ct 
2138 -61 2144 -83 2144 -111 ct 2144 -138 2138 -159 2126 -173 ct 2113 -187 2098 -194 2080 -194 ct 
2062 -194 2046 -187 2034 -173 ct 2022 -159 2016 -138 2016 -110 ct p ef
2228 0 m  2228 -220 l  2260 -220 l  2260 -187 l  2269 -203 2277 -213 2284 -218 ct 
2291 -223 2299 -225 2308 -225 ct 2321 -225 2334 -221 2347 -213 ct 2334 -179 l 
2325 -184 2316 -187 2307 -187 ct 2299 -187 2292 -185 2285 -180 ct 2279 -175 2274 -168 2271 -159 ct 
2267 -146 2265 -131 2265 -116 ct 2265 0 l  2228 0 l  p ef
2520 -71 m  2557 -66 l  2551 -44 2540 -26 2523 -14 ct 2507 -1 2486 5 2460 5 ct 
2428 5 2403 -5 2384 -25 ct 2365 -45 2356 -72 2356 -108 ct 2356 -145 2365 -174 2384 -194 ct 
2403 -215 2428 -225 2458 -225 ct 2488 -225 2512 -215 2530 -195 ct 2549 -175 2558 -146 2558 -110 ct 
2558 -108 2558 -104 2558 -100 ct 2394 -100 l  2395 -76 2402 -58 2415 -45 ct 
2427 -32 2443 -26 2461 -26 ct 2475 -26 2487 -30 2496 -37 ct 2506 -44 2514 -55 2520 -71 ct 
p
2395 -131 m  2520 -131 l  2518 -149 2514 -163 2506 -173 ct 2494 -187 2478 -194 2459 -194 ct 
2441 -194 2427 -188 2415 -177 ct 2403 -165 2396 -150 2395 -131 ct p ef
2592 -66 m  2629 -71 l  2631 -56 2637 -45 2646 -38 ct 2656 -30 2669 -26 2686 -26 ct 
2703 -26 2715 -29 2724 -36 ct 2732 -43 2736 -51 2736 -61 ct 2736 -69 2732 -76 2725 -81 ct 
2720 -84 2707 -88 2687 -93 ct 2659 -100 2640 -106 2629 -111 ct 2619 -116 2611 -123 2605 -132 ct 
2600 -141 2597 -151 2597 -162 ct 2597 -171 2599 -180 2604 -189 ct 2608 -197 2614 -204 2622 -210 ct 
2628 -214 2636 -218 2646 -221 ct 2656 -224 2667 -225 2678 -225 ct 2696 -225 2711 -223 2724 -218 ct 
2737 -213 2747 -206 2753 -197 ct 2759 -189 2764 -177 2766 -163 ct 2730 -158 l 
2728 -169 2723 -178 2715 -184 ct 2707 -191 2696 -194 2681 -194 ct 2664 -194 2652 -191 2644 -186 ct 
2637 -180 2633 -173 2633 -166 ct 2633 -161 2635 -157 2638 -153 ct 2641 -149 2646 -146 2652 -143 ct 
2656 -142 2667 -139 2686 -134 ct 2712 -127 2731 -121 2741 -116 ct 2751 -112 2759 -105 2765 -97 ct 
2771 -88 2774 -77 2774 -65 ct 2774 -52 2770 -41 2763 -30 ct 2756 -19 2746 -10 2732 -4 ct 
2718 2 2703 5 2686 5 ct 2657 5 2636 -1 2621 -13 ct 2606 -25 2596 -43 2592 -66 ct 
p ef
pom
pum
14945 9261 t
170 0 m  170 -28 l  156 -6 136 5 109 5 ct 91 5 75 0 60 -10 ct 46 -19 34 -33 26 -50 ct 
18 -67 14 -87 14 -110 ct 14 -132 18 -152 25 -170 ct 32 -187 43 -201 58 -211 ct 
73 -220 89 -225 107 -225 ct 120 -225 132 -222 143 -217 ct 153 -211 162 -204 168 -195 ct 
168 -303 l  205 -303 l  205 0 l  170 0 l  p
52 -110 m  52 -82 58 -61 70 -47 ct 82 -33 96 -26 112 -26 ct 128 -26 142 -33 154 -46 ct 
165 -59 171 -80 171 -107 ct 171 -137 165 -159 154 -173 ct 142 -187 128 -194 110 -194 ct 
94 -194 80 -187 69 -174 ct 58 -160 52 -139 52 -110 ct p ef
416 -71 m  453 -66 l  447 -44 436 -26 419 -14 ct 403 -1 382 5 356 5 ct 324 5 299 -5 280 -25 ct 
261 -45 252 -72 252 -108 ct 252 -145 261 -174 280 -194 ct 299 -215 324 -225 354 -225 ct 
384 -225 408 -215 426 -195 ct 445 -175 454 -146 454 -110 ct 454 -108 454 -104 454 -100 ct 
290 -100 l  291 -76 298 -58 311 -45 ct 323 -32 339 -26 357 -26 ct 371 -26 383 -30 392 -37 ct 
402 -44 410 -55 416 -71 ct p
291 -131 m  416 -131 l  414 -149 410 -163 402 -173 ct 390 -187 374 -194 355 -194 ct 
337 -194 323 -188 311 -177 ct 299 -165 292 -150 291 -131 ct p ef
626 0 m  626 -303 l  740 -303 l  760 -303 776 -302 786 -300 ct 801 -298 814 -293 824 -286 ct 
834 -279 842 -269 848 -257 ct 854 -244 857 -230 857 -215 ct 857 -189 849 -168 832 -150 ct 
816 -132 786 -123 744 -123 ct 666 -123 l  666 0 l  626 0 l  p
666 -159 m  744 -159 l  770 -159 789 -164 800 -173 ct 811 -183 816 -197 816 -214 ct 
816 -227 813 -238 806 -247 ct 800 -256 792 -261 781 -264 ct 774 -266 762 -267 744 -267 ct 
666 -267 l  666 -159 l  p ef
903 0 m  903 -220 l  935 -220 l  935 -187 l  944 -203 952 -213 959 -218 ct 
966 -223 974 -225 983 -225 ct 996 -225 1009 -221 1022 -213 ct 1009 -179 l  1000 -184 991 -187 982 -187 ct 
974 -187 967 -185 960 -180 ct 954 -175 949 -168 946 -159 ct 942 -146 940 -131 940 -116 ct 
940 0 l  903 0 l  p ef
1030 -110 m  1030 -151 1041 -181 1064 -201 ct 1082 -217 1105 -225 1132 -225 ct 
1162 -225 1187 -215 1206 -195 ct 1225 -175 1234 -148 1234 -113 ct 1234 -85 1230 -63 1221 -46 ct 
1213 -30 1201 -17 1185 -8 ct 1169 1 1151 5 1132 5 ct 1102 5 1077 -5 1058 -25 ct 
1039 -44 1030 -73 1030 -110 ct p
1068 -110 m  1068 -82 1074 -61 1086 -47 ct 1098 -33 1114 -26 1132 -26 ct 1150 -26 1166 -33 1178 -47 ct 
1190 -61 1196 -83 1196 -111 ct 1196 -138 1190 -159 1178 -173 ct 1165 -187 1150 -194 1132 -194 ct 
1114 -194 1098 -187 1086 -173 ct 1074 -159 1068 -138 1068 -110 ct p ef
1425 -81 m  1462 -76 l  1458 -51 1448 -31 1431 -17 ct 1415 -2 1394 5 1370 5 ct 
1340 5 1316 -5 1298 -25 ct 1279 -44 1270 -72 1270 -109 ct 1270 -133 1274 -154 1282 -172 ct 
1290 -189 1302 -203 1318 -212 ct 1334 -221 1351 -225 1370 -225 ct 1394 -225 1414 -219 1429 -207 ct 
1444 -195 1454 -177 1458 -155 ct 1422 -150 l  1419 -165 1412 -176 1404 -183 ct 
1395 -190 1384 -194 1372 -194 ct 1353 -194 1337 -187 1326 -174 ct 1314 -160 1308 -139 1308 -110 ct 
1308 -81 1314 -59 1325 -46 ct 1336 -33 1351 -26 1370 -26 ct 1384 -26 1396 -30 1406 -39 ct 
1416 -48 1422 -62 1425 -81 ct p ef
1644 -71 m  1681 -66 l  1675 -44 1664 -26 1647 -14 ct 1631 -1 1610 5 1584 5 ct 
1552 5 1527 -5 1508 -25 ct 1489 -45 1480 -72 1480 -108 ct 1480 -145 1489 -174 1508 -194 ct 
1527 -215 1552 -225 1582 -225 ct 1612 -225 1636 -215 1654 -195 ct 1673 -175 1682 -146 1682 -110 ct 
1682 -108 1682 -104 1682 -100 ct 1518 -100 l  1519 -76 1526 -58 1539 -45 ct 
1551 -32 1567 -26 1585 -26 ct 1599 -26 1611 -30 1620 -37 ct 1630 -44 1638 -55 1644 -71 ct 
p
1519 -131 m  1644 -131 l  1642 -149 1638 -163 1630 -173 ct 1618 -187 1602 -194 1583 -194 ct 
1565 -194 1551 -188 1539 -177 ct 1527 -165 1520 -150 1519 -131 ct p ef
1716 -66 m  1753 -71 l  1755 -56 1761 -45 1770 -38 ct 1780 -30 1793 -26 1810 -26 ct 
1827 -26 1839 -29 1848 -36 ct 1856 -43 1860 -51 1860 -61 ct 1860 -69 1856 -76 1849 -81 ct 
1844 -84 1831 -88 1811 -93 ct 1783 -100 1764 -106 1753 -111 ct 1743 -116 1735 -123 1729 -132 ct 
1724 -141 1721 -151 1721 -162 ct 1721 -171 1723 -180 1728 -189 ct 1732 -197 1738 -204 1746 -210 ct 
1752 -214 1760 -218 1770 -221 ct 1780 -224 1791 -225 1802 -225 ct 1820 -225 1835 -223 1848 -218 ct 
1861 -213 1871 -206 1877 -197 ct 1883 -189 1888 -177 1890 -163 ct 1854 -158 l 
1852 -169 1847 -178 1839 -184 ct 1831 -191 1820 -194 1805 -194 ct 1788 -194 1776 -191 1768 -186 ct 
1761 -180 1757 -173 1757 -166 ct 1757 -161 1759 -157 1762 -153 ct 1765 -149 1770 -146 1776 -143 ct 
1780 -142 1791 -139 1810 -134 ct 1836 -127 1855 -121 1865 -116 ct 1875 -112 1883 -105 1889 -97 ct 
1895 -88 1898 -77 1898 -65 ct 1898 -52 1894 -41 1887 -30 ct 1880 -19 1870 -10 1856 -4 ct 
1842 2 1827 5 1810 5 ct 1781 5 1760 -1 1745 -13 ct 1730 -25 1720 -43 1716 -66 ct 
p ef
1927 -66 m  1964 -71 l  1966 -56 1972 -45 1981 -38 ct 1991 -30 2004 -26 2021 -26 ct 
2038 -26 2050 -29 2059 -36 ct 2067 -43 2071 -51 2071 -61 ct 2071 -69 2067 -76 2060 -81 ct 
2055 -84 2042 -88 2022 -93 ct 1994 -100 1975 -106 1964 -111 ct 1954 -116 1946 -123 1940 -132 ct 
1935 -141 1932 -151 1932 -162 ct 1932 -171 1934 -180 1939 -189 ct 1943 -197 1949 -204 1957 -210 ct 
1963 -214 1971 -218 1981 -221 ct 1991 -224 2002 -225 2013 -225 ct 2031 -225 2046 -223 2059 -218 ct 
2072 -213 2082 -206 2088 -197 ct 2094 -189 2099 -177 2101 -163 ct 2065 -158 l 
2063 -169 2058 -178 2050 -184 ct 2042 -191 2031 -194 2016 -194 ct 1999 -194 1987 -191 1979 -186 ct 
1972 -180 1968 -173 1968 -166 ct 1968 -161 1970 -157 1973 -153 ct 1976 -149 1981 -146 1987 -143 ct 
1991 -142 2002 -139 2021 -134 ct 2047 -127 2066 -121 2076 -116 ct 2086 -112 2094 -105 2100 -97 ct 
2106 -88 2109 -77 2109 -65 ct 2109 -52 2105 -41 2098 -30 ct 2091 -19 2081 -10 2067 -4 ct 
2053 2 2038 5 2021 5 ct 1992 5 1971 -1 1956 -13 ct 1941 -25 1931 -43 1927 -66 ct 
p ef
2139 -110 m  2139 -151 2150 -181 2173 -201 ct 2191 -217 2214 -225 2241 -225 ct 
2271 -225 2296 -215 2315 -195 ct 2334 -175 2343 -148 2343 -113 ct 2343 -85 2339 -63 2330 -46 ct 
2322 -30 2310 -17 2294 -8 ct 2278 1 2260 5 2241 5 ct 2211 5 2186 -5 2167 -25 ct 
2148 -44 2139 -73 2139 -110 ct p
2177 -110 m  2177 -82 2183 -61 2195 -47 ct 2207 -33 2223 -26 2241 -26 ct 2259 -26 2275 -33 2287 -47 ct 
2299 -61 2305 -83 2305 -111 ct 2305 -138 2299 -159 2287 -173 ct 2274 -187 2259 -194 2241 -194 ct 
2223 -194 2207 -187 2195 -173 ct 2183 -159 2177 -138 2177 -110 ct p ef
pom
51 lw 0 lc 0.402 0.402 0.402 c 750 1349 m  18856 1349 l  ps
19250 1349 m  18838 1212 l  18838 1487 l  19250 1349 l  p ef
1.000 1.000 1.000 c 4431 2890 m  3339 2890 l  3339 1935 l  5523 1935 l 
5523 2890 l  4431 2890 l  p ef
pum
3523 2557 t
0.003 0.003 0.003 c 31 0 m  31 -303 l  91 -303 l  163 -89 l  170 -69 174 -54 178 -44 ct 
181 -55 187 -71 194 -92 ct 268 -303 l  321 -303 l  321 0 l  282 0 l  282 -254 l 
192 0 l  157 0 l  70 -257 l  70 0 l  31 0 l  p ef
530 -71 m  567 -66 l  561 -44 550 -26 533 -14 ct 517 -1 496 5 470 5 ct 438 5 413 -5 394 -25 ct 
375 -45 366 -72 366 -108 ct 366 -145 375 -174 394 -194 ct 413 -215 438 -225 468 -225 ct 
498 -225 522 -215 540 -195 ct 559 -175 568 -146 568 -110 ct 568 -108 568 -104 568 -100 ct 
404 -100 l  405 -76 412 -58 425 -45 ct 437 -32 453 -26 471 -26 ct 485 -26 497 -30 506 -37 ct 
516 -44 524 -55 530 -71 ct p
405 -131 m  530 -131 l  528 -149 524 -163 516 -173 ct 504 -187 488 -194 469 -194 ct 
451 -194 437 -188 425 -177 ct 413 -165 406 -150 405 -131 ct p ef
760 -81 m  797 -76 l  793 -51 783 -31 766 -17 ct 750 -2 729 5 705 5 ct 675 5 651 -5 633 -25 ct 
614 -44 605 -72 605 -109 ct 605 -133 609 -154 617 -172 ct 625 -189 637 -203 653 -212 ct 
669 -221 686 -225 705 -225 ct 729 -225 749 -219 764 -207 ct 779 -195 789 -177 793 -155 ct 
757 -150 l  754 -165 747 -176 739 -183 ct 730 -190 719 -194 707 -194 ct 688 -194 672 -187 661 -174 ct 
649 -160 643 -139 643 -110 ct 643 -81 649 -59 660 -46 ct 671 -33 686 -26 705 -26 ct 
719 -26 731 -30 741 -39 ct 751 -48 757 -62 760 -81 ct p ef
972 -27 m  959 -15 945 -7 933 -2 ct 920 3 906 5 891 5 ct 867 5 848 -1 835 -13 ct 
822 -25 815 -40 815 -58 ct 815 -69 817 -79 822 -88 ct 827 -97 834 -104 842 -109 ct 
850 -115 859 -119 869 -122 ct 876 -123 888 -125 903 -127 ct 933 -131 955 -135 970 -140 ct 
970 -145 970 -148 970 -150 ct 970 -165 966 -175 959 -181 ct 950 -190 935 -194 916 -194 ct 
898 -194 885 -191 877 -185 ct 868 -179 862 -168 858 -152 ct 821 -157 l  824 -173 830 -185 838 -195 ct 
845 -205 856 -212 871 -217 ct 885 -222 902 -225 921 -225 ct 940 -225 955 -223 967 -218 ct 
979 -214 988 -208 993 -202 ct 999 -195 1003 -186 1005 -176 ct 1006 -170 1007 -158 1007 -142 ct 
1007 -92 l  1007 -57 1008 -35 1009 -26 ct 1011 -17 1014 -8 1018 0 ct 980 0 l 
976 -8 973 -17 972 -27 ct p
970 -111 m  956 -105 936 -101 908 -97 ct 893 -95 882 -92 875 -89 ct 869 -86 864 -82 860 -77 ct 
857 -72 855 -66 855 -59 ct 855 -49 859 -41 866 -34 ct 874 -27 885 -24 900 -24 ct 
914 -24 927 -27 939 -33 ct 950 -40 958 -48 964 -59 ct 968 -68 970 -81 970 -97 ct 
970 -111 l  p
915 -282 m  895 -247 l  853 -247 l  895 -305 l  933 -305 l  980 -247 l 
938 -247 l  915 -282 l  p ef
1066 0 m  1066 -220 l  1099 -220 l  1099 -189 l  1115 -213 1138 -225 1168 -225 ct 
1182 -225 1194 -223 1205 -218 ct 1216 -213 1224 -207 1229 -199 ct 1235 -191 1239 -182 1241 -172 ct 
1242 -165 1243 -153 1243 -135 ct 1243 0 l  1205 0 l  1205 -134 l  1205 -149 1204 -161 1201 -168 ct 
1198 -176 1193 -182 1186 -186 ct 1178 -191 1170 -193 1160 -193 ct 1145 -193 1131 -188 1120 -178 ct 
1109 -168 1103 -149 1103 -120 ct 1103 0 l  1066 0 l  p ef
1303 -261 m  1303 -303 l  1340 -303 l  1340 -261 l  1303 -261 l  p
1303 0 m  1303 -220 l  1340 -220 l  1340 0 l  1303 0 l  p ef
1539 -81 m  1576 -76 l  1572 -51 1562 -31 1545 -17 ct 1529 -2 1508 5 1484 5 ct 
1454 5 1430 -5 1412 -25 ct 1393 -44 1384 -72 1384 -109 ct 1384 -133 1388 -154 1396 -172 ct 
1404 -189 1416 -203 1432 -212 ct 1448 -221 1465 -225 1484 -225 ct 1508 -225 1528 -219 1543 -207 ct 
1558 -195 1568 -177 1572 -155 ct 1536 -150 l  1533 -165 1526 -176 1518 -183 ct 
1509 -190 1498 -194 1486 -194 ct 1467 -194 1451 -187 1440 -174 ct 1428 -160 1422 -139 1422 -110 ct 
1422 -81 1428 -59 1439 -46 ct 1450 -33 1465 -26 1484 -26 ct 1498 -26 1510 -30 1520 -39 ct 
1530 -48 1536 -62 1539 -81 ct p ef
1751 -27 m  1738 -15 1724 -7 1712 -2 ct 1699 3 1685 5 1670 5 ct 1646 5 1627 -1 1614 -13 ct 
1601 -25 1594 -40 1594 -58 ct 1594 -69 1596 -79 1601 -88 ct 1606 -97 1613 -104 1621 -109 ct 
1629 -115 1638 -119 1648 -122 ct 1655 -123 1667 -125 1682 -127 ct 1712 -131 1734 -135 1749 -140 ct 
1749 -145 1749 -148 1749 -150 ct 1749 -165 1745 -175 1738 -181 ct 1729 -190 1714 -194 1695 -194 ct 
1677 -194 1664 -191 1656 -185 ct 1647 -179 1641 -168 1637 -152 ct 1600 -157 l 
1603 -173 1609 -185 1617 -195 ct 1624 -205 1635 -212 1650 -217 ct 1664 -222 1681 -225 1700 -225 ct 
1719 -225 1734 -223 1746 -218 ct 1758 -214 1767 -208 1772 -202 ct 1778 -195 1782 -186 1784 -176 ct 
1785 -170 1786 -158 1786 -142 ct 1786 -92 l  1786 -57 1787 -35 1788 -26 ct 1790 -17 1793 -8 1797 0 ct 
1759 0 l  1755 -8 1752 -17 1751 -27 ct p
1749 -111 m  1735 -105 1715 -101 1687 -97 ct 1672 -95 1661 -92 1654 -89 ct 1648 -86 1643 -82 1639 -77 ct 
1636 -72 1634 -66 1634 -59 ct 1634 -49 1638 -41 1645 -34 ct 1653 -27 1664 -24 1679 -24 ct 
1693 -24 1706 -27 1718 -33 ct 1729 -40 1737 -48 1743 -59 ct 1747 -68 1749 -81 1749 -97 ct 
1749 -111 l  p ef
pom
gr
gs
0 0 m 19999 0 l 19999 9999 l 0 9999 l 0 0 l eoclip newpath
gr
gr
0 10000 t 
pom
count op_count sub {pop} repeat countdictstack dict_count sub {end} repeat b4_inc_state restore
%%PageTrailer
%%Trailer
%%EOF
