%!PS-Adobe-3.0 EPSF-3.0 
%%BoundingBox: 0 0 510 255
%%Pages: 0
%%Creator: LibreOffice 4.3
%%Title: none
%%CreationDate: none
%%LanguageLevel: 2
%%EndComments
%%BeginProlog
%%BeginResource: procset SDRes-Prolog 1.0 0
/b4_inc_state save def
/dict_count countdictstack def
/op_count count 1 sub def
userdict begin
0 setgray 0 setlinecap 1 setlinewidth 0 setlinejoin 10 setmiterlimit[] 0 setdash newpath
/languagelevel where {pop languagelevel 1 ne {false setstrokeadjust false setoverprint} if} if
/bdef {bind def} bind def
/c {setrgbcolor} bdef
/l {neg lineto} bdef
/rl {neg rlineto} bdef
/lc {setlinecap} bdef
/lj {setlinejoin} bdef
/lw {setlinewidth} bdef
/ml {setmiterlimit} bdef
/ld {setdash} bdef
/m {neg moveto} bdef
/ct {6 2 roll neg 6 2 roll neg 6 2 roll neg curveto} bdef
/r {rotate} bdef
/t {neg translate} bdef
/s {scale} bdef
/sw {show} bdef
/gs {gsave} bdef
/gr {grestore} bdef
/f {findfont dup length dict begin
{1 index /FID ne {def} {pop pop} ifelse} forall /Encoding ISOLatin1Encoding def
currentdict end /NFont exch definefont pop /NFont findfont} bdef
/p {closepath} bdef
/sf {scalefont setfont} bdef
/ef {eofill}bdef
/pc {closepath stroke}bdef
/ps {stroke}bdef
/pum {matrix currentmatrix}bdef
/pom {setmatrix}bdef
/bs {/aString exch def /nXOfs exch def /nWidth exch def currentpoint nXOfs 0 rmoveto pum nWidth aString stringwidth pop div 1 scale aString show pom moveto} bdef
%%EndResource
%%EndProlog
%%BeginSetup
%%EndSetup
%%Page: 1 1
%%BeginPageSetup
%%EndPageSetup
pum
0.02833 0.02833 s 
0 -9000 t
/tm matrix currentmatrix def
gs
0 0 m 17999 0 l 17999 8999 l 0 8999 l 0 0 l eoclip newpath
gs
0 0 m 17999 0 l 17999 8999 l 0 8999 l 0 0 l eoclip newpath
1.000 1.000 1.000 c 0 0 m  17999 0 l  17999 8999 l  0 8999 l  0 0 l  p ef
0 lw 1 lj 0.800 0.800 0.800 c 3618 134 m  3618 8116 l  ps
0.699 0.699 0.699 c 17018 134 m  17018 8116 l  ps
15018 134 m  15018 8116 l  ps
13118 134 m  13118 8116 l  ps
11218 134 m  11218 8116 l  ps
9318 134 m  9318 8116 l  ps
7418 134 m  7418 8116 l  ps
5518 134 m  5518 8116 l  ps
pum
932 506 t
0.203 0.203 0.203 c 34 0 m  34 -303 l  252 -303 l  252 -267 l  74 -267 l 
74 -175 l  241 -175 l  241 -139 l  74 -139 l  74 -36 l  259 -36 l  259 0 l 
34 0 l  p ef
393 -33 m  398 0 l  388 2 378 3 370 3 ct 356 3 346 1 338 -3 ct 331 -8 326 -13 323 -20 ct 
320 -27 318 -42 318 -64 ct 318 -191 l  291 -191 l  291 -220 l  318 -220 l 
318 -274 l  355 -297 l  355 -220 l  393 -220 l  393 -191 l  355 -191 l 
355 -63 l  355 -53 356 -46 357 -43 ct 358 -40 360 -37 364 -36 ct 367 -34 371 -33 376 -33 ct 
381 -33 386 -33 393 -33 ct p ef
431 0 m  431 -303 l  468 -303 l  468 -195 l  485 -215 507 -225 533 -225 ct 
549 -225 563 -222 575 -215 ct 587 -209 595 -200 600 -189 ct 605 -177 608 -161 608 -139 ct 
608 0 l  571 0 l  571 -140 l  571 -158 567 -172 559 -180 ct 551 -189 540 -193 525 -193 ct 
514 -193 504 -190 495 -184 ct 485 -179 478 -171 474 -161 ct 470 -151 468 -138 468 -120 ct 
468 0 l  431 0 l  p ef
818 -71 m  855 -66 l  849 -44 838 -26 821 -14 ct 805 -1 784 5 758 5 ct 726 5 701 -5 682 -25 ct 
663 -45 654 -72 654 -108 ct 654 -145 663 -174 682 -194 ct 701 -215 726 -225 756 -225 ct 
786 -225 810 -215 828 -195 ct 847 -175 856 -146 856 -110 ct 856 -108 856 -104 856 -100 ct 
692 -100 l  693 -76 700 -58 713 -45 ct 725 -32 741 -26 759 -26 ct 773 -26 785 -30 794 -37 ct 
804 -44 812 -55 818 -71 ct p
693 -131 m  818 -131 l  816 -149 812 -163 804 -173 ct 792 -187 776 -194 757 -194 ct 
739 -194 725 -188 713 -177 ct 701 -165 694 -150 693 -131 ct p ef
903 0 m  903 -220 l  935 -220 l  935 -187 l  944 -203 952 -213 959 -218 ct 
966 -223 974 -225 983 -225 ct 996 -225 1009 -221 1022 -213 ct 1009 -179 l  1000 -184 991 -187 982 -187 ct 
974 -187 967 -185 960 -180 ct 954 -175 949 -168 946 -159 ct 942 -146 940 -131 940 -116 ct 
940 0 l  903 0 l  p ef
1048 0 m  1048 -303 l  1089 -303 l  1249 -65 l  1249 -303 l  1287 -303 l 
1287 0 l  1246 0 l  1086 -238 l  1086 0 l  1048 0 l  p ef
1355 0 m  1355 -303 l  1573 -303 l  1573 -267 l  1395 -267 l  1395 -175 l 
1562 -175 l  1562 -139 l  1395 -139 l  1395 -36 l  1580 -36 l  1580 0 l 
1355 0 l  p ef
1714 0 m  1714 -267 l  1614 -267 l  1614 -303 l  1854 -303 l  1854 -267 l 
1754 -267 l  1754 0 l  1714 0 l  p ef
1867 5 m  1955 -308 l  1985 -308 l  1897 5 l  1867 5 l  p ef
2024 0 m  2024 -303 l  2064 -303 l  2064 0 l  2024 0 l  p ef
2137 0 m  2137 -303 l  2251 -303 l  2271 -303 2287 -302 2297 -300 ct 2312 -298 2325 -293 2335 -286 ct 
2345 -279 2353 -269 2359 -257 ct 2365 -244 2368 -230 2368 -215 ct 2368 -189 2360 -168 2343 -150 ct 
2327 -132 2297 -123 2255 -123 ct 2177 -123 l  2177 0 l  2137 0 l  p
2177 -159 m  2255 -159 l  2281 -159 2300 -164 2311 -173 ct 2322 -183 2327 -197 2327 -214 ct 
2327 -227 2324 -238 2317 -247 ct 2311 -256 2303 -261 2292 -264 ct 2285 -266 2273 -267 2255 -267 ct 
2177 -267 l  2177 -159 l  p ef
pom
pum
3201 980 t
pom
pum
1525 1454 t
19 -98 m  57 -101 l  59 -86 63 -73 69 -64 ct 76 -54 86 -46 100 -40 ct 113 -34 129 -31 146 -31 ct 
161 -31 174 -33 186 -38 ct 197 -42 206 -49 212 -57 ct 217 -65 220 -73 220 -82 ct 
220 -92 217 -100 212 -107 ct 207 -114 198 -120 185 -125 ct 177 -128 159 -133 132 -140 ct 
104 -146 84 -153 73 -158 ct 59 -166 48 -175 41 -187 ct 34 -198 30 -210 30 -224 ct 
30 -240 34 -254 43 -267 ct 52 -281 64 -291 81 -298 ct 98 -305 116 -308 136 -308 ct 
159 -308 179 -304 196 -297 ct 213 -290 226 -279 235 -265 ct 244 -251 249 -236 250 -218 ct 
212 -215 l  210 -234 203 -248 191 -258 ct 179 -267 162 -272 138 -272 ct 114 -272 97 -268 86 -259 ct 
75 -250 69 -239 69 -227 ct 69 -216 73 -207 81 -200 ct 88 -193 109 -186 141 -178 ct 
174 -171 196 -165 208 -159 ct 225 -151 238 -141 247 -128 ct 255 -116 259 -102 259 -85 ct 
259 -69 254 -54 245 -40 ct 236 -26 223 -15 206 -7 ct 188 1 169 5 148 5 ct 120 5 97 1 79 -7 ct 
61 -15 46 -27 36 -43 ct 25 -59 20 -78 19 -98 ct p ef
463 -71 m  500 -66 l  494 -44 483 -26 466 -14 ct 450 -1 429 5 403 5 ct 371 5 346 -5 327 -25 ct 
308 -45 299 -72 299 -108 ct 299 -145 308 -174 327 -194 ct 346 -215 371 -225 401 -225 ct 
431 -225 455 -215 473 -195 ct 492 -175 501 -146 501 -110 ct 501 -108 501 -104 501 -100 ct 
337 -100 l  338 -76 345 -58 358 -45 ct 370 -32 386 -26 404 -26 ct 418 -26 430 -30 439 -37 ct 
449 -44 457 -55 463 -71 ct p
338 -131 m  463 -131 l  461 -149 457 -163 449 -173 ct 437 -187 421 -194 402 -194 ct 
384 -194 370 -188 358 -177 ct 346 -165 339 -150 338 -131 ct p ef
548 0 m  548 -220 l  580 -220 l  580 -187 l  589 -203 597 -213 604 -218 ct 
611 -223 619 -225 628 -225 ct 641 -225 654 -221 667 -213 ct 654 -179 l  645 -184 636 -187 627 -187 ct 
619 -187 612 -185 605 -180 ct 599 -175 594 -168 591 -159 ct 587 -146 585 -131 585 -116 ct 
585 0 l  548 0 l  p ef
832 -81 m  869 -76 l  865 -51 855 -31 838 -17 ct 822 -2 801 5 777 5 ct 747 5 723 -5 705 -25 ct 
686 -44 677 -72 677 -109 ct 677 -133 681 -154 689 -172 ct 697 -189 709 -203 725 -212 ct 
741 -221 758 -225 777 -225 ct 801 -225 821 -219 836 -207 ct 851 -195 861 -177 865 -155 ct 
829 -150 l  826 -165 819 -176 811 -183 ct 802 -190 791 -194 779 -194 ct 760 -194 744 -187 733 -174 ct 
721 -160 715 -139 715 -110 ct 715 -81 721 -59 732 -46 ct 743 -33 758 -26 777 -26 ct 
791 -26 803 -30 813 -39 ct 823 -48 829 -62 832 -81 ct p ef
886 -110 m  886 -151 897 -181 920 -201 ct 938 -217 961 -225 988 -225 ct 1018 -225 1043 -215 1062 -195 ct 
1081 -175 1090 -148 1090 -113 ct 1090 -85 1086 -63 1077 -46 ct 1069 -30 1057 -17 1041 -8 ct 
1025 1 1007 5 988 5 ct 958 5 933 -5 914 -25 ct 895 -44 886 -73 886 -110 ct p
924 -110 m  924 -82 930 -61 942 -47 ct 954 -33 970 -26 988 -26 ct 1006 -26 1022 -33 1034 -47 ct 
1046 -61 1052 -83 1052 -111 ct 1052 -138 1046 -159 1034 -173 ct 1021 -187 1006 -194 988 -194 ct 
970 -194 954 -187 942 -173 ct 930 -159 924 -138 924 -110 ct p ef
1123 -66 m  1160 -71 l  1162 -56 1168 -45 1177 -38 ct 1187 -30 1200 -26 1217 -26 ct 
1234 -26 1246 -29 1255 -36 ct 1263 -43 1267 -51 1267 -61 ct 1267 -69 1263 -76 1256 -81 ct 
1251 -84 1238 -88 1218 -93 ct 1190 -100 1171 -106 1160 -111 ct 1150 -116 1142 -123 1136 -132 ct 
1131 -141 1128 -151 1128 -162 ct 1128 -171 1130 -180 1135 -189 ct 1139 -197 1145 -204 1153 -210 ct 
1159 -214 1167 -218 1177 -221 ct 1187 -224 1198 -225 1209 -225 ct 1227 -225 1242 -223 1255 -218 ct 
1268 -213 1278 -206 1284 -197 ct 1290 -189 1295 -177 1297 -163 ct 1261 -158 l 
1259 -169 1254 -178 1246 -184 ct 1238 -191 1227 -194 1212 -194 ct 1195 -194 1183 -191 1175 -186 ct 
1168 -180 1164 -173 1164 -166 ct 1164 -161 1166 -157 1169 -153 ct 1172 -149 1177 -146 1183 -143 ct 
1187 -142 1198 -139 1217 -134 ct 1243 -127 1262 -121 1272 -116 ct 1282 -112 1290 -105 1296 -97 ct 
1302 -88 1305 -77 1305 -65 ct 1305 -52 1301 -41 1294 -30 ct 1287 -19 1277 -10 1263 -4 ct 
1249 2 1234 5 1217 5 ct 1188 5 1167 -1 1152 -13 ct 1137 -25 1127 -43 1123 -66 ct 
p ef
1478 0 m  1478 -303 l  1518 -303 l  1518 0 l  1478 0 l  p ef
1597 0 m  1597 -303 l  1637 -303 l  1637 0 l  1597 0 l  p ef
1715 0 m  1715 -303 l  1755 -303 l  1755 0 l  1715 0 l  p ef
pom
pum
1483 2402 t
34 0 m  34 -303 l  252 -303 l  252 -267 l  74 -267 l  74 -175 l  241 -175 l 
241 -139 l  74 -139 l  74 -36 l  259 -36 l  259 0 l  34 0 l  p ef
393 -33 m  398 0 l  388 2 378 3 370 3 ct 356 3 346 1 338 -3 ct 331 -8 326 -13 323 -20 ct 
320 -27 318 -42 318 -64 ct 318 -191 l  291 -191 l  291 -220 l  318 -220 l 
318 -274 l  355 -297 l  355 -220 l  393 -220 l  393 -191 l  355 -191 l 
355 -63 l  355 -53 356 -46 357 -43 ct 358 -40 360 -37 364 -36 ct 367 -34 371 -33 376 -33 ct 
381 -33 386 -33 393 -33 ct p ef
431 0 m  431 -303 l  468 -303 l  468 -195 l  485 -215 507 -225 533 -225 ct 
549 -225 563 -222 575 -215 ct 587 -209 595 -200 600 -189 ct 605 -177 608 -161 608 -139 ct 
608 0 l  571 0 l  571 -140 l  571 -158 567 -172 559 -180 ct 551 -189 540 -193 525 -193 ct 
514 -193 504 -190 495 -184 ct 485 -179 478 -171 474 -161 ct 470 -151 468 -138 468 -120 ct 
468 0 l  431 0 l  p ef
818 -71 m  855 -66 l  849 -44 838 -26 821 -14 ct 805 -1 784 5 758 5 ct 726 5 701 -5 682 -25 ct 
663 -45 654 -72 654 -108 ct 654 -145 663 -174 682 -194 ct 701 -215 726 -225 756 -225 ct 
786 -225 810 -215 828 -195 ct 847 -175 856 -146 856 -110 ct 856 -108 856 -104 856 -100 ct 
692 -100 l  693 -76 700 -58 713 -45 ct 725 -32 741 -26 759 -26 ct 773 -26 785 -30 794 -37 ct 
804 -44 812 -55 818 -71 ct p
693 -131 m  818 -131 l  816 -149 812 -163 804 -173 ct 792 -187 776 -194 757 -194 ct 
739 -194 725 -188 713 -177 ct 701 -165 694 -150 693 -131 ct p ef
903 0 m  903 -220 l  935 -220 l  935 -187 l  944 -203 952 -213 959 -218 ct 
966 -223 974 -225 983 -225 ct 996 -225 1009 -221 1022 -213 ct 1009 -179 l  1000 -184 991 -187 982 -187 ct 
974 -187 967 -185 960 -180 ct 954 -175 949 -168 946 -159 ct 942 -146 940 -131 940 -116 ct 
940 0 l  903 0 l  p ef
1263 -106 m  1304 -96 l  1296 -63 1281 -38 1259 -21 ct 1237 -4 1210 5 1179 5 ct 
1146 5 1120 -2 1100 -15 ct 1079 -28 1064 -47 1053 -73 ct 1042 -98 1037 -125 1037 -154 ct 
1037 -185 1043 -213 1055 -236 ct 1067 -260 1084 -278 1106 -290 ct 1129 -302 1153 -308 1180 -308 ct 
1210 -308 1235 -300 1256 -285 ct 1277 -270 1291 -248 1299 -220 ct 1260 -211 l 
1253 -233 1243 -249 1229 -259 ct 1216 -269 1199 -274 1179 -274 ct 1156 -274 1136 -268 1121 -257 ct 
1105 -246 1094 -231 1088 -212 ct 1081 -193 1078 -174 1078 -154 ct 1078 -128 1082 -106 1089 -86 ct 
1097 -67 1108 -53 1124 -43 ct 1140 -34 1157 -29 1175 -29 ct 1197 -29 1216 -35 1232 -48 ct 
1247 -61 1258 -81 1263 -106 ct p ef
1321 0 m  1437 -303 l  1481 -303 l  1603 0 l  1557 0 l  1522 -92 l  1396 -92 l 
1363 0 l  1321 0 l  p
1408 -125 m  1510 -125 l  1479 -208 l  1469 -234 1462 -255 1458 -271 ct 1454 -252 1448 -232 1441 -213 ct 
1408 -125 l  p ef
1685 0 m  1685 -267 l  1585 -267 l  1585 -303 l  1825 -303 l  1825 -267 l 
1725 -267 l  1725 0 l  1685 0 l  p ef
pom
pum
755 3350 t
33 0 m  33 -303 l  147 -303 l  167 -303 183 -302 193 -300 ct 208 -298 221 -293 231 -286 ct 
241 -279 249 -269 255 -257 ct 261 -244 264 -230 264 -215 ct 264 -189 256 -168 239 -150 ct 
223 -132 193 -123 151 -123 ct 73 -123 l  73 0 l  33 0 l  p
73 -159 m  151 -159 l  177 -159 196 -164 207 -173 ct 218 -183 223 -197 223 -214 ct 
223 -227 220 -238 213 -247 ct 207 -256 199 -261 188 -264 ct 181 -266 169 -267 151 -267 ct 
73 -267 l  73 -159 l  p ef
304 -147 m  304 -198 317 -237 344 -265 ct 371 -294 406 -308 449 -308 ct 477 -308 502 -301 524 -288 ct 
547 -275 564 -256 575 -232 ct 587 -208 593 -181 593 -151 ct 593 -120 587 -93 574 -69 ct 
562 -44 545 -26 522 -14 ct 499 -1 475 5 449 5 ct 420 5 395 -2 372 -16 ct 350 -29 333 -48 321 -72 ct 
310 -96 304 -121 304 -147 ct p
345 -146 m  345 -110 355 -81 374 -60 ct 394 -39 419 -29 448 -29 ct 478 -29 503 -40 523 -61 ct 
542 -82 552 -112 552 -150 ct 552 -175 548 -196 540 -214 ct 531 -233 519 -247 503 -257 ct 
487 -267 469 -272 449 -272 ct 421 -272 396 -262 376 -243 ct 355 -224 345 -191 345 -146 ct 
p ef
698 0 m  619 -303 l  660 -303 l  706 -104 l  710 -83 715 -63 719 -42 ct 727 -75 731 -93 733 -98 ct 
789 -303 l  838 -303 l  880 -149 l  891 -111 899 -76 905 -42 ct 908 -62 914 -84 920 -108 ct 
966 -303 l  1007 -303 l  927 0 l  885 0 l  822 -231 l  817 -250 814 -262 813 -266 ct 
809 -253 806 -241 803 -231 ct 740 0 l  698 0 l  p ef
1067 0 m  1067 -303 l  1285 -303 l  1285 -267 l  1107 -267 l  1107 -175 l 
1274 -175 l  1274 -139 l  1107 -139 l  1107 -36 l  1292 -36 l  1292 0 l 
1067 0 l  p ef
1351 0 m  1351 -303 l  1485 -303 l  1512 -303 1532 -300 1546 -295 ct 1560 -289 1571 -280 1579 -266 ct 
1588 -252 1592 -237 1592 -220 ct 1592 -199 1585 -181 1571 -166 ct 1557 -151 1536 -142 1507 -138 ct 
1518 -133 1526 -128 1531 -123 ct 1543 -112 1554 -99 1564 -83 ct 1616 0 l  1567 0 l 
1527 -63 l  1515 -81 1505 -95 1498 -105 ct 1490 -115 1484 -121 1478 -125 ct 
1472 -129 1466 -132 1459 -134 ct 1455 -135 1448 -135 1437 -135 ct 1391 -135 l 
1391 0 l  1351 0 l  p
1391 -171 m  1477 -171 l  1495 -171 1509 -173 1519 -177 ct 1530 -180 1538 -186 1543 -195 ct 
1548 -203 1551 -212 1551 -221 ct 1551 -236 1546 -247 1535 -256 ct 1525 -265 1509 -270 1486 -270 ct 
1391 -270 l  1391 -171 l  p ef
1652 0 m  1652 -303 l  1692 -303 l  1692 -36 l  1841 -36 l  1841 0 l  1652 0 l 
p ef
1897 0 m  1897 -303 l  1937 -303 l  1937 0 l  1897 0 l  p ef
2009 0 m  2009 -303 l  2050 -303 l  2210 -65 l  2210 -303 l  2248 -303 l 
2248 0 l  2207 0 l  2047 -238 l  2047 0 l  2009 0 l  p ef
2313 0 m  2313 -303 l  2353 -303 l  2353 -153 l  2503 -303 l  2557 -303 l 
2431 -180 l  2563 0 l  2510 0 l  2403 -153 l  2353 -105 l  2353 0 l  2313 0 l 
p ef
pom
pum
327 4298 t
31 0 m  31 -303 l  91 -303 l  163 -89 l  170 -69 174 -54 178 -44 ct 181 -55 187 -71 194 -92 ct 
268 -303 l  321 -303 l  321 0 l  282 0 l  282 -254 l  192 0 l  157 0 l 
70 -257 l  70 0 l  31 0 l  p ef
365 -110 m  365 -151 376 -181 399 -201 ct 417 -217 440 -225 467 -225 ct 497 -225 522 -215 541 -195 ct 
560 -175 569 -148 569 -113 ct 569 -85 565 -63 556 -46 ct 548 -30 536 -17 520 -8 ct 
504 1 486 5 467 5 ct 437 5 412 -5 393 -25 ct 374 -44 365 -73 365 -110 ct p
403 -110 m  403 -82 409 -61 421 -47 ct 433 -33 449 -26 467 -26 ct 485 -26 501 -33 513 -47 ct 
525 -61 531 -83 531 -111 ct 531 -138 525 -159 513 -173 ct 500 -187 485 -194 467 -194 ct 
449 -194 433 -187 421 -173 ct 409 -159 403 -138 403 -110 ct p ef
758 0 m  758 -28 l  744 -6 724 5 697 5 ct 679 5 663 0 648 -10 ct 634 -19 622 -33 614 -50 ct 
606 -67 602 -87 602 -110 ct 602 -132 606 -152 613 -170 ct 620 -187 631 -201 646 -211 ct 
661 -220 677 -225 695 -225 ct 708 -225 720 -222 731 -217 ct 741 -211 750 -204 756 -195 ct 
756 -303 l  793 -303 l  793 0 l  758 0 l  p
640 -110 m  640 -82 646 -61 658 -47 ct 670 -33 684 -26 700 -26 ct 716 -26 730 -33 742 -46 ct 
753 -59 759 -80 759 -107 ct 759 -137 753 -159 742 -173 ct 730 -187 716 -194 698 -194 ct 
682 -194 668 -187 657 -174 ct 646 -160 640 -139 640 -110 ct p ef
887 0 m  853 0 l  853 -303 l  890 -303 l  890 -195 l  906 -215 926 -225 950 -225 ct 
964 -225 977 -222 989 -217 ct 1001 -211 1011 -204 1019 -194 ct 1027 -184 1033 -172 1037 -158 ct 
1042 -144 1044 -129 1044 -113 ct 1044 -76 1035 -46 1016 -26 ct 997 -5 975 5 948 5 ct 
922 5 902 -6 887 -28 ct 887 0 l  p
886 -112 m  886 -85 890 -66 897 -55 ct 909 -36 925 -26 945 -26 ct 962 -26 976 -33 988 -47 ct 
1000 -61 1006 -82 1006 -110 ct 1006 -139 1000 -160 989 -174 ct 977 -187 963 -194 947 -194 ct 
930 -194 916 -187 904 -173 ct 892 -159 886 -138 886 -112 ct p ef
1236 0 m  1236 -32 l  1219 -7 1195 5 1166 5 ct 1153 5 1140 3 1129 -2 ct 1118 -7 1109 -14 1104 -21 ct 
1098 -29 1095 -38 1092 -49 ct 1091 -56 1090 -68 1090 -84 ct 1090 -220 l  1127 -220 l 
1127 -98 l  1127 -78 1128 -65 1129 -59 ct 1132 -49 1137 -41 1144 -35 ct 1152 -30 1162 -27 1173 -27 ct 
1184 -27 1195 -30 1205 -36 ct 1215 -41 1222 -49 1226 -59 ct 1230 -69 1232 -83 1232 -102 ct 
1232 -220 l  1269 -220 l  1269 0 l  1236 0 l  p ef
1314 -66 m  1351 -71 l  1353 -56 1359 -45 1368 -38 ct 1378 -30 1391 -26 1408 -26 ct 
1425 -26 1437 -29 1446 -36 ct 1454 -43 1458 -51 1458 -61 ct 1458 -69 1454 -76 1447 -81 ct 
1442 -84 1429 -88 1409 -93 ct 1381 -100 1362 -106 1351 -111 ct 1341 -116 1333 -123 1327 -132 ct 
1322 -141 1319 -151 1319 -162 ct 1319 -171 1321 -180 1326 -189 ct 1330 -197 1336 -204 1344 -210 ct 
1350 -214 1358 -218 1368 -221 ct 1378 -224 1389 -225 1400 -225 ct 1418 -225 1433 -223 1446 -218 ct 
1459 -213 1469 -206 1475 -197 ct 1481 -189 1486 -177 1488 -163 ct 1452 -158 l 
1450 -169 1445 -178 1437 -184 ct 1429 -191 1418 -194 1403 -194 ct 1386 -194 1374 -191 1366 -186 ct 
1359 -180 1355 -173 1355 -166 ct 1355 -161 1357 -157 1360 -153 ct 1363 -149 1368 -146 1374 -143 ct 
1378 -142 1389 -139 1408 -134 ct 1434 -127 1453 -121 1463 -116 ct 1473 -112 1481 -105 1487 -97 ct 
1493 -88 1496 -77 1496 -65 ct 1496 -52 1492 -41 1485 -30 ct 1478 -19 1468 -10 1454 -4 ct 
1440 2 1425 5 1408 5 ct 1379 5 1358 -1 1343 -13 ct 1328 -25 1318 -43 1314 -66 ct 
p ef
1731 0 m  1731 -267 l  1631 -267 l  1631 -303 l  1871 -303 l  1871 -267 l 
1771 -267 l  1771 0 l  1731 0 l  p ef
2131 -106 m  2172 -96 l  2164 -63 2149 -38 2127 -21 ct 2105 -4 2078 5 2047 5 ct 
2014 5 1988 -2 1968 -15 ct 1947 -28 1932 -47 1921 -73 ct 1910 -98 1905 -125 1905 -154 ct 
1905 -185 1911 -213 1923 -236 ct 1935 -260 1952 -278 1974 -290 ct 1997 -302 2021 -308 2048 -308 ct 
2078 -308 2103 -300 2124 -285 ct 2145 -270 2159 -248 2167 -220 ct 2128 -211 l 
2121 -233 2111 -249 2097 -259 ct 2084 -269 2067 -274 2047 -274 ct 2024 -274 2004 -268 1989 -257 ct 
1973 -246 1962 -231 1956 -212 ct 1949 -193 1946 -174 1946 -154 ct 1946 -128 1950 -106 1957 -86 ct 
1965 -67 1976 -53 1992 -43 ct 2008 -34 2025 -29 2043 -29 ct 2065 -29 2084 -35 2100 -48 ct 
2115 -61 2126 -81 2131 -106 ct p ef
2222 0 m  2222 -303 l  2336 -303 l  2356 -303 2372 -302 2382 -300 ct 2397 -298 2410 -293 2420 -286 ct 
2430 -279 2438 -269 2444 -257 ct 2450 -244 2453 -230 2453 -215 ct 2453 -189 2445 -168 2428 -150 ct 
2412 -132 2382 -123 2340 -123 ct 2262 -123 l  2262 0 l  2222 0 l  p
2262 -159 m  2340 -159 l  2366 -159 2385 -164 2396 -173 ct 2407 -183 2412 -197 2412 -214 ct 
2412 -227 2409 -238 2402 -247 ct 2396 -256 2388 -261 2377 -264 ct 2370 -266 2358 -267 2340 -267 ct 
2262 -267 l  2262 -159 l  p ef
2472 5 m  2560 -308 l  2590 -308 l  2502 5 l  2472 5 l  p ef
2630 0 m  2630 -303 l  2670 -303 l  2670 0 l  2630 0 l  p ef
2742 0 m  2742 -303 l  2856 -303 l  2876 -303 2892 -302 2902 -300 ct 2917 -298 2930 -293 2940 -286 ct 
2950 -279 2958 -269 2964 -257 ct 2970 -244 2973 -230 2973 -215 ct 2973 -189 2965 -168 2948 -150 ct 
2932 -132 2902 -123 2860 -123 ct 2782 -123 l  2782 0 l  2742 0 l  p
2782 -159 m  2860 -159 l  2886 -159 2905 -164 2916 -173 ct 2927 -183 2932 -197 2932 -214 ct 
2932 -227 2929 -238 2922 -247 ct 2916 -256 2908 -261 2897 -264 ct 2890 -266 2878 -267 2860 -267 ct 
2782 -267 l  2782 -159 l  p ef
pom
pum
1174 5246 t
33 0 m  33 -303 l  147 -303 l  167 -303 183 -302 193 -300 ct 208 -298 221 -293 231 -286 ct 
241 -279 249 -269 255 -257 ct 261 -244 264 -230 264 -215 ct 264 -189 256 -168 239 -150 ct 
223 -132 193 -123 151 -123 ct 73 -123 l  73 0 l  33 0 l  p
73 -159 m  151 -159 l  177 -159 196 -164 207 -173 ct 218 -183 223 -197 223 -214 ct 
223 -227 220 -238 213 -247 ct 207 -256 199 -261 188 -264 ct 181 -266 169 -267 151 -267 ct 
73 -267 l  73 -159 l  p ef
318 0 m  318 -303 l  452 -303 l  479 -303 499 -300 513 -295 ct 527 -289 538 -280 546 -266 ct 
555 -252 559 -237 559 -220 ct 559 -199 552 -181 538 -166 ct 524 -151 503 -142 474 -138 ct 
485 -133 493 -128 498 -123 ct 510 -112 521 -99 531 -83 ct 583 0 l  534 0 l  494 -63 l 
482 -81 472 -95 465 -105 ct 457 -115 451 -121 445 -125 ct 439 -129 433 -132 426 -134 ct 
422 -135 415 -135 404 -135 ct 358 -135 l  358 0 l  318 0 l  p
358 -171 m  444 -171 l  462 -171 476 -173 486 -177 ct 497 -180 505 -186 510 -195 ct 
515 -203 518 -212 518 -221 ct 518 -236 513 -247 502 -256 ct 492 -265 476 -270 453 -270 ct 
358 -270 l  358 -171 l  p ef
608 -147 m  608 -198 621 -237 648 -265 ct 675 -294 710 -308 753 -308 ct 781 -308 806 -301 828 -288 ct 
851 -275 868 -256 879 -232 ct 891 -208 897 -181 897 -151 ct 897 -120 891 -93 878 -69 ct 
866 -44 849 -26 826 -14 ct 803 -1 779 5 753 5 ct 724 5 699 -2 676 -16 ct 654 -29 637 -48 625 -72 ct 
614 -96 608 -121 608 -147 ct p
649 -146 m  649 -110 659 -81 678 -60 ct 698 -39 723 -29 752 -29 ct 782 -29 807 -40 827 -61 ct 
846 -82 856 -112 856 -150 ct 856 -175 852 -196 844 -214 ct 835 -233 823 -247 807 -257 ct 
791 -267 773 -272 753 -272 ct 725 -272 700 -262 680 -243 ct 659 -224 649 -191 649 -146 ct 
p ef
953 0 m  953 -303 l  1157 -303 l  1157 -267 l  993 -267 l  993 -174 l 
1135 -174 l  1135 -138 l  993 -138 l  993 0 l  953 0 l  p ef
1216 0 m  1216 -303 l  1256 -303 l  1256 0 l  1216 0 l  p ef
1327 0 m  1327 -303 l  1368 -303 l  1528 -65 l  1528 -303 l  1566 -303 l 
1566 0 l  1525 0 l  1365 -238 l  1365 0 l  1327 0 l  p ef
1634 0 m  1634 -303 l  1852 -303 l  1852 -267 l  1674 -267 l  1674 -175 l 
1841 -175 l  1841 -139 l  1674 -139 l  1674 -36 l  1859 -36 l  1859 0 l 
1634 0 l  p ef
1994 0 m  1994 -267 l  1894 -267 l  1894 -303 l  2134 -303 l  2134 -267 l 
2034 -267 l  2034 0 l  1994 0 l  p ef
pom
pum
251 6194 t
174 -118 m  174 -154 l  303 -154 l  303 -42 l  283 -26 263 -15 242 -7 ct 
221 1 200 5 178 5 ct 148 5 121 -1 97 -14 ct 72 -27 54 -45 42 -69 ct 29 -93 23 -120 23 -150 ct 
23 -180 29 -207 41 -233 ct 54 -258 72 -277 95 -289 ct 118 -302 144 -308 175 -308 ct 
196 -308 216 -304 234 -297 ct 252 -290 265 -280 275 -268 ct 286 -255 293 -238 298 -218 ct 
262 -208 l  257 -224 251 -236 245 -245 ct 238 -254 228 -261 216 -266 ct 203 -271 189 -274 174 -274 ct 
156 -274 140 -271 127 -266 ct 114 -260 103 -253 95 -244 ct 86 -235 80 -225 76 -214 ct 
68 -195 64 -175 64 -153 ct 64 -126 69 -103 78 -85 ct 87 -67 101 -53 118 -44 ct 
136 -35 155 -31 175 -31 ct 192 -31 209 -34 226 -41 ct 242 -48 254 -55 263 -62 ct 
263 -118 l  174 -118 l  p ef
359 -261 m  359 -303 l  396 -303 l  396 -261 l  359 -261 l  p
359 0 m  359 -220 l  396 -220 l  396 0 l  359 0 l  p ef
444 17 m  481 22 l  483 34 487 42 494 47 ct 503 54 516 58 531 58 ct 549 58 562 55 571 48 ct 
581 41 587 32 590 20 ct 592 12 593 -3 593 -27 ct 577 -9 556 0 532 0 ct 502 0 478 -11 462 -33 ct 
445 -55 437 -81 437 -111 ct 437 -132 441 -152 448 -169 ct 456 -187 467 -201 482 -211 ct 
496 -220 513 -225 533 -225 ct 559 -225 580 -214 597 -193 ct 597 -220 l  630 -220 l 
630 -30 l  630 4 627 28 620 43 ct 613 57 602 68 587 77 ct 571 85 553 89 531 89 ct 
505 89 484 83 467 71 ct 451 59 444 41 444 17 ct p
475 -114 m  475 -85 481 -64 492 -51 ct 504 -38 518 -31 535 -31 ct 553 -31 567 -38 579 -51 ct 
590 -64 596 -85 596 -113 ct 596 -140 590 -160 578 -174 ct 566 -187 552 -194 535 -194 ct 
518 -194 504 -187 493 -174 ct 481 -160 475 -140 475 -114 ct p ef
828 -27 m  815 -15 801 -7 789 -2 ct 776 3 762 5 747 5 ct 723 5 704 -1 691 -13 ct 
678 -25 671 -40 671 -58 ct 671 -69 673 -79 678 -88 ct 683 -97 690 -104 698 -109 ct 
706 -115 715 -119 725 -122 ct 732 -123 744 -125 759 -127 ct 789 -131 811 -135 826 -140 ct 
826 -145 826 -148 826 -150 ct 826 -165 822 -175 815 -181 ct 806 -190 791 -194 772 -194 ct 
754 -194 741 -191 733 -185 ct 724 -179 718 -168 714 -152 ct 677 -157 l  680 -173 686 -185 694 -195 ct 
701 -205 712 -212 727 -217 ct 741 -222 758 -225 777 -225 ct 796 -225 811 -223 823 -218 ct 
835 -214 844 -208 849 -202 ct 855 -195 859 -186 861 -176 ct 862 -170 863 -158 863 -142 ct 
863 -92 l  863 -57 864 -35 865 -26 ct 867 -17 870 -8 874 0 ct 836 0 l  832 -8 829 -17 828 -27 ct 
p
826 -111 m  812 -105 792 -101 764 -97 ct 749 -95 738 -92 731 -89 ct 725 -86 720 -82 716 -77 ct 
713 -72 711 -66 711 -59 ct 711 -49 715 -41 722 -34 ct 730 -27 741 -24 756 -24 ct 
770 -24 783 -27 795 -33 ct 806 -40 814 -48 820 -59 ct 824 -68 826 -81 826 -97 ct 
826 -111 l  p ef
954 0 m  920 0 l  920 -303 l  957 -303 l  957 -195 l  973 -215 993 -225 1017 -225 ct 
1031 -225 1044 -222 1056 -217 ct 1068 -211 1078 -204 1086 -194 ct 1094 -184 1100 -172 1104 -158 ct 
1109 -144 1111 -129 1111 -113 ct 1111 -76 1102 -46 1083 -26 ct 1064 -5 1042 5 1015 5 ct 
989 5 969 -6 954 -28 ct 954 0 l  p
953 -112 m  953 -85 957 -66 964 -55 ct 976 -36 992 -26 1012 -26 ct 1029 -26 1043 -33 1055 -47 ct 
1067 -61 1073 -82 1073 -110 ct 1073 -139 1067 -160 1056 -174 ct 1044 -187 1030 -194 1014 -194 ct 
997 -194 983 -187 971 -173 ct 959 -159 953 -138 953 -112 ct p ef
1159 -261 m  1159 -303 l  1196 -303 l  1196 -261 l  1159 -261 l  p
1159 0 m  1159 -220 l  1196 -220 l  1196 0 l  1159 0 l  p ef
1332 -33 m  1337 0 l  1327 2 1317 3 1309 3 ct 1295 3 1285 1 1277 -3 ct 1270 -8 1265 -13 1262 -20 ct 
1259 -27 1257 -42 1257 -64 ct 1257 -191 l  1230 -191 l  1230 -220 l  1257 -220 l 
1257 -274 l  1294 -297 l  1294 -220 l  1332 -220 l  1332 -191 l  1294 -191 l 
1294 -63 l  1294 -53 1295 -46 1296 -43 ct 1297 -40 1299 -37 1303 -36 ct 1306 -34 1310 -33 1315 -33 ct 
1320 -33 1325 -33 1332 -33 ct p ef
1495 0 m  1495 -303 l  1713 -303 l  1713 -267 l  1535 -267 l  1535 -175 l 
1702 -175 l  1702 -139 l  1535 -139 l  1535 -36 l  1720 -36 l  1720 0 l 
1495 0 l  p ef
1853 -33 m  1858 0 l  1848 2 1838 3 1830 3 ct 1816 3 1806 1 1798 -3 ct 1791 -8 1786 -13 1783 -20 ct 
1780 -27 1778 -42 1778 -64 ct 1778 -191 l  1751 -191 l  1751 -220 l  1778 -220 l 
1778 -274 l  1815 -297 l  1815 -220 l  1853 -220 l  1853 -191 l  1815 -191 l 
1815 -63 l  1815 -53 1816 -46 1817 -43 ct 1818 -40 1820 -37 1824 -36 ct 1827 -34 1831 -33 1836 -33 ct 
1841 -33 1846 -33 1853 -33 ct p ef
1892 0 m  1892 -303 l  1929 -303 l  1929 -195 l  1946 -215 1968 -225 1994 -225 ct 
2010 -225 2024 -222 2036 -215 ct 2048 -209 2056 -200 2061 -189 ct 2066 -177 2069 -161 2069 -139 ct 
2069 0 l  2032 0 l  2032 -140 l  2032 -158 2028 -172 2020 -180 ct 2012 -189 2001 -193 1986 -193 ct 
1975 -193 1965 -190 1956 -184 ct 1946 -179 1939 -171 1935 -161 ct 1931 -151 1929 -138 1929 -120 ct 
1929 0 l  1892 0 l  p ef
2279 -71 m  2316 -66 l  2310 -44 2299 -26 2282 -14 ct 2266 -1 2245 5 2219 5 ct 
2187 5 2162 -5 2143 -25 ct 2124 -45 2115 -72 2115 -108 ct 2115 -145 2124 -174 2143 -194 ct 
2162 -215 2187 -225 2217 -225 ct 2247 -225 2271 -215 2289 -195 ct 2308 -175 2317 -146 2317 -110 ct 
2317 -108 2317 -104 2317 -100 ct 2153 -100 l  2154 -76 2161 -58 2174 -45 ct 
2186 -32 2202 -26 2220 -26 ct 2234 -26 2246 -30 2255 -37 ct 2265 -44 2273 -55 2279 -71 ct 
p
2154 -131 m  2279 -131 l  2277 -149 2273 -163 2265 -173 ct 2253 -187 2237 -194 2218 -194 ct 
2200 -194 2186 -188 2174 -177 ct 2162 -165 2155 -150 2154 -131 ct p ef
2364 0 m  2364 -220 l  2396 -220 l  2396 -187 l  2405 -203 2413 -213 2420 -218 ct 
2427 -223 2435 -225 2444 -225 ct 2457 -225 2470 -221 2483 -213 ct 2470 -179 l 
2461 -184 2452 -187 2443 -187 ct 2435 -187 2428 -185 2421 -180 ct 2415 -175 2410 -168 2407 -159 ct 
2403 -146 2401 -131 2401 -116 ct 2401 0 l  2364 0 l  p ef
2506 0 m  2506 -220 l  2539 -220 l  2539 -189 l  2555 -213 2578 -225 2608 -225 ct 
2622 -225 2634 -223 2645 -218 ct 2656 -213 2664 -207 2669 -199 ct 2675 -191 2679 -182 2681 -172 ct 
2682 -165 2683 -153 2683 -135 ct 2683 0 l  2645 0 l  2645 -134 l  2645 -149 2644 -161 2641 -168 ct 
2638 -176 2633 -182 2626 -186 ct 2618 -191 2610 -193 2600 -193 ct 2585 -193 2571 -188 2560 -178 ct 
2549 -168 2543 -149 2543 -120 ct 2543 0 l  2506 0 l  p ef
2893 -71 m  2930 -66 l  2924 -44 2913 -26 2896 -14 ct 2880 -1 2859 5 2833 5 ct 
2801 5 2776 -5 2757 -25 ct 2738 -45 2729 -72 2729 -108 ct 2729 -145 2738 -174 2757 -194 ct 
2776 -215 2801 -225 2831 -225 ct 2861 -225 2885 -215 2903 -195 ct 2922 -175 2931 -146 2931 -110 ct 
2931 -108 2931 -104 2931 -100 ct 2767 -100 l  2768 -76 2775 -58 2788 -45 ct 
2800 -32 2816 -26 2834 -26 ct 2848 -26 2860 -30 2869 -37 ct 2879 -44 2887 -55 2893 -71 ct 
p
2768 -131 m  2893 -131 l  2891 -149 2887 -163 2879 -173 ct 2867 -187 2851 -194 2832 -194 ct 
2814 -194 2800 -188 2788 -177 ct 2776 -165 2769 -150 2768 -131 ct p ef
3060 -33 m  3065 0 l  3055 2 3045 3 3037 3 ct 3023 3 3013 1 3005 -3 ct 2998 -8 2993 -13 2990 -20 ct 
2987 -27 2985 -42 2985 -64 ct 2985 -191 l  2958 -191 l  2958 -220 l  2985 -220 l 
2985 -274 l  3022 -297 l  3022 -220 l  3060 -220 l  3060 -191 l  3022 -191 l 
3022 -63 l  3022 -53 3023 -46 3024 -43 ct 3025 -40 3027 -37 3031 -36 ct 3034 -34 3038 -33 3043 -33 ct 
3048 -33 3053 -33 3060 -33 ct p ef
pom
pum
2448 7142 t
34 0 m  34 -303 l  74 -303 l  74 -179 l  231 -179 l  231 -303 l  271 -303 l 
271 0 l  231 0 l  231 -143 l  74 -143 l  74 0 l  34 0 l  p ef
324 -98 m  362 -101 l  364 -86 368 -73 374 -64 ct 381 -54 391 -46 405 -40 ct 
418 -34 434 -31 451 -31 ct 466 -31 479 -33 491 -38 ct 502 -42 511 -49 517 -57 ct 
522 -65 525 -73 525 -82 ct 525 -92 522 -100 517 -107 ct 512 -114 503 -120 490 -125 ct 
482 -128 464 -133 437 -140 ct 409 -146 389 -153 378 -158 ct 364 -166 353 -175 346 -187 ct 
339 -198 335 -210 335 -224 ct 335 -240 339 -254 348 -267 ct 357 -281 369 -291 386 -298 ct 
403 -305 421 -308 441 -308 ct 464 -308 484 -304 501 -297 ct 518 -290 531 -279 540 -265 ct 
549 -251 554 -236 555 -218 ct 517 -215 l  515 -234 508 -248 496 -258 ct 484 -267 467 -272 443 -272 ct 
419 -272 402 -268 391 -259 ct 380 -250 374 -239 374 -227 ct 374 -216 378 -207 386 -200 ct 
393 -193 414 -186 446 -178 ct 479 -171 501 -165 513 -159 ct 530 -151 543 -141 552 -128 ct 
560 -116 564 -102 564 -85 ct 564 -69 559 -54 550 -40 ct 541 -26 528 -15 511 -7 ct 
493 1 474 5 453 5 ct 425 5 402 1 384 -7 ct 366 -15 351 -27 341 -43 ct 330 -59 325 -78 324 -98 ct 
p ef
622 0 m  622 -303 l  840 -303 l  840 -267 l  662 -267 l  662 -175 l  829 -175 l 
829 -139 l  662 -139 l  662 -36 l  847 -36 l  847 0 l  622 0 l  p ef
pom
pum
2046 8090 t
20 -147 m  20 -198 33 -237 60 -265 ct 87 -294 122 -308 165 -308 ct 193 -308 218 -301 240 -288 ct 
263 -275 280 -256 291 -232 ct 303 -208 309 -181 309 -151 ct 309 -120 303 -93 290 -69 ct 
278 -44 261 -26 238 -14 ct 215 -1 191 5 165 5 ct 136 5 111 -2 88 -16 ct 66 -29 49 -48 37 -72 ct 
26 -96 20 -121 20 -147 ct p
61 -146 m  61 -110 71 -81 90 -60 ct 110 -39 135 -29 164 -29 ct 194 -29 219 -40 239 -61 ct 
258 -82 268 -112 268 -150 ct 268 -175 264 -196 256 -214 ct 247 -233 235 -247 219 -257 ct 
203 -267 185 -272 165 -272 ct 137 -272 112 -262 92 -243 ct 71 -224 61 -191 61 -146 ct 
p ef
503 0 m  503 -32 l  486 -7 462 5 433 5 ct 420 5 407 3 396 -2 ct 385 -7 376 -14 371 -21 ct 
365 -29 362 -38 359 -49 ct 358 -56 357 -68 357 -84 ct 357 -220 l  394 -220 l 
394 -98 l  394 -78 395 -65 396 -59 ct 399 -49 404 -41 411 -35 ct 419 -30 429 -27 440 -27 ct 
451 -27 462 -30 472 -36 ct 482 -41 489 -49 493 -59 ct 497 -69 499 -83 499 -102 ct 
499 -220 l  536 -220 l  536 0 l  503 0 l  p ef
676 -33 m  681 0 l  671 2 661 3 653 3 ct 639 3 629 1 621 -3 ct 614 -8 609 -13 606 -20 ct 
603 -27 601 -42 601 -64 ct 601 -191 l  574 -191 l  574 -220 l  601 -220 l 
601 -274 l  638 -297 l  638 -220 l  676 -220 l  676 -191 l  638 -191 l 
638 -63 l  638 -53 639 -46 640 -43 ct 641 -40 643 -37 647 -36 ct 650 -34 654 -33 659 -33 ct 
664 -33 669 -33 676 -33 ct p ef
713 0 m  713 -220 l  745 -220 l  745 -187 l  754 -203 762 -213 769 -218 ct 
776 -223 784 -225 793 -225 ct 806 -225 819 -221 832 -213 ct 819 -179 l  810 -184 801 -187 792 -187 ct 
784 -187 777 -185 770 -180 ct 764 -175 759 -168 756 -159 ct 752 -146 750 -131 750 -116 ct 
750 0 l  713 0 l  p ef
840 -110 m  840 -151 851 -181 874 -201 ct 892 -217 915 -225 942 -225 ct 972 -225 997 -215 1016 -195 ct 
1035 -175 1044 -148 1044 -113 ct 1044 -85 1040 -63 1031 -46 ct 1023 -30 1011 -17 995 -8 ct 
979 1 961 5 942 5 ct 912 5 887 -5 868 -25 ct 849 -44 840 -73 840 -110 ct p
878 -110 m  878 -82 884 -61 896 -47 ct 908 -33 924 -26 942 -26 ct 960 -26 976 -33 988 -47 ct 
1000 -61 1006 -83 1006 -111 ct 1006 -138 1000 -159 988 -173 ct 975 -187 960 -194 942 -194 ct 
924 -194 908 -187 896 -173 ct 884 -159 878 -138 878 -110 ct p ef
1077 -66 m  1114 -71 l  1116 -56 1122 -45 1131 -38 ct 1141 -30 1154 -26 1171 -26 ct 
1188 -26 1200 -29 1209 -36 ct 1217 -43 1221 -51 1221 -61 ct 1221 -69 1217 -76 1210 -81 ct 
1205 -84 1192 -88 1172 -93 ct 1144 -100 1125 -106 1114 -111 ct 1104 -116 1096 -123 1090 -132 ct 
1085 -141 1082 -151 1082 -162 ct 1082 -171 1084 -180 1089 -189 ct 1093 -197 1099 -204 1107 -210 ct 
1113 -214 1121 -218 1131 -221 ct 1141 -224 1152 -225 1163 -225 ct 1181 -225 1196 -223 1209 -218 ct 
1222 -213 1232 -206 1238 -197 ct 1244 -189 1249 -177 1251 -163 ct 1215 -158 l 
1213 -169 1208 -178 1200 -184 ct 1192 -191 1181 -194 1166 -194 ct 1149 -194 1137 -191 1129 -186 ct 
1122 -180 1118 -173 1118 -166 ct 1118 -161 1120 -157 1123 -153 ct 1126 -149 1131 -146 1137 -143 ct 
1141 -142 1152 -139 1171 -134 ct 1197 -127 1216 -121 1226 -116 ct 1236 -112 1244 -105 1250 -97 ct 
1256 -88 1259 -77 1259 -65 ct 1259 -52 1255 -41 1248 -30 ct 1241 -19 1231 -10 1217 -4 ct 
1203 2 1188 5 1171 5 ct 1142 5 1121 -1 1106 -13 ct 1091 -25 1081 -43 1077 -66 ct 
p ef
pom
0.449 0.625 0.812 c 10039 507 m  3617 507 l  3617 106 l  16460 106 l  16460 507 l 
10039 507 l  p ef
0.207 0.398 0.644 c 10039 507 m  3617 507 l  3617 106 l  16460 106 l  16460 507 l 
10039 507 l  pc
0.449 0.625 0.812 c 4383 1507 m  3617 1507 l  3617 1106 l  5148 1106 l 
5148 1507 l  4383 1507 l  p ef
0.207 0.398 0.644 c 4383 1507 m  3617 1507 l  3617 1106 l  5148 1106 l 
5148 1507 l  4383 1507 l  pc
0.449 0.625 0.812 c 4696 2407 m  3618 2407 l  3618 2006 l  5774 2006 l 
5774 2407 l  4696 2407 l  p ef
0.207 0.398 0.644 c 4696 2407 m  3618 2407 l  3618 2006 l  5774 2006 l 
5774 2407 l  4696 2407 l  pc
0.449 0.625 0.812 c 5699 3407 m  3618 3407 l  3618 3006 l  7780 3006 l 
7780 3407 l  5699 3407 l  p ef
0.207 0.398 0.644 c 5699 3407 m  3618 3407 l  3618 3006 l  7780 3006 l 
7780 3407 l  5699 3407 l  pc
0.449 0.625 0.812 c 6925 4307 m  3617 4307 l  3617 3906 l  10232 3906 l 
10232 4307 l  6925 4307 l  p ef
0.207 0.398 0.644 c 6925 4307 m  3617 4307 l  3617 3906 l  10232 3906 l 
10232 4307 l  6925 4307 l  pc
0.449 0.625 0.812 c 9995 5207 m  3618 5207 l  3618 4806 l  16372 4806 l 
16372 5207 l  9995 5207 l  p ef
0.207 0.398 0.644 c 9995 5207 m  3618 5207 l  3618 4806 l  16372 4806 l 
16372 5207 l  9995 5207 l  pc
0.449 0.625 0.812 c 6093 6207 m  3618 6207 l  3618 5806 l  8568 5806 l 
8568 6207 l  6093 6207 l  p ef
0.207 0.398 0.644 c 6093 6207 m  3618 6207 l  3618 5806 l  8568 5806 l 
8568 6207 l  6093 6207 l  pc
0.449 0.625 0.812 c 3938 7107 m  3618 7107 l  3618 6706 l  4258 6706 l 
4258 7107 l  3938 7107 l  p ef
0.207 0.398 0.644 c 3938 7107 m  3618 7107 l  3618 6706 l  4258 6706 l 
4258 7107 l  3938 7107 l  pc
0.449 0.625 0.812 c 8129 8107 m  3617 8107 l  3617 7706 l  12640 7706 l 
12640 8107 l  8129 8107 l  p ef
0.207 0.398 0.644 c 8129 8107 m  3617 8107 l  3617 7706 l  12640 7706 l 
12640 8107 l  8129 8107 l  pc
pum
3542 8682 t
0.402 0.402 0.402 c 15 -131 m  15 -162 18 -187 25 -207 ct 31 -226 41 -241 54 -251 ct 
66 -261 83 -266 102 -266 ct 116 -266 129 -263 140 -257 ct 151 -252 160 -243 167 -233 ct 
174 -222 179 -209 183 -193 ct 187 -178 189 -157 189 -131 ct 189 -100 186 -75 179 -56 ct 
173 -36 163 -22 151 -11 ct 138 -1 122 4 102 4 ct 76 4 56 -5 41 -23 ct 24 -45 15 -81 15 -131 ct 
p
48 -131 m  48 -87 53 -58 64 -44 ct 74 -30 87 -23 102 -23 ct 117 -23 130 -30 140 -44 ct 
151 -59 156 -87 156 -131 ct 156 -174 151 -203 141 -218 ct 130 -232 117 -239 102 -239 ct 
86 -239 74 -233 65 -220 ct 54 -204 48 -174 48 -131 ct p ef
2015 -31 m  2015 0 l  1840 0 l  1840 -8 1841 -15 1844 -23 ct 1848 -34 1855 -46 1865 -58 ct 
1875 -69 1889 -82 1908 -97 ct 1936 -121 1956 -140 1966 -154 ct 1977 -168 1982 -181 1982 -193 ct 
1982 -206 1977 -217 1968 -226 ct 1959 -235 1947 -239 1932 -239 ct 1916 -239 1903 -234 1893 -225 ct 
1884 -215 1879 -202 1879 -185 ct 1846 -189 l  1848 -214 1857 -233 1872 -246 ct 
1887 -259 1907 -266 1932 -266 ct 1958 -266 1978 -259 1993 -245 ct 2008 -231 2015 -213 2015 -192 ct 
2015 -182 2013 -171 2008 -161 ct 2004 -151 1997 -140 1987 -129 ct 1977 -117 1960 -102 1937 -82 ct 
1917 -66 1905 -54 1899 -49 ct 1893 -43 1889 -37 1885 -31 ct 2015 -31 l  p ef
3879 0 m  3879 -63 l  3763 -63 l  3763 -93 l  3886 -265 l  3912 -265 l 
3912 -93 l  3948 -93 l  3948 -63 l  3912 -63 l  3912 0 l  3879 0 l  p
3879 -93 m  3879 -212 l  3795 -93 l  3879 -93 l  p ef
5875 -200 m  5842 -197 l  5839 -210 5835 -219 5830 -225 ct 5821 -234 5810 -239 5797 -239 ct 
5787 -239 5778 -236 5770 -230 ct 5760 -223 5752 -212 5746 -198 ct 5740 -184 5737 -163 5737 -137 ct 
5745 -149 5754 -158 5766 -163 ct 5777 -169 5789 -172 5801 -172 ct 5823 -172 5841 -164 5856 -148 ct 
5871 -132 5879 -112 5879 -86 ct 5879 -70 5875 -54 5868 -40 ct 5861 -26 5851 -15 5839 -7 ct 
5826 0 5812 4 5796 4 ct 5769 4 5747 -6 5730 -26 ct 5713 -46 5704 -79 5704 -124 ct 
5704 -175 5714 -212 5733 -236 ct 5749 -256 5771 -266 5799 -266 ct 5820 -266 5838 -260 5851 -248 ct 
5864 -237 5872 -221 5875 -200 ct p
5741 -86 m  5741 -75 5743 -64 5748 -54 ct 5753 -44 5760 -36 5768 -31 ct 5776 -26 5786 -23 5795 -23 ct 
5810 -23 5822 -29 5831 -40 ct 5841 -51 5846 -65 5846 -84 ct 5846 -103 5841 -117 5832 -127 ct 
5822 -138 5809 -143 5794 -143 ct 5779 -143 5767 -138 5756 -127 ct 5746 -117 5741 -103 5741 -86 ct 
p ef
7685 -144 m  7672 -149 7662 -156 7656 -165 ct 7649 -174 7646 -185 7646 -198 ct 
7646 -217 7653 -233 7667 -246 ct 7680 -259 7698 -266 7721 -266 ct 7744 -266 7762 -259 7776 -246 ct 
7790 -233 7797 -216 7797 -197 ct 7797 -185 7794 -174 7787 -165 ct 7781 -156 7771 -149 7758 -144 ct 
7775 -139 7787 -130 7795 -119 ct 7804 -107 7808 -93 7808 -76 ct 7808 -54 7800 -35 7784 -19 ct 
7768 -4 7747 4 7722 4 ct 7696 4 7675 -4 7659 -19 ct 7643 -35 7635 -54 7635 -77 ct 
7635 -94 7639 -109 7648 -121 ct 7657 -132 7669 -140 7685 -144 ct p
7679 -199 m  7679 -187 7683 -177 7691 -169 ct 7698 -161 7709 -157 7722 -157 ct 
7735 -157 7745 -161 7752 -169 ct 7760 -176 7764 -186 7764 -197 ct 7764 -209 7760 -219 7752 -227 ct 
7744 -235 7734 -239 7722 -239 ct 7709 -239 7699 -235 7691 -227 ct 7683 -219 7679 -210 7679 -199 ct 
p
7668 -77 m  7668 -68 7670 -59 7674 -50 ct 7678 -42 7685 -35 7694 -30 ct 7703 -25 7712 -23 7722 -23 ct 
7738 -23 7750 -28 7760 -38 ct 7770 -48 7775 -61 7775 -76 ct 7775 -92 7770 -104 7760 -115 ct 
7750 -125 7737 -130 7721 -130 ct 7705 -130 7693 -125 7683 -115 ct 7673 -105 7668 -92 7668 -77 ct 
p ef
9485 0 m  9452 0 l  9452 -207 l  9444 -200 9434 -192 9421 -185 ct 9409 -177 9397 -172 9387 -168 ct 
9387 -200 l  9405 -208 9421 -218 9435 -231 ct 9448 -243 9458 -255 9464 -266 ct 
9485 -266 l  9485 0 l  p ef
9565 -131 m  9565 -162 9568 -187 9575 -207 ct 9581 -226 9591 -241 9604 -251 ct 
9616 -261 9633 -266 9652 -266 ct 9666 -266 9679 -263 9690 -257 ct 9701 -252 9710 -243 9717 -233 ct 
9724 -222 9729 -209 9733 -193 ct 9737 -178 9739 -157 9739 -131 ct 9739 -100 9736 -75 9729 -56 ct 
9723 -36 9713 -22 9701 -11 ct 9688 -1 9672 4 9652 4 ct 9626 4 9606 -5 9591 -23 ct 
9574 -45 9565 -81 9565 -131 ct p
9598 -131 m  9598 -87 9603 -58 9614 -44 ct 9624 -30 9637 -23 9652 -23 ct 9667 -23 9680 -30 9690 -44 ct 
9701 -59 9706 -87 9706 -131 ct 9706 -174 9701 -203 9691 -218 ct 9680 -232 9667 -239 9652 -239 ct 
9636 -239 9624 -233 9615 -220 ct 9604 -204 9598 -174 9598 -131 ct p ef
11416 0 m  11383 0 l  11383 -207 l  11375 -200 11365 -192 11352 -185 ct 11340 -177 11328 -172 11318 -168 ct 
11318 -200 l  11336 -208 11352 -218 11366 -231 ct 11379 -243 11389 -255 11395 -266 ct 
11416 -266 l  11416 0 l  p ef
11667 -31 m  11667 0 l  11492 0 l  11492 -8 11493 -15 11496 -23 ct 11500 -34 11507 -46 11517 -58 ct 
11527 -69 11541 -82 11560 -97 ct 11588 -121 11608 -140 11618 -154 ct 11629 -168 11634 -181 11634 -193 ct 
11634 -206 11629 -217 11620 -226 ct 11611 -235 11599 -239 11584 -239 ct 11568 -239 11555 -234 11545 -225 ct 
11536 -215 11531 -202 11531 -185 ct 11498 -189 l  11500 -214 11509 -233 11524 -246 ct 
11539 -259 11559 -266 11584 -266 ct 11610 -266 11630 -259 11645 -245 ct 11660 -231 11667 -213 11667 -192 ct 
11667 -182 11665 -171 11660 -161 ct 11656 -151 11649 -140 11639 -129 ct 11629 -117 11612 -102 11589 -82 ct 
11569 -66 11557 -54 11551 -49 ct 11545 -43 11541 -37 11537 -31 ct 11667 -31 l 
p ef
13346 0 m  13313 0 l  13313 -207 l  13305 -200 13295 -192 13282 -185 ct 13270 -177 13258 -172 13248 -168 ct 
13248 -200 l  13266 -208 13282 -218 13296 -231 ct 13309 -243 13319 -255 13325 -266 ct 
13346 -266 l  13346 0 l  p ef
13531 0 m  13531 -63 l  13415 -63 l  13415 -93 l  13538 -265 l  13564 -265 l 
13564 -93 l  13600 -93 l  13600 -63 l  13564 -63 l  13564 0 l  13531 0 l 
p
13531 -93 m  13531 -212 l  13447 -93 l  13531 -93 l  p ef
13839 -201 m  13839 -220 13844 -236 13853 -249 ct 13863 -262 13876 -269 13895 -269 ct 
13911 -269 13925 -263 13936 -251 ct 13947 -239 13952 -222 13952 -199 ct 13952 -177 13947 -159 13936 -147 ct 
13925 -135 13911 -129 13895 -129 ct 13879 -129 13866 -135 13855 -147 ct 13844 -159 13839 -177 13839 -201 ct 
p
13895 -246 m  13887 -246 13881 -243 13875 -236 ct 13870 -229 13867 -216 13867 -198 ct 
13867 -181 13870 -169 13875 -162 ct 13881 -155 13887 -152 13895 -152 ct 13904 -152 13910 -155 13916 -162 ct 
13921 -169 13924 -182 13924 -200 ct 13924 -217 13921 -229 13916 -236 ct 13910 -243 13904 -246 13895 -246 ct 
p
13896 10 m  14041 -269 l  14068 -269 l  13923 10 l  13896 10 l  p
14011 -62 m  14011 -81 14016 -97 14025 -110 ct 14035 -123 14048 -130 14067 -130 ct 
14083 -130 14097 -124 14108 -112 ct 14119 -100 14124 -83 14124 -60 ct 14124 -38 14119 -20 14108 -8 ct 
14097 4 14083 10 14067 10 ct 14051 10 14038 4 14027 -8 ct 14016 -20 14011 -38 14011 -62 ct 
p
14068 -107 m  14059 -107 14052 -104 14047 -97 ct 14042 -90 14039 -77 14039 -59 ct 
14039 -42 14042 -30 14047 -23 ct 14053 -16 14059 -13 14067 -13 ct 14076 -13 14083 -16 14088 -23 ct 
14093 -30 14096 -43 14096 -61 ct 14096 -78 14093 -90 14088 -97 ct 14082 -104 14076 -107 14068 -107 ct 
p ef
pom
gr
gs
0 0 m 17999 0 l 17999 8999 l 0 8999 l 0 0 l eoclip newpath
gr
gr
0 9000 t 
pom
count op_count sub {pop} repeat countdictstack dict_count sub {end} repeat b4_inc_state restore
%%PageTrailer
%%Trailer
%%EOF
