%!PS-Adobe-3.0 EPSF-3.0 
%%BoundingBox: 0 0 397 170
%%Pages: 0
%%Creator: LibreOffice 4.3
%%Title: none
%%CreationDate: none
%%LanguageLevel: 2
%%EndComments
%%BeginProlog
%%BeginResource: procset SDRes-Prolog 1.0 0
/b4_inc_state save def
/dict_count countdictstack def
/op_count count 1 sub def
userdict begin
0 setgray 0 setlinecap 1 setlinewidth 0 setlinejoin 10 setmiterlimit[] 0 setdash newpath
/languagelevel where {pop languagelevel 1 ne {false setstrokeadjust false setoverprint} if} if
/bdef {bind def} bind def
/c {setrgbcolor} bdef
/l {neg lineto} bdef
/rl {neg rlineto} bdef
/lc {setlinecap} bdef
/lj {setlinejoin} bdef
/lw {setlinewidth} bdef
/ml {setmiterlimit} bdef
/ld {setdash} bdef
/m {neg moveto} bdef
/ct {6 2 roll neg 6 2 roll neg 6 2 roll neg curveto} bdef
/r {rotate} bdef
/t {neg translate} bdef
/s {scale} bdef
/sw {show} bdef
/gs {gsave} bdef
/gr {grestore} bdef
/f {findfont dup length dict begin
{1 index /FID ne {def} {pop pop} ifelse} forall /Encoding ISOLatin1Encoding def
currentdict end /NFont exch definefont pop /NFont findfont} bdef
/p {closepath} bdef
/sf {scalefont setfont} bdef
/ef {eofill}bdef
/pc {closepath stroke}bdef
/ps {stroke}bdef
/pum {matrix currentmatrix}bdef
/pom {setmatrix}bdef
/bs {/aString exch def /nXOfs exch def /nWidth exch def currentpoint nXOfs 0 rmoveto pum nWidth aString stringwidth pop div 1 scale aString show pom moveto} bdef
%%EndResource
%%EndProlog
%%BeginSetup
%%EndSetup
%%Page: 1 1
%%BeginPageSetup
%%EndPageSetup
pum
0.02835 0.02833 s 
0 -6000 t
/tm matrix currentmatrix def
gs
0 0 m 13999 0 l 13999 5999 l 0 5999 l 0 0 l eoclip newpath
gs
0 0 m 13999 0 l 13999 5999 l 0 5999 l 0 0 l eoclip newpath
1.000 1.000 1.000 c 0 0 m  13999 0 l  13999 5999 l  0 5999 l  0 0 l  p ef
0.449 0.625 0.812 c 5002 4290 m  4689 4290 l  4689 2900 l  5314 2900 l 
5314 4290 l  5002 4290 l  p ef
0 lw 1 lj 0.207 0.398 0.644 c 5002 4290 m  4689 4290 l  4689 2900 l  5314 2900 l 
5314 4290 l  5002 4290 l  pc
0.449 0.625 0.812 c 9217 4286 m  8868 4286 l  8868 2900 l  9566 2900 l 
9566 4286 l  9217 4286 l  p ef
0.207 0.398 0.644 c 9217 4286 m  8868 4286 l  8868 2900 l  9566 2900 l 
9566 4286 l  9217 4286 l  pc
36 lw 0.113 0.113 0.113 c 5676 3595 m  7091 3595 l  7091 3593 l  8868 3593 l 
ps
5315 3595 m  5693 3721 l  5693 3469 l  5315 3595 l  p ef
pum
6145 3467 t
0.003 0.003 0.003 c 268 0 m  230 0 l  198 -83 l  73 -83 l  44 0 l  5 0 l  118 -296 l 
154 -296 l  268 0 l  p
187 -114 m  141 -240 l  139 -244 138 -251 136 -260 ct 135 -260 l  134 -252 132 -245 130 -240 ct 
84 -114 l  187 -114 l  p ef
467 0 m  314 0 l  314 -296 l  349 -296 l  349 -31 l  467 -31 l  467 0 l 
p ef
548 0 m  513 0 l  513 -296 l  548 -296 l  548 0 l  p ef
929 0 m  894 0 l  894 -199 l  894 -214 895 -233 897 -256 ct 896 -256 l  893 -243 890 -233 887 -227 ct 
787 0 l  770 0 l  670 -226 l  667 -232 664 -243 661 -256 ct 660 -256 l  661 -244 662 -225 662 -198 ct 
662 0 l  627 0 l  627 -296 l  674 -296 l  764 -90 l  771 -74 776 -62 778 -54 ct 
779 -54 l  785 -70 790 -82 793 -90 ct 885 -296 l  929 -296 l  929 0 l  p ef
1165 0 m  1008 0 l  1008 -296 l  1158 -296 l  1158 -265 l  1043 -265 l 
1043 -166 l  1150 -166 l  1150 -135 l  1043 -135 l  1043 -31 l  1165 -31 l 
1165 0 l  p ef
1463 0 m  1420 0 l  1268 -236 l  1264 -242 1261 -248 1259 -255 ct 1257 -255 l 
1258 -248 1259 -235 1259 -214 ct 1259 0 l  1224 0 l  1224 -296 l  1269 -296 l 
1417 -64 l  1423 -54 1427 -48 1429 -44 ct 1430 -44 l  1429 -53 1428 -67 1428 -88 ct 
1428 -296 l  1463 -296 l  1463 0 l  p ef
1718 -265 m  1632 -265 l  1632 0 l  1597 0 l  1597 -265 l  1511 -265 l 
1511 -296 l  1718 -296 l  1718 -265 l  p ef
1957 0 m  1919 0 l  1887 -83 l  1762 -83 l  1733 0 l  1694 0 l  1807 -296 l 
1843 -296 l  1957 0 l  p
1876 -114 m  1830 -240 l  1828 -244 1827 -251 1825 -260 ct 1824 -260 l  1823 -252 1821 -245 1819 -240 ct 
1773 -114 l  1876 -114 l  p ef
2215 0 m  2174 0 l  2124 -83 l  2120 -91 2115 -97 2111 -103 ct 2107 -108 2102 -113 2098 -116 ct 
2094 -120 2089 -122 2084 -124 ct 2079 -125 2073 -126 2066 -126 ct 2038 -126 l 
2038 0 l  2003 0 l  2003 -296 l  2091 -296 l  2104 -296 2116 -294 2127 -291 ct 
2138 -288 2147 -283 2155 -276 ct 2163 -270 2170 -262 2174 -252 ct 2179 -242 2181 -230 2181 -217 ct 
2181 -207 2179 -197 2176 -189 ct 2173 -180 2169 -172 2163 -166 ct 2158 -159 2151 -153 2143 -148 ct 
2135 -144 2126 -140 2116 -137 ct 2116 -137 l  2121 -134 2125 -132 2129 -129 ct 
2132 -126 2136 -123 2139 -119 ct 2142 -115 2145 -111 2149 -106 ct 2152 -101 2155 -95 2159 -89 ct 
2215 0 l  p
2038 -265 m  2038 -157 l  2085 -157 l  2094 -157 2102 -158 2109 -161 ct 2116 -164 2123 -167 2128 -172 ct 
2133 -177 2137 -183 2140 -190 ct 2143 -197 2145 -205 2145 -214 ct 2145 -230 2140 -243 2130 -252 ct 
2119 -261 2105 -265 2085 -265 ct 2038 -265 l  p ef
pom
0.449 0.625 0.812 c 4962 4998 m  4649 4998 l  4649 4557 l  5274 4557 l 
5274 4998 l  4962 4998 l  p ef
0 lw 0.207 0.398 0.644 c 4962 4998 m  4649 4998 l  4649 4557 l  5274 4557 l 
5274 4998 l  4962 4998 l  pc
0.449 0.625 0.812 c 9217 4998 m  8868 4998 l  8868 4557 l  9566 4557 l 
9566 4998 l  9217 4998 l  p ef
0.207 0.398 0.644 c 9217 4998 m  8868 4998 l  8868 4557 l  9566 4557 l 
9566 4998 l  9217 4998 l  pc
pum
6539 4667 t
0.003 0.003 0.003 c 241 -223 m  241 -210 239 -198 235 -188 ct 230 -178 224 -169 216 -161 ct 
208 -154 199 -148 188 -144 ct 177 -139 165 -136 153 -135 ct 153 -134 l  159 -132 165 -128 170 -121 ct 
175 -115 179 -106 182 -95 ct 206 0 l  168 0 l  146 -88 l  143 -101 138 -111 131 -117 ct 
124 -123 115 -126 104 -126 ct 78 -126 l  51 0 l  15 0 l  78 -296 l  159 -296 l 
174 -296 186 -294 197 -290 ct 207 -286 215 -281 222 -274 ct 229 -268 234 -260 237 -251 ct 
240 -242 241 -233 241 -223 ct p
205 -219 m  205 -226 204 -232 202 -237 ct 200 -243 197 -248 193 -252 ct 188 -256 183 -259 176 -262 ct 
170 -264 162 -265 153 -265 ct 107 -265 l  84 -157 l  125 -157 l  140 -157 152 -159 162 -162 ct 
172 -166 180 -170 187 -176 ct 193 -182 198 -188 201 -196 ct 204 -203 205 -211 205 -219 ct 
p ef
467 -265 m  353 -265 l  332 -164 l  437 -164 l  430 -133 l  325 -133 l 
303 -31 l  424 -31 l  418 0 l  261 0 l  324 -296 l  474 -296 l  467 -265 l 
p ef
662 -252 m  658 -254 654 -257 649 -259 ct 645 -261 640 -263 634 -265 ct 629 -266 623 -268 617 -269 ct 
611 -270 605 -270 600 -270 ct 588 -270 579 -268 572 -265 ct 564 -262 558 -258 554 -254 ct 
549 -249 546 -244 544 -238 ct 542 -232 541 -227 541 -222 ct 541 -216 542 -210 544 -204 ct 
545 -199 548 -194 552 -189 ct 555 -185 560 -180 565 -175 ct 571 -170 578 -165 585 -159 ct 
594 -153 601 -147 608 -141 ct 615 -135 620 -129 625 -122 ct 630 -116 633 -109 636 -102 ct 
638 -95 639 -87 639 -79 ct 639 -74 639 -68 638 -62 ct 637 -56 635 -50 632 -44 ct 
630 -38 626 -32 621 -26 ct 617 -20 611 -15 603 -10 ct 596 -6 587 -2 577 1 ct 567 4 555 5 541 5 ct 
534 5 526 4 519 3 ct 511 2 504 1 497 -1 ct 491 -3 485 -5 479 -7 ct 473 -9 469 -12 465 -14 ct 
471 -50 l  475 -47 480 -44 486 -41 ct 491 -38 497 -35 504 -33 ct 510 -31 517 -29 523 -28 ct 
530 -27 537 -26 543 -26 ct 554 -26 563 -27 570 -30 ct 578 -32 584 -36 589 -40 ct 
594 -44 597 -50 600 -56 ct 602 -61 603 -68 603 -75 ct 603 -81 602 -87 600 -92 ct 
598 -97 595 -101 591 -106 ct 587 -111 582 -116 576 -121 ct 570 -125 563 -131 554 -137 ct 
548 -142 541 -147 535 -152 ct 529 -158 523 -164 519 -171 ct 514 -177 511 -184 508 -192 ct 
505 -200 504 -208 504 -217 ct 504 -229 506 -239 510 -250 ct 514 -260 521 -269 529 -276 ct 
537 -284 547 -290 560 -294 ct 572 -299 586 -301 602 -301 ct 608 -301 614 -301 620 -300 ct 
627 -299 633 -298 638 -297 ct 644 -295 650 -294 655 -292 ct 660 -291 665 -289 669 -288 ct 
662 -252 l  p ef
890 -265 m  776 -265 l  755 -164 l  860 -164 l  853 -133 l  748 -133 l 
726 -31 l  847 -31 l  841 0 l  684 0 l  747 -296 l  897 -296 l  890 -265 l 
p ef
1127 -265 m  1043 -265 l  987 0 l  951 0 l  1007 -265 l  921 -265 l  928 -296 l 
1134 -296 l  1127 -265 l  p ef
pom
36 lw 0.113 0.113 0.113 c 5275 4778 m  8507 4778 l  ps
8868 4778 m  8490 4652 l  8490 4904 l  8868 4778 l  p ef
pum
213 1116 t
0.003 0.003 0.003 c 274 -247 m  270 -249 265 -252 260 -255 ct 255 -258 249 -260 243 -262 ct 
237 -265 230 -267 223 -268 ct 215 -269 207 -270 199 -270 ct 178 -270 160 -266 143 -259 ct 
126 -252 112 -242 101 -229 ct 89 -216 80 -201 74 -184 ct 68 -166 65 -148 65 -128 ct 
65 -111 67 -97 71 -84 ct 76 -71 82 -61 91 -52 ct 99 -44 109 -37 121 -33 ct 133 -28 146 -26 160 -26 ct 
169 -26 177 -27 185 -28 ct 192 -29 199 -30 205 -32 ct 212 -34 218 -36 223 -39 ct 
229 -41 234 -44 239 -47 ct 231 -11 l  220 -6 208 -2 195 1 ct 183 4 168 5 153 5 ct 
134 5 117 2 102 -4 ct 86 -10 73 -19 62 -31 ct 51 -42 43 -56 37 -72 ct 31 -88 28 -105 28 -125 ct 
28 -151 32 -174 41 -196 ct 49 -218 60 -236 75 -252 ct 91 -267 109 -279 130 -288 ct 
151 -297 174 -301 200 -301 ct 218 -301 233 -299 247 -295 ct 260 -292 272 -287 281 -282 ct 
274 -247 l  p ef
440 0 m  286 0 l  349 -296 l  385 -296 l  329 -31 l  447 -31 l  440 0 l 
p ef
747 -176 m  747 -163 746 -150 744 -138 ct 741 -125 738 -113 734 -101 ct 729 -90 724 -79 717 -68 ct 
711 -58 704 -48 696 -40 ct 689 -33 682 -27 674 -21 ct 666 -16 658 -11 649 -7 ct 
640 -3 631 0 621 2 ct 611 4 600 5 589 5 ct 570 5 553 2 538 -5 ct 523 -11 511 -20 500 -31 ct 
490 -42 482 -56 477 -71 ct 471 -86 468 -103 468 -121 ct 468 -150 473 -175 482 -198 ct 
492 -221 505 -240 521 -257 ct 535 -271 550 -281 568 -289 ct 586 -297 606 -301 628 -301 ct 
646 -301 663 -298 677 -292 ct 692 -286 705 -277 715 -266 ct 725 -255 733 -241 739 -226 ct 
744 -211 747 -194 747 -176 ct p
710 -175 m  710 -189 708 -203 704 -214 ct 700 -226 695 -236 687 -244 ct 680 -253 671 -259 660 -263 ct 
650 -268 638 -270 625 -270 ct 610 -270 595 -267 581 -260 ct 568 -253 555 -244 545 -233 ct 
538 -226 533 -218 528 -210 ct 523 -201 519 -192 515 -183 ct 512 -173 509 -163 507 -152 ct 
506 -142 505 -131 505 -121 ct 505 -107 507 -94 510 -82 ct 514 -71 520 -61 527 -53 ct 
534 -44 543 -38 554 -33 ct 564 -28 576 -26 590 -26 ct 605 -26 620 -29 634 -35 ct 
648 -41 660 -50 671 -62 ct 678 -70 683 -78 688 -87 ct 693 -96 697 -106 700 -116 ct 
704 -126 706 -136 708 -146 ct 710 -156 710 -165 710 -175 ct p ef
1032 -247 m  1028 -249 1023 -252 1018 -255 ct 1013 -258 1007 -260 1001 -262 ct 
995 -265 988 -267 981 -268 ct 973 -269 965 -270 957 -270 ct 936 -270 918 -266 901 -259 ct 
884 -252 870 -242 859 -229 ct 847 -216 838 -201 832 -184 ct 826 -166 823 -148 823 -128 ct 
823 -111 825 -97 829 -84 ct 834 -71 840 -61 849 -52 ct 857 -44 867 -37 879 -33 ct 
891 -28 904 -26 918 -26 ct 927 -26 935 -27 943 -28 ct 950 -29 957 -30 963 -32 ct 
970 -34 976 -36 981 -39 ct 987 -41 992 -44 997 -47 ct 989 -11 l  978 -6 966 -2 953 1 ct 
941 4 926 5 911 5 ct 892 5 875 2 860 -4 ct 844 -10 831 -19 820 -31 ct 809 -42 801 -56 795 -72 ct 
789 -88 786 -105 786 -125 ct 786 -151 790 -174 799 -196 ct 807 -218 818 -236 833 -252 ct 
849 -267 867 -279 888 -288 ct 909 -297 932 -301 958 -301 ct 976 -301 991 -299 1005 -295 ct 
1018 -292 1030 -287 1039 -282 ct 1032 -247 l  p ef
1147 -149 m  1250 0 l  1207 0 l  1117 -135 l  1117 -136 1116 -138 1114 -140 ct 
1113 -143 1112 -144 1111 -146 ct 1111 -146 l  1080 0 l  1044 0 l  1107 -296 l 
1143 -296 l  1113 -157 l  1114 -157 l  1116 -159 1117 -160 1119 -162 ct 1121 -164 1122 -165 1124 -167 ct 
1260 -296 l  1307 -296 l  1147 -149 l  p ef
pom
0.113 0.113 0.113 c 9217 2565 m  9217 1656 l  855 1656 l  855 1352 l  ps
9117 2568 m  9091 2548 l  9217 2900 l  9343 2548 l  9318 2567 l  9287 2582 l 
9254 2592 l  9218 2596 l  9183 2593 l  9148 2583 l  9117 2568 l  p ef
1.000 1.000 1.000 c 11247 5460 m  8857 5460 l  8857 2890 l  13637 2890 l 
13637 5460 l  11247 5460 l  p ef
53 lw 0.113 0.113 0.113 c 11247 5460 m  8857 5460 l  8857 2890 l  13637 2890 l 
13637 5460 l  11247 5460 l  pc
pum
10786 4376 t
0.003 0.003 0.003 c 281 -14 m  255 -1 224 6 186 6 ct 136 6 97 -10 67 -42 ct 38 -73 23 -115 23 -166 ct 
23 -222 40 -267 73 -301 ct 106 -335 148 -352 200 -352 ct 232 -352 259 -347 281 -338 ct 
281 -295 l  256 -309 229 -316 199 -316 ct 159 -316 127 -303 102 -276 ct 77 -249 65 -214 65 -169 ct 
65 -127 77 -93 100 -68 ct 123 -43 153 -30 191 -30 ct 225 -30 256 -38 281 -53 ct 
281 -14 l  p ef
391 -131 m  391 0 l  350 0 l  350 -346 l  445 -346 l  482 -346 511 -337 531 -319 ct 
552 -301 562 -276 562 -243 ct 562 -210 551 -183 528 -162 ct 506 -141 475 -131 437 -131 ct 
391 -131 l  p
391 -310 m  391 -167 l  434 -167 l  462 -167 483 -173 498 -186 ct 513 -199 520 -217 520 -241 ct 
520 -287 493 -310 439 -310 ct 391 -310 l  p ef
883 -140 m  883 -43 839 6 751 6 ct 667 6 625 -41 625 -134 ct 625 -346 l  666 -346 l 
666 -137 l  666 -66 696 -30 756 -30 ct 813 -30 842 -64 842 -133 ct 842 -346 l 
883 -346 l  883 -140 l  p ef
pom
36 lw 0.113 0.113 0.113 c 5002 2565 m  5002 1662 l  5036 1662 l  5036 1656 l 
ps
4902 2568 m  4876 2548 l  5002 2900 l  5128 2548 l  5103 2567 l  5072 2582 l 
5039 2592 l  5003 2596 l  4968 2593 l  4933 2583 l  4902 2568 l  p ef
1.000 1.000 1.000 c 2926 5461 m  537 5461 l  537 2888 l  5314 2888 l  5314 5461 l 
2926 5461 l  p ef
53 lw 0.113 0.113 0.113 c 2926 5461 m  537 5461 l  537 2888 l  5314 2888 l 
5314 5461 l  2926 5461 l  pc
pum
1423 4048 t
0.003 0.003 0.003 c 251 -310 m  151 -310 l  151 0 l  110 0 l  110 -310 l  10 -310 l 
10 -346 l  251 -346 l  251 -310 l  p ef
446 -114 m  271 -114 l  272 -86 279 -65 293 -50 ct 308 -35 327 -27 352 -27 ct 
380 -27 406 -36 429 -55 ct 429 -18 l  407 -2 378 6 343 6 ct 308 6 280 -5 260 -28 ct 
240 -50 230 -82 230 -123 ct 230 -161 241 -192 263 -217 ct 285 -241 312 -253 344 -253 ct 
377 -253 402 -243 419 -222 ct 437 -201 446 -172 446 -135 ct 446 -114 l  p
405 -147 m  405 -170 399 -188 388 -201 ct 378 -214 363 -220 343 -220 ct 325 -220 309 -213 296 -200 ct 
283 -186 275 -169 271 -147 ct 405 -147 l  p ef
858 0 m  818 0 l  818 -142 l  818 -170 814 -189 805 -202 ct 797 -214 783 -220 763 -220 ct 
746 -220 732 -212 720 -197 ct 708 -181 702 -163 702 -141 ct 702 0 l  662 0 l 
662 -147 l  662 -196 643 -220 606 -220 ct 588 -220 574 -213 563 -198 ct 552 -184 546 -165 546 -141 ct 
546 0 l  506 0 l  506 -247 l  546 -247 l  546 -208 l  547 -208 l  565 -238 590 -253 624 -253 ct 
641 -253 656 -248 668 -239 ct 681 -230 689 -217 694 -202 ct 712 -236 740 -253 776 -253 ct 
831 -253 858 -219 858 -152 ct 858 0 l  p ef
974 -35 m  973 -35 l  973 114 l  933 114 l  933 -247 l  973 -247 l  973 -204 l 
974 -204 l  993 -237 1022 -253 1059 -253 ct 1091 -253 1116 -242 1133 -220 ct 
1151 -198 1160 -168 1160 -131 ct 1160 -89 1150 -56 1130 -31 ct 1110 -6 1083 6 1048 6 ct 
1016 6 991 -8 974 -35 ct p
973 -135 m  973 -101 l  973 -80 980 -63 993 -48 ct 1006 -34 1023 -27 1043 -27 ct 
1067 -27 1085 -36 1099 -55 ct 1112 -73 1119 -99 1119 -132 ct 1119 -159 1113 -181 1100 -196 ct 
1087 -212 1070 -220 1049 -220 ct 1026 -220 1008 -212 994 -196 ct 980 -180 973 -160 973 -135 ct 
p ef
1328 6 m  1292 6 1262 -6 1241 -29 ct 1219 -52 1208 -82 1208 -121 ct 1208 -162 1219 -195 1242 -218 ct 
1265 -241 1295 -253 1334 -253 ct 1371 -253 1399 -242 1420 -219 ct 1441 -196 1451 -165 1451 -124 ct 
1451 -85 1440 -53 1418 -30 ct 1395 -6 1365 6 1328 6 ct p
1331 -220 m  1306 -220 1286 -211 1271 -194 ct 1256 -177 1249 -153 1249 -122 ct 
1249 -93 1256 -69 1271 -52 ct 1286 -35 1306 -27 1331 -27 ct 1356 -27 1376 -35 1390 -52 ct 
1403 -69 1410 -92 1410 -123 ct 1410 -154 1403 -178 1390 -195 ct 1376 -212 1356 -220 1331 -220 ct 
p ef
1646 -207 m  1639 -212 1629 -215 1616 -215 ct 1599 -215 1585 -207 1574 -191 ct 
1563 -175 1557 -153 1557 -126 ct 1557 0 l  1517 0 l  1517 -247 l  1557 -247 l 
1557 -196 l  1558 -196 l  1564 -213 1572 -227 1584 -237 ct 1595 -246 1608 -251 1622 -251 ct 
1633 -251 1641 -250 1646 -248 ct 1646 -207 l  p ef
1712 -310 m  1705 -310 1699 -312 1694 -317 ct 1689 -322 1686 -328 1686 -336 ct 
1686 -343 1689 -350 1694 -355 ct 1699 -360 1705 -362 1712 -362 ct 1719 -362 1725 -360 1730 -355 ct 
1735 -350 1738 -343 1738 -336 ct 1738 -329 1735 -323 1730 -318 ct 1725 -313 1719 -310 1712 -310 ct 
p
1731 0 m  1691 0 l  1691 -247 l  1731 -247 l  1731 0 l  p ef
1982 -236 m  1836 -33 l  1981 -33 l  1981 0 l  1778 0 l  1778 -12 l  1924 -214 l 
1792 -214 l  1792 -247 l  1982 -247 l  1982 -236 l  p ef
2211 0 m  2171 0 l  2171 -38 l  2170 -38 l  2153 -9 2128 6 2094 6 ct 2070 6 2051 -1 2037 -14 ct 
2023 -27 2016 -44 2016 -65 ct 2016 -111 2043 -138 2097 -146 ct 2171 -156 l  2171 -199 2154 -220 2120 -220 ct 
2091 -220 2064 -210 2040 -190 ct 2040 -230 l  2064 -245 2092 -253 2124 -253 ct 
2182 -253 2211 -222 2211 -161 ct 2211 0 l  p
2171 -124 m  2112 -116 l  2094 -113 2080 -109 2071 -102 ct 2062 -96 2057 -84 2057 -68 ct 
2057 -56 2061 -46 2070 -38 ct 2078 -31 2090 -27 2104 -27 ct 2123 -27 2139 -34 2152 -48 ct 
2165 -61 2171 -79 2171 -100 ct 2171 -124 l  p ef
2499 0 m  2459 0 l  2459 -41 l  2458 -41 l  2440 -10 2411 6 2373 6 ct 2342 6 2317 -5 2299 -27 ct 
2280 -49 2271 -80 2271 -118 ct 2271 -159 2281 -191 2302 -216 ct 2322 -241 2350 -253 2384 -253 ct 
2418 -253 2443 -240 2458 -213 ct 2459 -213 l  2459 -366 l  2499 -366 l  2499 0 l 
p
2459 -112 m  2459 -148 l  2459 -168 2452 -185 2439 -199 ct 2426 -213 2410 -220 2389 -220 ct 
2365 -220 2346 -211 2333 -193 ct 2319 -176 2312 -151 2312 -120 ct 2312 -91 2319 -68 2332 -52 ct 
2345 -35 2363 -27 2385 -27 ct 2407 -27 2425 -35 2438 -51 ct 2452 -67 2459 -87 2459 -112 ct 
p ef
2683 6 m  2647 6 2617 -6 2596 -29 ct 2574 -52 2563 -82 2563 -121 ct 2563 -162 2574 -195 2597 -218 ct 
2620 -241 2650 -253 2689 -253 ct 2726 -253 2754 -242 2775 -219 ct 2796 -196 2806 -165 2806 -124 ct 
2806 -85 2795 -53 2773 -30 ct 2750 -6 2720 6 2683 6 ct p
2686 -220 m  2661 -220 2641 -211 2626 -194 ct 2611 -177 2604 -153 2604 -122 ct 
2604 -93 2611 -69 2626 -52 ct 2641 -35 2661 -27 2686 -27 ct 2711 -27 2731 -35 2745 -52 ct 
2758 -69 2765 -92 2765 -123 ct 2765 -154 2758 -178 2745 -195 ct 2731 -212 2711 -220 2686 -220 ct 
p ef
3001 -207 m  2994 -212 2984 -215 2971 -215 ct 2954 -215 2940 -207 2929 -191 ct 
2918 -175 2912 -153 2912 -126 ct 2912 0 l  2872 0 l  2872 -247 l  2912 -247 l 
2912 -196 l  2913 -196 l  2919 -213 2927 -227 2939 -237 ct 2950 -246 2963 -251 2977 -251 ct 
2988 -251 2996 -250 3001 -248 ct 3001 -207 l  p ef
pom
pum
1838 4704 t
329 0 m  286 0 l  263 -256 l  263 -261 263 -267 264 -273 ct 264 -280 264 -286 265 -291 ct 
264 -291 l  262 -286 260 -280 258 -274 ct 255 -267 253 -262 250 -257 ct 119 0 l 
75 0 l  48 -346 l  90 -346 l  108 -83 l  109 -77 109 -71 108 -65 ct 108 -59 107 -53 107 -48 ct 
108 -48 l  108 -50 109 -53 110 -56 ct 112 -59 113 -62 114 -65 ct 115 -68 117 -71 118 -74 ct 
119 -77 121 -80 122 -83 ct 256 -346 l  294 -346 l  315 -81 l  316 -76 316 -71 316 -65 ct 
316 -59 315 -53 315 -48 ct 316 -48 l  317 -51 317 -53 319 -56 ct 320 -59 321 -62 322 -65 ct 
323 -68 324 -71 326 -74 ct 327 -77 328 -79 329 -82 ct 456 -346 l  501 -346 l 
329 0 l  p ef
675 -79 m  674 -73 673 -66 672 -58 ct 670 -51 669 -43 668 -36 ct 668 -28 667 -21 666 -15 ct 
666 -9 665 -4 665 0 ct 624 0 l  625 -3 625 -7 625 -11 ct 625 -16 626 -20 626 -25 ct 
627 -30 628 -35 628 -39 ct 629 -44 629 -48 630 -51 ct 629 -51 l  624 -43 619 -36 614 -29 ct 
609 -22 603 -16 597 -11 ct 590 -6 583 -2 576 1 ct 568 4 559 6 548 6 ct 538 6 528 4 519 0 ct 
510 -4 502 -9 496 -17 ct 489 -25 484 -34 481 -46 ct 478 -57 476 -71 476 -86 ct 
476 -95 477 -106 479 -118 ct 481 -130 484 -142 488 -154 ct 493 -167 499 -179 507 -190 ct 
514 -202 524 -213 535 -222 ct 547 -231 560 -239 575 -245 ct 591 -250 609 -253 629 -253 ct 
642 -253 655 -252 669 -250 ct 682 -248 696 -246 710 -243 ct 675 -79 l  p
664 -215 m  658 -216 652 -218 644 -219 ct 637 -220 630 -220 623 -220 ct 609 -220 597 -218 586 -213 ct 
575 -209 566 -203 558 -196 ct 550 -189 544 -180 538 -171 ct 533 -161 528 -152 525 -142 ct 
522 -132 520 -123 518 -113 ct 517 -103 516 -95 516 -87 ct 516 -78 517 -70 519 -62 ct 
520 -55 523 -48 526 -43 ct 530 -38 534 -34 540 -31 ct 545 -28 551 -27 559 -27 ct 
567 -27 574 -29 581 -32 ct 588 -35 595 -40 601 -45 ct 607 -51 613 -58 618 -65 ct 
623 -73 627 -81 631 -89 ct 635 -97 639 -106 641 -114 ct 644 -123 647 -131 648 -140 ct 
664 -215 l  p ef
890 -214 m  828 -214 l  800 -83 l  800 -78 799 -72 798 -66 ct 797 -60 796 -56 796 -52 ct 
796 -44 798 -38 802 -34 ct 805 -31 811 -29 819 -29 ct 821 -29 823 -29 826 -30 ct 
829 -31 832 -32 836 -33 ct 839 -34 842 -35 845 -36 ct 848 -37 851 -38 854 -39 ct 
846 -5 l  840 -2 834 0 827 1 ct 820 3 813 4 807 4 ct 797 4 790 3 783 0 ct 777 -2 771 -5 767 -10 ct 
763 -14 760 -19 758 -25 ct 757 -32 756 -38 756 -46 ct 756 -51 756 -56 757 -63 ct 
758 -69 759 -74 760 -80 ct 789 -214 l  748 -214 l  755 -247 l  796 -247 l 
808 -307 l  809 -308 812 -308 816 -310 ct 820 -311 825 -312 830 -314 ct 835 -315 840 -317 844 -318 ct 
848 -319 850 -320 851 -320 ct 836 -247 l  898 -247 l  890 -214 l  p ef
1093 -199 m  1087 -205 1078 -210 1069 -214 ct 1059 -218 1049 -220 1037 -220 ct 
1026 -220 1016 -218 1007 -214 ct 998 -210 990 -205 983 -199 ct 977 -192 971 -185 966 -176 ct 
961 -168 956 -159 953 -150 ct 950 -141 948 -132 946 -123 ct 945 -114 944 -106 944 -98 ct 
944 -75 949 -57 959 -45 ct 969 -33 983 -27 1001 -27 ct 1011 -27 1022 -29 1034 -34 ct 
1045 -38 1056 -44 1066 -51 ct 1057 -12 l  1047 -6 1037 -2 1026 1 ct 1016 4 1005 6 993 6 ct 
978 6 965 3 954 -2 ct 943 -7 933 -14 926 -23 ct 919 -32 913 -43 909 -55 ct 906 -67 904 -80 904 -95 ct 
904 -108 905 -122 908 -135 ct 911 -148 915 -160 920 -172 ct 925 -184 932 -194 940 -204 ct 
948 -214 957 -223 967 -230 ct 977 -237 989 -243 1001 -247 ct 1014 -251 1027 -253 1042 -253 ct 
1049 -253 1056 -253 1062 -252 ct 1068 -251 1074 -249 1079 -248 ct 1084 -246 1089 -244 1093 -243 ct 
1097 -241 1100 -239 1102 -237 ct 1093 -199 l  p ef
1351 -185 m  1351 -183 1351 -179 1350 -175 ct 1349 -171 1349 -166 1348 -162 ct 
1347 -157 1347 -152 1346 -147 ct 1345 -142 1344 -139 1343 -135 ct 1314 0 l  1274 0 l 
1305 -145 l  1305 -148 1306 -151 1307 -154 ct 1307 -158 1308 -161 1308 -164 ct 
1309 -168 1309 -171 1309 -174 ct 1310 -176 1310 -179 1310 -180 ct 1310 -193 1307 -203 1301 -210 ct 
1296 -217 1287 -220 1275 -220 ct 1265 -220 1254 -217 1244 -211 ct 1234 -205 1224 -197 1215 -187 ct 
1206 -178 1199 -167 1192 -155 ct 1186 -143 1181 -132 1179 -120 ct 1153 0 l  1113 0 l 
1191 -366 l  1231 -366 l  1193 -190 l  1194 -190 l  1200 -199 1206 -207 1213 -215 ct 
1220 -223 1228 -229 1236 -235 ct 1244 -241 1252 -245 1261 -248 ct 1270 -251 1279 -253 1288 -253 ct 
1309 -253 1324 -247 1335 -235 ct 1346 -223 1351 -206 1351 -185 ct p ef
1593 -76 m  1592 -71 1591 -65 1590 -57 ct 1589 -50 1588 -43 1587 -36 ct 1586 -28 1586 -21 1585 -15 ct 
1585 -9 1584 -4 1584 0 ct 1543 0 l  1543 -3 1544 -6 1544 -11 ct 1544 -15 1545 -20 1545 -25 ct 
1546 -30 1547 -35 1547 -39 ct 1548 -44 1548 -47 1549 -50 ct 1548 -50 l  1542 -41 1536 -33 1531 -26 ct 
1525 -19 1519 -13 1512 -8 ct 1506 -3 1499 0 1492 2 ct 1485 5 1477 6 1468 6 ct 1457 6 1447 4 1438 0 ct 
1429 -4 1421 -10 1414 -18 ct 1408 -26 1403 -35 1400 -47 ct 1397 -58 1395 -71 1395 -86 ct 
1395 -98 1396 -111 1399 -124 ct 1401 -136 1405 -149 1410 -161 ct 1415 -174 1422 -185 1430 -197 ct 
1438 -208 1448 -217 1459 -226 ct 1470 -234 1483 -241 1497 -246 ct 1511 -251 1527 -253 1545 -253 ct 
1554 -253 1562 -252 1570 -251 ct 1578 -250 1584 -249 1590 -247 ct 1615 -366 l 
1654 -366 l  1593 -76 l  p
1583 -214 m  1577 -216 1570 -217 1564 -218 ct 1557 -219 1550 -220 1542 -220 ct 
1528 -220 1516 -218 1505 -213 ct 1495 -209 1485 -203 1477 -196 ct 1469 -189 1463 -180 1457 -171 ct 
1452 -162 1448 -152 1444 -142 ct 1441 -133 1439 -123 1437 -113 ct 1436 -104 1435 -95 1435 -88 ct 
1435 -79 1436 -70 1438 -63 ct 1439 -56 1442 -49 1445 -44 ct 1449 -38 1453 -34 1459 -31 ct 
1464 -28 1471 -27 1478 -27 ct 1486 -27 1494 -29 1501 -32 ct 1508 -36 1514 -40 1520 -46 ct 
1527 -52 1532 -59 1537 -66 ct 1542 -74 1547 -82 1551 -90 ct 1555 -99 1558 -108 1561 -117 ct 
1564 -125 1566 -134 1568 -142 ct 1583 -214 l  p ef
1889 -156 m  1889 -134 1885 -113 1879 -93 ct 1873 -74 1864 -57 1852 -42 ct 1841 -27 1827 -15 1810 -7 ct 
1793 2 1775 6 1754 6 ct 1740 6 1727 4 1715 -1 ct 1704 -5 1695 -12 1687 -20 ct 1679 -29 1672 -39 1668 -51 ct 
1664 -63 1662 -76 1662 -91 ct 1662 -114 1665 -135 1672 -155 ct 1678 -175 1687 -192 1699 -206 ct 
1711 -221 1725 -232 1742 -241 ct 1758 -249 1776 -253 1796 -253 ct 1810 -253 1823 -251 1834 -246 ct 
1846 -242 1855 -235 1863 -227 ct 1871 -218 1877 -208 1882 -196 ct 1886 -184 1889 -171 1889 -156 ct 
p
1848 -154 m  1848 -164 1847 -174 1844 -182 ct 1842 -190 1838 -197 1833 -203 ct 
1829 -208 1823 -213 1816 -216 ct 1810 -219 1802 -220 1794 -220 ct 1780 -220 1767 -216 1756 -209 ct 
1744 -202 1735 -192 1727 -180 ct 1719 -168 1713 -155 1709 -140 ct 1704 -125 1702 -109 1702 -93 ct 
1702 -83 1704 -74 1706 -66 ct 1709 -58 1712 -51 1717 -45 ct 1721 -39 1727 -35 1734 -32 ct 
1740 -29 1748 -27 1756 -27 ct 1770 -27 1783 -31 1795 -38 ct 1806 -45 1816 -55 1824 -67 ct 
1832 -78 1838 -92 1842 -107 ct 1846 -122 1848 -138 1848 -154 ct p ef
2114 -18 m  2110 1 2105 19 2098 36 ct 2092 52 2083 66 2072 78 ct 2061 90 2048 99 2032 106 ct 
2016 113 1996 116 1974 116 ct 1958 116 1944 114 1933 110 ct 1921 107 1910 102 1901 97 ct 
1908 61 l  1918 67 1929 72 1940 77 ct 1952 81 1964 83 1977 83 ct 1992 83 2004 81 2015 77 ct 
2025 73 2034 66 2042 58 ct 2049 50 2056 40 2061 28 ct 2066 17 2070 3 2074 -12 ct 
2082 -51 l  2081 -51 l  2075 -41 2069 -33 2063 -26 ct 2057 -18 2051 -13 2045 -8 ct 
2038 -3 2031 0 2024 3 ct 2017 5 2009 6 2001 6 ct 1990 6 1980 4 1971 0 ct 1962 -4 1954 -10 1948 -17 ct 
1941 -25 1936 -35 1933 -46 ct 1930 -58 1928 -71 1928 -86 ct 1928 -101 1929 -115 1933 -129 ct 
1936 -142 1940 -155 1946 -168 ct 1952 -180 1959 -192 1968 -202 ct 1977 -212 1986 -221 1997 -229 ct 
2008 -236 2020 -242 2033 -247 ct 2046 -251 2060 -253 2075 -253 ct 2090 -253 2105 -252 2120 -250 ct 
2135 -248 2149 -246 2162 -244 ct 2114 -18 l  p
2116 -215 m  2110 -216 2104 -218 2096 -219 ct 2088 -220 2080 -220 2071 -220 ct 
2056 -220 2042 -216 2030 -209 ct 2017 -202 2006 -193 1997 -181 ct 1988 -169 1981 -155 1976 -139 ct 
1971 -123 1968 -106 1968 -88 ct 1968 -79 1969 -71 1971 -63 ct 1972 -56 1975 -50 1978 -44 ct 
1981 -39 1985 -35 1991 -32 ct 1996 -29 2002 -27 2010 -27 ct 2019 -27 2027 -29 2034 -33 ct 
2042 -36 2049 -41 2055 -47 ct 2061 -54 2067 -61 2072 -68 ct 2077 -76 2081 -84 2085 -93 ct 
2089 -101 2092 -109 2094 -117 ct 2097 -125 2099 -132 2100 -139 ct 2116 -215 l 
p ef
pom
gr
gs
0 0 m 13999 0 l 13999 5999 l 0 5999 l 0 0 l eoclip newpath
gr
gr
0 6000 t 
pom
count op_count sub {pop} repeat countdictstack dict_count sub {end} repeat b4_inc_state restore
%%PageTrailer
%%Trailer
%%EOF
